UART/vcd/uart_tx_tb.vcd
$version Generated by VerilatedVcd $end
$timescale 1ns $end
 $scope module uart_tx_tb $end
  $var wire 1 " clk $end
  $var wire 1 # res_n $end
  $var wire 1 $ en $end
  $var wire 1 % uart_tx_out $end
  $var wire 1 & valid $end
  $var wire 1 ' b_tick $end
  $var wire 8 ( din [7:0] $end
  $var wire 16 Q! DIV [15:0] $end
  $var wire 12 ) tsr_data [11:0] $end
  $var wire 1 * sreg_clk $end
  $var wire 4 + cnt [3:0] $end
  $scope module dut $end
   $var wire 32 R! DATA_WIDTH [31:0] $end
   $var wire 32 S! TICKS_NUM [31:0] $end
   $var wire 1 , clk $end
   $var wire 1 - res_n $end
   $var wire 1 . tx_baud $end
   $var wire 1 / tx_start $end
   $var wire 8 T! lcreg [7:0] $end
   $var wire 8 0 tx_din [7:0] $end
   $var wire 1 1 tx_dout $end
   $var wire 1 2 tx_ready $end
   $var wire 8 3 tsr_data [7:0] $end
   $var wire 32 U! TICK_BW [31:0] $end
   $var wire 32 V! HALF_TICKS [31:0] $end
   $var wire 32 V! HALF_CYCLE [31:0] $end
   $var wire 3 4 state [2:0] $end
   $var wire 3 5 next_state [2:0] $end
   $var wire 1 6 sreg_en $end
   $var wire 1 7 load_en $end
   $var wire 1 8 reg_out $end
   $var wire 1 9 parity $end
   $var wire 1 : parity_bit $end
   $var wire 1 ; last_tick $end
   $var wire 1 < tx_pulled $end
   $var wire 1 = cb_incr $end
   $var wire 4 > count_ticks [3:0] $end
   $var wire 3 ? count_bits [2:0] $end
   $var wire 3 @ cb_next [2:0] $end
   $var wire 3 W! parity_reg [2:0] $end
   $var wire 1 A last_bit $end
   $var wire 1 X! stop_bits $end
   $var wire 1 Y! half_parity $end
   $scope module tsr $end
    $var wire 32 R! N [31:0] $end
    $var wire 1 B clk $end
    $var wire 1 C res_n $end
    $var wire 1 D en $end
    $var wire 1 E din $end
    $var wire 1 F load_en $end
    $var wire 8 G load [7:0] $end
    $var wire 8 H dout [7:0] $end
    $var wire 1 I dout_n $end
    $var wire 32 J i [31:0] $end
    $var wire 8 K darr [7:0] $end
    $scope module genblk1[0] $end
     $scope module dff_k $end
      $var wire 32 Z! N [31:0] $end
      $var wire 1 L clk $end
      $var wire 1 M res_n $end
      $var wire 1 X! en $end
      $var wire 1 N din [0:0] $end
      $var wire 1 O Q [0:0] $end
     $upscope $end
    $upscope $end
    $scope module genblk1[1] $end
     $scope module dff_k $end
      $var wire 32 Z! N [31:0] $end
      $var wire 1 P clk $end
      $var wire 1 Q res_n $end
      $var wire 1 X! en $end
      $var wire 1 R din [0:0] $end
      $var wire 1 S Q [0:0] $end
     $upscope $end
    $upscope $end
    $scope module genblk1[2] $end
     $scope module dff_k $end
      $var wire 32 Z! N [31:0] $end
      $var wire 1 T clk $end
      $var wire 1 U res_n $end
      $var wire 1 X! en $end
      $var wire 1 V din [0:0] $end
      $var wire 1 W Q [0:0] $end
     $upscope $end
    $upscope $end
    $scope module genblk1[3] $end
     $scope module dff_k $end
      $var wire 32 Z! N [31:0] $end
      $var wire 1 X clk $end
      $var wire 1 Y res_n $end
      $var wire 1 X! en $end
      $var wire 1 Z din [0:0] $end
      $var wire 1 [ Q [0:0] $end
     $upscope $end
    $upscope $end
    $scope module genblk1[4] $end
     $scope module dff_k $end
      $var wire 32 Z! N [31:0] $end
      $var wire 1 \ clk $end
      $var wire 1 ] res_n $end
      $var wire 1 X! en $end
      $var wire 1 ^ din [0:0] $end
      $var wire 1 _ Q [0:0] $end
     $upscope $end
    $upscope $end
    $scope module genblk1[5] $end
     $scope module dff_k $end
      $var wire 32 Z! N [31:0] $end
      $var wire 1 ` clk $end
      $var wire 1 a res_n $end
      $var wire 1 X! en $end
      $var wire 1 b din [0:0] $end
      $var wire 1 c Q [0:0] $end
     $upscope $end
    $upscope $end
    $scope module genblk1[6] $end
     $scope module dff_k $end
      $var wire 32 Z! N [31:0] $end
      $var wire 1 d clk $end
      $var wire 1 e res_n $end
      $var wire 1 X! en $end
      $var wire 1 f din [0:0] $end
      $var wire 1 g Q [0:0] $end
     $upscope $end
    $upscope $end
    $scope module genblk1[7] $end
     $scope module dff_k $end
      $var wire 32 Z! N [31:0] $end
      $var wire 1 h clk $end
      $var wire 1 i res_n $end
      $var wire 1 X! en $end
      $var wire 1 j din [0:0] $end
      $var wire 1 k Q [0:0] $end
     $upscope $end
    $upscope $end
   $upscope $end
  $upscope $end
  $scope module tb_thr $end
   $var wire 32 [! N [31:0] $end
   $var wire 1 l clk $end
   $var wire 1 m res_n $end
   $var wire 1 n en $end
   $var wire 1 o din $end
   $var wire 1 p load_en $end
   $var wire 12 q load [11:0] $end
   $var wire 12 r dout [11:0] $end
   $var wire 1 s dout_n $end
   $var wire 32 t i [31:0] $end
   $var wire 12 u darr [11:0] $end
   $scope module genblk1[0] $end
    $scope module dff_k $end
     $var wire 32 Z! N [31:0] $end
     $var wire 1 v clk $end
     $var wire 1 w res_n $end
     $var wire 1 X! en $end
     $var wire 1 x din [0:0] $end
     $var wire 1 y Q [0:0] $end
    $upscope $end
   $upscope $end
   $scope module genblk1[10] $end
    $scope module dff_k $end
     $var wire 32 Z! N [31:0] $end
     $var wire 1 z clk $end
     $var wire 1 { res_n $end
     $var wire 1 X! en $end
     $var wire 1 | din [0:0] $end
     $var wire 1 } Q [0:0] $end
    $upscope $end
   $upscope $end
   $scope module genblk1[11] $end
    $scope module dff_k $end
     $var wire 32 Z! N [31:0] $end
     $var wire 1 ~ clk $end
     $var wire 1 !! res_n $end
     $var wire 1 X! en $end
     $var wire 1 "! din [0:0] $end
     $var wire 1 #! Q [0:0] $end
    $upscope $end
   $upscope $end
   $scope module genblk1[1] $end
    $scope module dff_k $end
     $var wire 32 Z! N [31:0] $end
     $var wire 1 $! clk $end
     $var wire 1 %! res_n $end
     $var wire 1 X! en $end
     $var wire 1 &! din [0:0] $end
     $var wire 1 '! Q [0:0] $end
    $upscope $end
   $upscope $end
   $scope module genblk1[2] $end
    $scope module dff_k $end
     $var wire 32 Z! N [31:0] $end
     $var wire 1 (! clk $end
     $var wire 1 )! res_n $end
     $var wire 1 X! en $end
     $var wire 1 *! din [0:0] $end
     $var wire 1 +! Q [0:0] $end
    $upscope $end
   $upscope $end
   $scope module genblk1[3] $end
    $scope module dff_k $end
     $var wire 32 Z! N [31:0] $end
     $var wire 1 ,! clk $end
     $var wire 1 -! res_n $end
     $var wire 1 X! en $end
     $var wire 1 .! din [0:0] $end
     $var wire 1 /! Q [0:0] $end
    $upscope $end
   $upscope $end
   $scope module genblk1[4] $end
    $scope module dff_k $end
     $var wire 32 Z! N [31:0] $end
     $var wire 1 0! clk $end
     $var wire 1 1! res_n $end
     $var wire 1 X! en $end
     $var wire 1 2! din [0:0] $end
     $var wire 1 3! Q [0:0] $end
    $upscope $end
   $upscope $end
   $scope module genblk1[5] $end
    $scope module dff_k $end
     $var wire 32 Z! N [31:0] $end
     $var wire 1 4! clk $end
     $var wire 1 5! res_n $end
     $var wire 1 X! en $end
     $var wire 1 6! din [0:0] $end
     $var wire 1 7! Q [0:0] $end
    $upscope $end
   $upscope $end
   $scope module genblk1[6] $end
    $scope module dff_k $end
     $var wire 32 Z! N [31:0] $end
     $var wire 1 8! clk $end
     $var wire 1 9! res_n $end
     $var wire 1 X! en $end
     $var wire 1 :! din [0:0] $end
     $var wire 1 ;! Q [0:0] $end
    $upscope $end
   $upscope $end
   $scope module genblk1[7] $end
    $scope module dff_k $end
     $var wire 32 Z! N [31:0] $end
     $var wire 1 <! clk $end
     $var wire 1 =! res_n $end
     $var wire 1 X! en $end
     $var wire 1 >! din [0:0] $end
     $var wire 1 ?! Q [0:0] $end
    $upscope $end
   $upscope $end
   $scope module genblk1[8] $end
    $scope module dff_k $end
     $var wire 32 Z! N [31:0] $end
     $var wire 1 @! clk $end
     $var wire 1 A! res_n $end
     $var wire 1 X! en $end
     $var wire 1 B! din [0:0] $end
     $var wire 1 C! Q [0:0] $end
    $upscope $end
   $upscope $end
   $scope module genblk1[9] $end
    $scope module dff_k $end
     $var wire 32 Z! N [31:0] $end
     $var wire 1 D! clk $end
     $var wire 1 E! res_n $end
     $var wire 1 X! en $end
     $var wire 1 F! din [0:0] $end
     $var wire 1 G! Q [0:0] $end
    $upscope $end
   $upscope $end
  $upscope $end
  $scope module tx_baud $end
   $var wire 32 S! DIV_WIDTH [31:0] $end
   $var wire 1 H! res_n $end
   $var wire 1 I! clk_in $end
   $var wire 16 Q! div [15:0] $end
   $var wire 1 J! clk_out $end
   $var wire 16 K! counter [15:0] $end
   $var wire 16 L! next_count [15:0] $end
   $var wire 1 M! cycle_init $end
   $var wire 1 N! cycle_full $end
   $var wire 1 O! switch_clk $end
   $var wire 1 P! half_cycle $end
  $upscope $end
 $upscope $end
$enddefinitions $end


#0
1"
1#
0$
1%
0&
0'
b00000000 (
b000000000000 )
0*
b0000 +
1,
1-
0.
0/
b00000000 0
11
02
b00000000 3
b000 4
b000 5
06
07
08
09
1:
0;
0<
0=
b0000 >
b000 ?
b000 @
0A
0B
1C
0D
0E
0F
b00000000 G
b00000000 H
0I
b00000000000000000000000000001000 J
b00000000 K
0L
1M
0N
0O
0P
1Q
0R
0S
0T
1U
0V
0W
0X
1Y
0Z
0[
0\
1]
0^
0_
0`
1a
0b
0c
0d
1e
0f
0g
0h
1i
0j
0k
0l
1m
0n
1o
0p
b000000000000 q
b000000000000 r
0s
b00000000000000000000000000001100 t
b000000000000 u
0v
1w
0x
0y
0z
1{
0|
0}
0~
1!!
0"!
0#!
0$!
1%!
0&!
0'!
0(!
1)!
0*!
0+!
0,!
1-!
0.!
0/!
00!
11!
02!
03!
04!
15!
06!
07!
08!
19!
0:!
0;!
0<!
1=!
0>!
0?!
0@!
1A!
0B!
0C!
0D!
1E!
0F!
0G!
1H!
1I!
0J!
b0000000000000001 K!
b0000000000000010 L!
1M!
0N!
0O!
0P!
b0000000000000100 Q!
b00000000000000000000000000001000 R!
b00000000000000000000000000010000 S!
b00011111 T!
b00000000000000000000000000000011 U!
b00000000000000000000000000000111 V!
b011 W!
1X!
0Y!
b00000000000000000000000000000001 Z!
b00000000000000000000000000001100 [!
#5
0"
0,
0I!
#10
1"
0#
1'
1,
0-
1.
0C
0M
0Q
0U
0Y
0]
0a
0e
0i
0m
0w
0{
0!!
0%!
0)!
0-!
01!
05!
09!
0=!
0A!
0E!
0H!
1I!
1J!
#15
0"
0,
0I!
#20
1"
1,
1I!
#25
0"
0,
0I!
#30
1"
1#
1,
1-
1C
1M
1Q
1U
1Y
1]
1a
1e
1i
1m
1w
1{
1!!
1%!
1)!
1-!
11!
15!
19!
1=!
1A!
1E!
1H!
1I!
b0000000000000010 K!
b0000000000000011 L!
0M!
1O!
1P!
#35
0"
0,
0I!
#40
1"
0'
1,
0.
1I!
0J!
b0000000000000011 K!
b0000000000000100 L!
0O!
0P!
#45
0"
0,
0I!
#50
1"
1,
1I!
b0000000000000100 K!
b0000000000000101 L!
1N!
1O!
#55
0"
0,
0I!
#60
1"
1'
b0001 +
1,
1.
b0001 >
1I!
1J!
b0000000000000001 K!
b0000000000000010 L!
1M!
0N!
0O!
#65
0"
0,
0I!
#70
1"
1,
1I!
b0000000000000010 K!
b0000000000000011 L!
0M!
1O!
1P!
#75
0"
0,
0I!
#80
1"
0'
1,
0.
1I!
0J!
b0000000000000011 K!
b0000000000000100 L!
0O!
0P!
#85
0"
0,
0I!
#90
1"
1,
1I!
b0000000000000100 K!
b0000000000000101 L!
1N!
1O!
#95
0"
0,
0I!
#100
1"
1'
b0010 +
1,
1.
b0010 >
1I!
1J!
b0000000000000001 K!
b0000000000000010 L!
1M!
0N!
0O!
#105
0"
0,
0I!
#110
1"
1,
1I!
b0000000000000010 K!
b0000000000000011 L!
0M!
1O!
1P!
#115
0"
0,
0I!
#120
1"
0'
1,
0.
1I!
0J!
b0000000000000011 K!
b0000000000000100 L!
0O!
0P!
#125
0"
0,
0I!
#130
1"
1,
1I!
b0000000000000100 K!
b0000000000000101 L!
1N!
1O!
#135
0"
0,
0I!
#140
1"
1'
b0011 +
1,
1.
b0011 >
1I!
1J!
b0000000000000001 K!
b0000000000000010 L!
1M!
0N!
0O!
#145
0"
0,
0I!
#150
1"
1,
1I!
b0000000000000010 K!
b0000000000000011 L!
0M!
1O!
1P!
#155
0"
0,
0I!
#160
1"
0'
1,
0.
1I!
0J!
b0000000000000011 K!
b0000000000000100 L!
0O!
0P!
#165
0"
0,
0I!
#170
1"
1,
1I!
b0000000000000100 K!
b0000000000000101 L!
1N!
1O!
#175
0"
0,
0I!
#180
1"
1'
b0100 +
1,
1.
b0100 >
1I!
1J!
b0000000000000001 K!
b0000000000000010 L!
1M!
0N!
0O!
#185
0"
0,
0I!
#190
1"
1,
1I!
b0000000000000010 K!
b0000000000000011 L!
0M!
1O!
1P!
#195
0"
0,
0I!
#200
1"
0'
1,
0.
1I!
0J!
b0000000000000011 K!
b0000000000000100 L!
0O!
0P!
#205
0"
0,
0I!
#210
1"
1,
1I!
b0000000000000100 K!
b0000000000000101 L!
1N!
1O!
#215
0"
0,
0I!
#220
1"
1'
b0101 +
1,
1.
b0101 >
1I!
1J!
b0000000000000001 K!
b0000000000000010 L!
1M!
0N!
0O!
#225
0"
0,
0I!
#230
1"
1,
1I!
b0000000000000010 K!
b0000000000000011 L!
0M!
1O!
1P!
#235
0"
0,
0I!
#240
1"
0'
1,
0.
1I!
0J!
b0000000000000011 K!
b0000000000000100 L!
0O!
0P!
#245
0"
0,
0I!
#250
1"
1,
1I!
b0000000000000100 K!
b0000000000000101 L!
1N!
1O!
#255
0"
0,
0I!
#260
1"
1'
b0110 +
1,
1.
b0110 >
1I!
1J!
b0000000000000001 K!
b0000000000000010 L!
1M!
0N!
0O!
#265
0"
0,
0I!
#270
1"
1,
1I!
b0000000000000010 K!
b0000000000000011 L!
0M!
1O!
1P!
#275
0"
0,
0I!
#280
1"
0'
1,
0.
1I!
0J!
b0000000000000011 K!
b0000000000000100 L!
0O!
0P!
#285
0"
0,
0I!
#290
1"
1,
1I!
b0000000000000100 K!
b0000000000000101 L!
1N!
1O!
#295
0"
0,
0I!
#300
1"
1'
1*
b0111 +
1,
1.
b0111 >
1l
1v
1z
1~
1$!
1(!
1,!
10!
14!
18!
1<!
1@!
1D!
1I!
1J!
b0000000000000001 K!
b0000000000000010 L!
1M!
0N!
0O!
#305
0"
0,
0I!
#310
1"
1,
1I!
b0000000000000010 K!
b0000000000000011 L!
0M!
1O!
1P!
#315
0"
0,
0I!
#320
1"
0'
1,
0.
1I!
0J!
b0000000000000011 K!
b0000000000000100 L!
0O!
0P!
#325
0"
0,
0I!
#330
1"
1,
1I!
b0000000000000100 K!
b0000000000000101 L!
1N!
1O!
#335
0"
0,
0I!
#340
1"
1'
0*
b1000 +
1,
1.
b1000 >
0l
0v
0z
0~
0$!
0(!
0,!
00!
04!
08!
0<!
0@!
0D!
1I!
1J!
b0000000000000001 K!
b0000000000000010 L!
1M!
0N!
0O!
#345
0"
0,
0I!
#350
1"
1,
1I!
b0000000000000010 K!
b0000000000000011 L!
0M!
1O!
1P!
#355
0"
0,
0I!
#360
1"
0'
1,
0.
1I!
0J!
b0000000000000011 K!
b0000000000000100 L!
0O!
0P!
#365
0"
0,
0I!
#370
1"
1,
1I!
b0000000000000100 K!
b0000000000000101 L!
1N!
1O!
#375
0"
0,
0I!
#380
1"
1'
b1001 +
1,
1.
b1001 >
1I!
1J!
b0000000000000001 K!
b0000000000000010 L!
1M!
0N!
0O!
#385
0"
0,
0I!
#390
1"
1,
1I!
b0000000000000010 K!
b0000000000000011 L!
0M!
1O!
1P!
#395
0"
0,
0I!
#400
1"
0'
1,
0.
1I!
0J!
b0000000000000011 K!
b0000000000000100 L!
0O!
0P!
#405
0"
0,
0I!
#410
1"
1,
1I!
b0000000000000100 K!
b0000000000000101 L!
1N!
1O!
#415
0"
0,
0I!
#420
1"
1'
b1010 +
1,
1.
b1010 >
1I!
1J!
b0000000000000001 K!
b0000000000000010 L!
1M!
0N!
0O!
#425
0"
0,
0I!
#430
1"
1,
1I!
b0000000000000010 K!
b0000000000000011 L!
0M!
1O!
1P!
#435
0"
0,
0I!
#440
1"
0'
1,
0.
1I!
0J!
b0000000000000011 K!
b0000000000000100 L!
0O!
0P!
#445
0"
0,
0I!
#450
1"
1,
1I!
b0000000000000100 K!
b0000000000000101 L!
1N!
1O!
#455
0"
0,
0I!
#460
1"
1'
b1011 +
1,
1.
b1011 >
1I!
1J!
b0000000000000001 K!
b0000000000000010 L!
1M!
0N!
0O!
#465
0"
0,
0I!
#470
1"
1,
1I!
b0000000000000010 K!
b0000000000000011 L!
0M!
1O!
1P!
#475
0"
0,
0I!
#480
1"
0'
1,
0.
1I!
0J!
b0000000000000011 K!
b0000000000000100 L!
0O!
0P!
#485
0"
0,
0I!
#490
1"
1,
1I!
b0000000000000100 K!
b0000000000000101 L!
1N!
1O!
#495
0"
0,
0I!
#500
1"
1'
b1100 +
1,
1.
b1100 >
1I!
1J!
b0000000000000001 K!
b0000000000000010 L!
1M!
0N!
0O!
#505
0"
0,
0I!
#510
1"
1,
1I!
b0000000000000010 K!
b0000000000000011 L!
0M!
1O!
1P!
#515
0"
0,
0I!
#520
1"
0'
1,
0.
1I!
0J!
b0000000000000011 K!
b0000000000000100 L!
0O!
0P!
#525
0"
0,
0I!
#530
1"
1,
1I!
b0000000000000100 K!
b0000000000000101 L!
1N!
1O!
#535
0"
0,
0I!
#540
1"
1'
b1101 +
1,
1.
b1101 >
1I!
1J!
b0000000000000001 K!
b0000000000000010 L!
1M!
0N!
0O!
#545
0"
0,
0I!
#550
1"
1,
1I!
b0000000000000010 K!
b0000000000000011 L!
0M!
1O!
1P!
#555
0"
0,
0I!
#560
1"
0'
1,
0.
1I!
0J!
b0000000000000011 K!
b0000000000000100 L!
0O!
0P!
#565
0"
0,
0I!
#570
1"
1,
1I!
b0000000000000100 K!
b0000000000000101 L!
1N!
1O!
#575
0"
0,
0I!
#580
1"
1'
b1110 +
1,
1.
b1110 >
1I!
1J!
b0000000000000001 K!
b0000000000000010 L!
1M!
0N!
0O!
#585
0"
0,
0I!
#590
1"
1,
1I!
b0000000000000010 K!
b0000000000000011 L!
0M!
1O!
1P!
#595
0"
0,
0I!
#600
1"
0'
1,
0.
1I!
0J!
b0000000000000011 K!
b0000000000000100 L!
0O!
0P!
#605
0"
0,
0I!
#610
1"
1,
1I!
b0000000000000100 K!
b0000000000000101 L!
1N!
1O!
#615
0"
0,
0I!
#620
1"
1'
b1111 +
1,
1.
1;
b1111 >
1B
1L
1P
1T
1X
1\
1`
1d
1h
1I!
1J!
b0000000000000001 K!
b0000000000000010 L!
1M!
0N!
0O!
#625
0"
0,
0I!
#630
1"
1,
1I!
b0000000000000010 K!
b0000000000000011 L!
0M!
1O!
1P!
#635
0"
0,
0I!
#640
1"
0'
1,
0.
1I!
0J!
b0000000000000011 K!
b0000000000000100 L!
0O!
0P!
#645
0"
0,
0I!
#650
1"
1,
1I!
b0000000000000100 K!
b0000000000000101 L!
1N!
1O!
#655
0"
0,
0I!
#660
1"
1'
b0000 +
1,
1.
0;
b0000 >
0B
0L
0P
0T
0X
0\
0`
0d
0h
1I!
1J!
b0000000000000001 K!
b0000000000000010 L!
1M!
0N!
0O!
#665
0"
0,
0I!
#670
1"
1$
b11000010 (
1,
1/
b11000010 0
b001 5
19
0:
b11000010 G
1n
b100000000000 u
1"!
1I!
b0000000000000010 K!
b0000000000000011 L!
0M!
1O!
1P!
#675
0"
0,
0I!
#680
1"
0'
1,
0.
1I!
0J!
b0000000000000011 K!
b0000000000000100 L!
0O!
0P!
#685
0"
0,
0I!
#690
1"
1,
1I!
b0000000000000100 K!
b0000000000000101 L!
1N!
1O!
#695
0"
0,
0I!
#700
1"
1'
b0001 +
1,
1.
b0001 >
1I!
1J!
b0000000000000001 K!
b0000000000000010 L!
1M!
0N!
0O!
#705
0"
0,
0I!
#710
1"
1,
1I!
b0000000000000010 K!
b0000000000000011 L!
0M!
1O!
1P!
#715
0"
0,
0I!
#720
1"
0'
1,
0.
1I!
0J!
b0000000000000011 K!
b0000000000000100 L!
0O!
0P!
#725
0"
0,
0I!
#730
1"
1,
1I!
b0000000000000100 K!
b0000000000000101 L!
1N!
1O!
#735
0"
0,
0I!
#740
1"
1'
b0010 +
1,
1.
b0010 >
1I!
1J!
b0000000000000001 K!
b0000000000000010 L!
1M!
0N!
0O!
#745
0"
0,
0I!
#750
1"
1,
1I!
b0000000000000010 K!
b0000000000000011 L!
0M!
1O!
1P!
#755
0"
0,
0I!
#760
1"
0'
1,
0.
1I!
0J!
b0000000000000011 K!
b0000000000000100 L!
0O!
0P!
#765
0"
0,
0I!
#770
1"
1,
1I!
b0000000000000100 K!
b0000000000000101 L!
1N!
1O!
#775
0"
0,
0I!
#780
1"
1'
b0011 +
1,
1.
b0011 >
1I!
1J!
b0000000000000001 K!
b0000000000000010 L!
1M!
0N!
0O!
#785
0"
0,
0I!
#790
1"
1,
1I!
b0000000000000010 K!
b0000000000000011 L!
0M!
1O!
1P!
#795
0"
0,
0I!
#800
1"
0'
1,
0.
1I!
0J!
b0000000000000011 K!
b0000000000000100 L!
0O!
0P!
#805
0"
0,
0I!
#810
1"
1,
1I!
b0000000000000100 K!
b0000000000000101 L!
1N!
1O!
#815
0"
0,
0I!
#820
1"
1'
b0100 +
1,
1.
b0100 >
1I!
1J!
b0000000000000001 K!
b0000000000000010 L!
1M!
0N!
0O!
#825
0"
0,
0I!
#830
1"
1,
1I!
b0000000000000010 K!
b0000000000000011 L!
0M!
1O!
1P!
#835
0"
0,
0I!
#840
1"
0'
1,
0.
1I!
0J!
b0000000000000011 K!
b0000000000000100 L!
0O!
0P!
#845
0"
0,
0I!
#850
1"
1,
1I!
b0000000000000100 K!
b0000000000000101 L!
1N!
1O!
#855
0"
0,
0I!
#860
1"
1'
b0101 +
1,
1.
b0101 >
1I!
1J!
b0000000000000001 K!
b0000000000000010 L!
1M!
0N!
0O!
#865
0"
0,
0I!
#870
1"
1,
1I!
b0000000000000010 K!
b0000000000000011 L!
0M!
1O!
1P!
#875
0"
0,
0I!
#880
1"
0'
1,
0.
1I!
0J!
b0000000000000011 K!
b0000000000000100 L!
0O!
0P!
#885
0"
0,
0I!
#890
1"
1,
1I!
b0000000000000100 K!
b0000000000000101 L!
1N!
1O!
#895
0"
0,
0I!
#900
1"
1'
b0110 +
1,
1.
b0110 >
1I!
1J!
b0000000000000001 K!
b0000000000000010 L!
1M!
0N!
0O!
#905
0"
0,
0I!
#910
1"
1,
1I!
b0000000000000010 K!
b0000000000000011 L!
0M!
1O!
1P!
#915
0"
0,
0I!
#920
1"
0'
1,
0.
1I!
0J!
b0000000000000011 K!
b0000000000000100 L!
0O!
0P!
#925
0"
0,
0I!
#930
1"
1,
1I!
b0000000000000100 K!
b0000000000000101 L!
1N!
1O!
#935
0"
0,
0I!
#940
1"
1'
1*
b0111 +
1,
1.
b0111 >
1l
1v
1z
1~
1$!
1(!
1,!
10!
14!
18!
1<!
1@!
1D!
1I!
1J!
b0000000000000001 K!
b0000000000000010 L!
1M!
0N!
0O!
#942
b100000000000 )
b100000000000 r
b110000000000 u
1|
1#!
#945
0"
0,
0I!
#950
1"
1,
1I!
b0000000000000010 K!
b0000000000000011 L!
0M!
1O!
1P!
#955
0"
0,
0I!
#960
1"
0'
1,
0.
1I!
0J!
b0000000000000011 K!
b0000000000000100 L!
0O!
0P!
#965
0"
0,
0I!
#970
1"
1,
1I!
b0000000000000100 K!
b0000000000000101 L!
1N!
1O!
#975
0"
0,
0I!
#980
1"
1'
0*
b1000 +
1,
1.
b1000 >
0l
0v
0z
0~
0$!
0(!
0,!
00!
04!
08!
0<!
0@!
0D!
1I!
1J!
b0000000000000001 K!
b0000000000000010 L!
1M!
0N!
0O!
#985
0"
0,
0I!
#990
1"
1,
1I!
b0000000000000010 K!
b0000000000000011 L!
0M!
1O!
1P!
#995
0"
0,
0I!
#1000
1"
0'
1,
0.
1I!
0J!
b0000000000000011 K!
b0000000000000100 L!
0O!
0P!
#1005
0"
0,
0I!
#1010
1"
1,
1I!
b0000000000000100 K!
b0000000000000101 L!
1N!
1O!
#1015
0"
0,
0I!
#1020
1"
1'
b1001 +
1,
1.
b1001 >
1I!
1J!
b0000000000000001 K!
b0000000000000010 L!
1M!
0N!
0O!
#1025
0"
0,
0I!
#1030
1"
1,
1I!
b0000000000000010 K!
b0000000000000011 L!
0M!
1O!
1P!
#1035
0"
0,
0I!
#1040
1"
0'
1,
0.
1I!
0J!
b0000000000000011 K!
b0000000000000100 L!
0O!
0P!
#1045
0"
0,
0I!
#1050
1"
1,
1I!
b0000000000000100 K!
b0000000000000101 L!
1N!
1O!
#1055
0"
0,
0I!
#1060
1"
1'
b1010 +
1,
1.
b1010 >
1I!
1J!
b0000000000000001 K!
b0000000000000010 L!
1M!
0N!
0O!
#1065
0"
0,
0I!
#1070
1"
1,
1I!
b0000000000000010 K!
b0000000000000011 L!
0M!
1O!
1P!
#1075
0"
0,
0I!
#1080
1"
0'
1,
0.
1I!
0J!
b0000000000000011 K!
b0000000000000100 L!
0O!
0P!
#1085
0"
0,
0I!
#1090
1"
1,
1I!
b0000000000000100 K!
b0000000000000101 L!
1N!
1O!
#1095
0"
0,
0I!
#1100
1"
1'
b1011 +
1,
1.
b1011 >
1I!
1J!
b0000000000000001 K!
b0000000000000010 L!
1M!
0N!
0O!
#1105
0"
0,
0I!
#1110
1"
1,
1I!
b0000000000000010 K!
b0000000000000011 L!
0M!
1O!
1P!
#1115
0"
0,
0I!
#1120
1"
0'
1,
0.
1I!
0J!
b0000000000000011 K!
b0000000000000100 L!
0O!
0P!
#1125
0"
0,
0I!
#1130
1"
1,
1I!
b0000000000000100 K!
b0000000000000101 L!
1N!
1O!
#1135
0"
0,
0I!
#1140
1"
1'
b1100 +
1,
1.
b1100 >
1I!
1J!
b0000000000000001 K!
b0000000000000010 L!
1M!
0N!
0O!
#1145
0"
0,
0I!
#1150
1"
1,
1I!
b0000000000000010 K!
b0000000000000011 L!
0M!
1O!
1P!
#1155
0"
0,
0I!
#1160
1"
0'
1,
0.
1I!
0J!
b0000000000000011 K!
b0000000000000100 L!
0O!
0P!
#1165
0"
0,
0I!
#1170
1"
1,
1I!
b0000000000000100 K!
b0000000000000101 L!
1N!
1O!
#1175
0"
0,
0I!
#1180
1"
1'
b1101 +
1,
1.
b1101 >
1I!
1J!
b0000000000000001 K!
b0000000000000010 L!
1M!
0N!
0O!
#1185
0"
0,
0I!
#1190
1"
1,
1I!
b0000000000000010 K!
b0000000000000011 L!
0M!
1O!
1P!
#1195
0"
0,
0I!
#1200
1"
0'
1,
0.
1I!
0J!
b0000000000000011 K!
b0000000000000100 L!
0O!
0P!
#1205
0"
0,
0I!
#1210
1"
1,
1I!
b0000000000000100 K!
b0000000000000101 L!
1N!
1O!
#1215
0"
0,
0I!
#1220
1"
1'
b1110 +
1,
1.
b1110 >
1I!
1J!
b0000000000000001 K!
b0000000000000010 L!
1M!
0N!
0O!
#1225
0"
0,
0I!
#1230
1"
1,
1I!
b0000000000000010 K!
b0000000000000011 L!
0M!
1O!
1P!
#1235
0"
0,
0I!
#1240
1"
0'
1,
0.
1I!
0J!
b0000000000000011 K!
b0000000000000100 L!
0O!
0P!
#1245
0"
0,
0I!
#1250
1"
1,
1I!
b0000000000000100 K!
b0000000000000101 L!
1N!
1O!
#1255
0"
0,
0I!
#1260
1"
0%
1'
b1111 +
1,
1.
01
b001 4
b010 5
17
1;
b1111 >
1B
1F
b11000010 K
1L
1P
1R
1T
1X
1\
1`
1d
1f
1h
1j
0o
b010000000000 u
0"!
1I!
1J!
b0000000000000001 K!
b0000000000000010 L!
1M!
0N!
0O!
#1265
0"
0,
0I!
#1270
1"
1&
1,
12
1<
1I!
b0000000000000010 K!
b0000000000000011 L!
0M!
1O!
1P!
#1275
0"
0,
0I!
#1280
1"
0&
0'
1,
0.
02
1I!
0J!
b0000000000000011 K!
b0000000000000100 L!
0O!
0P!
#1285
0"
0,
0I!
#1290
1"
1,
1I!
b0000000000000100 K!
b0000000000000101 L!
1N!
1O!
#1295
0"
0,
0I!
#1300
1"
1'
b0000 +
1,
1.
0;
b0000 >
0B
0L
0P
0T
0X
0\
0`
0d
0h
1I!
1J!
b0000000000000001 K!
b0000000000000010 L!
1M!
0N!
0O!
#1305
0"
0,
0I!
#1310
1"
1,
1I!
b0000000000000010 K!
b0000000000000011 L!
0M!
1O!
1P!
#1315
0"
0,
0I!
#1320
1"
0'
1,
0.
1I!
0J!
b0000000000000011 K!
b0000000000000100 L!
0O!
0P!
#1325
0"
0,
0I!
#1330
1"
1,
1I!
b0000000000000100 K!
b0000000000000101 L!
1N!
1O!
#1335
0"
0,
0I!
#1340
1"
1'
b0001 +
1,
1.
b0001 >
1I!
1J!
b0000000000000001 K!
b0000000000000010 L!
1M!
0N!
0O!
#1345
0"
0,
0I!
#1350
1"
1,
1I!
b0000000000000010 K!
b0000000000000011 L!
0M!
1O!
1P!
#1355
0"
0,
0I!
#1360
1"
0'
1,
0.
1I!
0J!
b0000000000000011 K!
b0000000000000100 L!
0O!
0P!
#1365
0"
0,
0I!
#1370
1"
1,
1I!
b0000000000000100 K!
b0000000000000101 L!
1N!
1O!
#1375
0"
0,
0I!
#1380
1"
1'
b0010 +
1,
1.
b0010 >
1I!
1J!
b0000000000000001 K!
b0000000000000010 L!
1M!
0N!
0O!
#1385
0"
0,
0I!
#1390
1"
1,
1I!
b0000000000000010 K!
b0000000000000011 L!
0M!
1O!
1P!
#1395
0"
0,
0I!
