UART/vcd/uart_top_tb.vcd
$version Generated by VerilatedVcd $end
$timescale 1ns $end
 $scope module uart_top_tb $end
  $var wire 1 " clk $end
  $var wire 1 # res $end
  $var wire 1 $ wr $end
  $var wire 1 % rd $end
  $var wire 1 & ddis $end
  $var wire 3 ' addr [2:0] $end
  $var wire 8 ( data_bus [7:0] $end
  $var wire 8 ) dutin [7:0] $end
  $var wire 8 * dutout [7:0] $end
  $scope module dut $end
   $var wire 1 + clk $end
   $var wire 1 , rclk $end
   $var wire 1 - res $end
   $var wire 1 =# cs $end
   $var wire 1 . wr $end
   $var wire 1 / rd $end
   $var wire 1 0 sin $end
   $var wire 1 1 ddis $end
   $var wire 3 2 addr [2:0] $end
   $var wire 8 3 data_bus [7:0] $end
   $var wire 1 4 sout $end
   $var wire 1 5 baudout $end
   $var wire 1 6 intr $end
   $var wire 8 7 lsr [7:0] $end
   $var wire 8 8 lcr [7:0] $end
   $var wire 8 9 iir [7:0] $end
   $var wire 8 : ier [7:0] $end
   $var wire 8 ; fcr [7:0] $end
   $var wire 8 < dll [7:0] $end
   $var wire 8 = dlm [7:0] $end
   $var wire 8 > thr [7:0] $end
   $var wire 10 ? rx_fifo_out [9:0] $end
   $var wire 8 @ tsr_data [7:0] $end
   $var wire 8 A rd_data [7:0] $end
   $var wire 8 B data_in [7:0] $end
   $var wire 1 C ren $end
   $var wire 1 D wen $end
   $var wire 1 E dlab $end
   $var wire 1 F fifo_en $end
   $var wire 1 G lsr_rd $end
   $var wire 1 H thr_wr $end
   $var wire 1 I rbr_rd $end
   $var wire 1 J rx_ready $end
   $var wire 1 K rx_full $end
   $var wire 1 L tx_empty $end
   $var wire 1 M rx_empty $end
   $var wire 1 N tx_ready $end
   $var wire 1 O rx_pull $end
   $var wire 16 P divisor [15:0] $end
   $scope module uart_uut $end
    $var wire 32 ># LOOPBACK [31:0] $end
    $var wire 32 ?# DWIDTH [31:0] $end
    $var wire 32 @# DIV_BITS [31:0] $end
    $var wire 32 @# TICKS_NUM [31:0] $end
    $var wire 32 A# FIFO_ADDR_W [31:0] $end
    $var wire 1 Q clk $end
    $var wire 1 R clk_rx $end
    $var wire 1 S res_n $end
    $var wire 1 T rd_uart $end
    $var wire 1 U wr_uart $end
    $var wire 1 V rx_ext $end
    $var wire 16 W divisor [15:0] $end
    $var wire 8 X wr_data [7:0] $end
    $var wire 8 Y lcreg [7:0] $end
    $var wire 8 Z fcreg [7:0] $end
    $var wire 8 [ tsr_data [7:0] $end
    $var wire 10 \ rd_data [9:0] $end
    $var wire 1 ] tx_baud $end
    $var wire 1 ^ tx_ext $end
    $var wire 1 _ rx_empty $end
    $var wire 1 ` tx_full $end
    $var wire 1 a rx_ready $end
    $var wire 1 b rx_full $end
    $var wire 1 c tx_empty $end
    $var wire 1 d tx_ready $end
    $var wire 8 e tx_data [7:0] $end
    $var wire 8 f tx_fifo_out [7:0] $end
    $var wire 10 g rx_fifo_out [9:0] $end
    $var wire 10 h rx_out [9:0] $end
    $var wire 1 i rx_din $end
    $var wire 1 j rx_clk $end
    $var wire 1 k res_rxf $end
    $var wire 1 l res_txf $end
    $var wire 1 m fifo_en $end
    $var wire 1 n rx_fifo_full $end
    $var wire 1 o tx_fifo_full $end
    $var wire 1 p tx_push $end
    $var wire 1 q rx_push $end
    $scope module Rx_fifo $end
     $var wire 56 B# name [55:0] $end
     $var wire 32 A# ADDR_WIDTH [31:0] $end
     $var wire 32 D# DATA_WIDTH [31:0] $end
     $var wire 1 r res $end
     $var wire 1 s clk $end
     $var wire 1 t push $end
     $var wire 1 u pull $end
     $var wire 10 v din [9:0] $end
     $var wire 10 w dout [9:0] $end
     $var wire 1 x empty $end
     $var wire 1 y full $end
     $var wire 5 z count [4:0] $end
     $var wire 10 { mem[15] [9:0] $end
     $var wire 10 | mem[14] [9:0] $end
     $var wire 10 } mem[13] [9:0] $end
     $var wire 10 ~ mem[12] [9:0] $end
     $var wire 10 !! mem[11] [9:0] $end
     $var wire 10 "! mem[10] [9:0] $end
     $var wire 10 #! mem[9] [9:0] $end
     $var wire 10 $! mem[8] [9:0] $end
     $var wire 10 %! mem[7] [9:0] $end
     $var wire 10 &! mem[6] [9:0] $end
     $var wire 10 '! mem[5] [9:0] $end
     $var wire 10 (! mem[4] [9:0] $end
     $var wire 10 )! mem[3] [9:0] $end
     $var wire 10 *! mem[2] [9:0] $end
     $var wire 10 +! mem[1] [9:0] $end
     $var wire 10 ,! mem[0] [9:0] $end
     $var wire 4 -! w_ptr [3:0] $end
     $var wire 4 .! r_ptr [3:0] $end
     $var wire 4 /! next_w [3:0] $end
     $var wire 4 0! next_r [3:0] $end
     $var wire 1 1! ren $end
     $var wire 1 2! wen $end
     $var wire 5 3! count_add [4:0] $end
    $upscope $end
    $scope module Rx_uut $end
     $var wire 32 ?# DATA_WIDTH [31:0] $end
     $var wire 32 @# TICKS_NUM [31:0] $end
     $var wire 1 4! clk $end
     $var wire 1 5! res_n $end
     $var wire 1 6! rx_baud $end
     $var wire 1 7! rx_din $end
     $var wire 8 8! lcreg [7:0] $end
     $var wire 10 9! rx_out [9:0] $end
     $var wire 1 :! rx_ready $end
     $var wire 32 E# TICK_BW [31:0] $end
     $var wire 32 F# TICK_DELTA [31:0] $end
     $var wire 32 G# TICK_SAMPLE_A [31:0] $end
     $var wire 32 ?# TICK_SAMPLE_B [31:0] $end
     $var wire 32 D# TICK_SAMPLE_C [31:0] $end
     $var wire 32 H# TICK_SAMPLE_D [31:0] $end
     $var wire 3 ;! state [2:0] $end
     $var wire 3 <! next_state [2:0] $end
     $var wire 1 =! sreg_en $end
     $var wire 1 >! parity_val $end
     $var wire 1 ?! parity_bit $end
     $var wire 1 @! first_tick $end
     $var wire 1 A! last_tick $end
     $var wire 1 B! init_ct $end
     $var wire 1 C! cb_incr $end
     $var wire 1 D! voted_din $end
     $var wire 1 E! rx_done $end
     $var wire 1 F! rx_done_set $end
     $var wire 1 G! ct_restart $end
     $var wire 4 H! count_ticks [3:0] $end
     $var wire 4 I! ct_nextval [3:0] $end
     $var wire 3 J! count_bits [2:0] $end
     $var wire 3 K! cb_next [2:0] $end
     $var wire 9 L! sreg_out [8:0] $end
     $var wire 3 M! parity_reg [2:0] $end
     $var wire 1 N! last_bit $end
     $var wire 1 O! err_par $end
     $var wire 1 P! err_fr $end
     $var wire 1 Q! s0 $end
     $var wire 1 R! s1 $end
     $var wire 1 S! s2 $end
     $var wire 1 T! rx_sync $end
     $scope module rsr $end
      $var wire 32 I# N [31:0] $end
      $var wire 1 U! clk $end
      $var wire 1 V! res_n $end
      $var wire 1 W! en $end
      $var wire 1 X! din $end
      $var wire 1 Y! load_en $end
      $var wire 9 Z! load [8:0] $end
      $var wire 9 [! dout [8:0] $end
      $var wire 1 \! dout_n $end
      $var wire 32 ]! i [31:0] $end
      $var wire 9 ^! darr [8:0] $end
      $scope module genblk1[0] $end
       $scope module dff_k $end
        $var wire 32 ># N [31:0] $end
        $var wire 1 _! clk $end
        $var wire 1 `! res_n $end
        $var wire 1 =# en $end
        $var wire 1 a! din [0:0] $end
        $var wire 1 b! Q [0:0] $end
       $upscope $end
      $upscope $end
      $scope module genblk1[1] $end
       $scope module dff_k $end
        $var wire 32 ># N [31:0] $end
        $var wire 1 c! clk $end
        $var wire 1 d! res_n $end
        $var wire 1 =# en $end
        $var wire 1 e! din [0:0] $end
        $var wire 1 f! Q [0:0] $end
       $upscope $end
      $upscope $end
      $scope module genblk1[2] $end
       $scope module dff_k $end
        $var wire 32 ># N [31:0] $end
        $var wire 1 g! clk $end
        $var wire 1 h! res_n $end
        $var wire 1 =# en $end
        $var wire 1 i! din [0:0] $end
        $var wire 1 j! Q [0:0] $end
       $upscope $end
      $upscope $end
      $scope module genblk1[3] $end
       $scope module dff_k $end
        $var wire 32 ># N [31:0] $end
        $var wire 1 k! clk $end
        $var wire 1 l! res_n $end
        $var wire 1 =# en $end
        $var wire 1 m! din [0:0] $end
        $var wire 1 n! Q [0:0] $end
       $upscope $end
      $upscope $end
      $scope module genblk1[4] $end
       $scope module dff_k $end
        $var wire 32 ># N [31:0] $end
        $var wire 1 o! clk $end
        $var wire 1 p! res_n $end
        $var wire 1 =# en $end
        $var wire 1 q! din [0:0] $end
        $var wire 1 r! Q [0:0] $end
       $upscope $end
      $upscope $end
      $scope module genblk1[5] $end
       $scope module dff_k $end
        $var wire 32 ># N [31:0] $end
        $var wire 1 s! clk $end
        $var wire 1 t! res_n $end
        $var wire 1 =# en $end
        $var wire 1 u! din [0:0] $end
        $var wire 1 v! Q [0:0] $end
       $upscope $end
      $upscope $end
      $scope module genblk1[6] $end
       $scope module dff_k $end
        $var wire 32 ># N [31:0] $end
        $var wire 1 w! clk $end
        $var wire 1 x! res_n $end
        $var wire 1 =# en $end
        $var wire 1 y! din [0:0] $end
        $var wire 1 z! Q [0:0] $end
       $upscope $end
      $upscope $end
      $scope module genblk1[7] $end
       $scope module dff_k $end
        $var wire 32 ># N [31:0] $end
        $var wire 1 {! clk $end
        $var wire 1 |! res_n $end
        $var wire 1 =# en $end
        $var wire 1 }! din [0:0] $end
        $var wire 1 ~! Q [0:0] $end
       $upscope $end
      $upscope $end
      $scope module genblk1[8] $end
       $scope module dff_k $end
        $var wire 32 ># N [31:0] $end
        $var wire 1 !" clk $end
        $var wire 1 "" res_n $end
        $var wire 1 =# en $end
        $var wire 1 #" din [0:0] $end
        $var wire 1 $" Q [0:0] $end
       $upscope $end
      $upscope $end
     $upscope $end
     $scope module synch_din $end
      $var wire 32 ># DATA_WIDTH [31:0] $end
      $var wire 32 E# STAGES [31:0] $end
      $var wire 32 ># RES_VAL [31:0] $end
      $var wire 1 %" clk $end
      $var wire 1 &" res $end
      $var wire 1 '" din [0:0] $end
      $var wire 1 (" dout [0:0] $end
      $var wire 1 )" edges [0:0] $end
      $var wire 1 J# INIT_VAL [0:0] $end
      $var wire 1 *" q0 [0:0] $end
      $var wire 1 +" q1 [0:0] $end
      $scope module genblk1 $end
       $var wire 1 ," q2 [0:0] $end
      $upscope $end
     $upscope $end
    $upscope $end
    $scope module Tx_fifo $end
     $var wire 56 K# name [55:0] $end
     $var wire 32 A# ADDR_WIDTH [31:0] $end
     $var wire 32 ?# DATA_WIDTH [31:0] $end
     $var wire 1 -" res $end
     $var wire 1 ." clk $end
     $var wire 1 /" push $end
     $var wire 1 0" pull $end
     $var wire 8 1" din [7:0] $end
     $var wire 8 2" dout [7:0] $end
     $var wire 1 3" empty $end
     $var wire 1 4" full $end
     $var wire 5 5" count [4:0] $end
     $var wire 8 6" mem[15] [7:0] $end
     $var wire 8 7" mem[14] [7:0] $end
     $var wire 8 8" mem[13] [7:0] $end
     $var wire 8 9" mem[12] [7:0] $end
     $var wire 8 :" mem[11] [7:0] $end
     $var wire 8 ;" mem[10] [7:0] $end
     $var wire 8 <" mem[9] [7:0] $end
     $var wire 8 =" mem[8] [7:0] $end
     $var wire 8 >" mem[7] [7:0] $end
     $var wire 8 ?" mem[6] [7:0] $end
     $var wire 8 @" mem[5] [7:0] $end
     $var wire 8 A" mem[4] [7:0] $end
     $var wire 8 B" mem[3] [7:0] $end
     $var wire 8 C" mem[2] [7:0] $end
     $var wire 8 D" mem[1] [7:0] $end
     $var wire 8 E" mem[0] [7:0] $end
     $var wire 4 F" w_ptr [3:0] $end
     $var wire 4 G" r_ptr [3:0] $end
     $var wire 4 H" next_w [3:0] $end
     $var wire 4 I" next_r [3:0] $end
     $var wire 1 J" ren $end
     $var wire 1 K" wen $end
     $var wire 5 L" count_add [4:0] $end
    $upscope $end
    $scope module Tx_uut $end
     $var wire 32 ?# DATA_WIDTH [31:0] $end
     $var wire 32 @# TICKS_NUM [31:0] $end
     $var wire 1 M" clk $end
     $var wire 1 N" res_n $end
     $var wire 1 O" tx_baud $end
     $var wire 1 P" tx_start $end
     $var wire 8 Q" lcreg [7:0] $end
     $var wire 8 R" tx_din [7:0] $end
     $var wire 1 S" tx_dout $end
     $var wire 1 T" tx_ready $end
     $var wire 8 U" tsr_data [7:0] $end
     $var wire 32 E# TICK_BW [31:0] $end
     $var wire 32 M# HALF_TICKS [31:0] $end
     $var wire 32 M# HALF_CYCLE [31:0] $end
     $var wire 3 V" state [2:0] $end
     $var wire 3 W" next_state [2:0] $end
     $var wire 1 X" sreg_en $end
     $var wire 1 Y" load_en $end
     $var wire 1 Z" reg_out $end
     $var wire 1 [" parity $end
     $var wire 1 \" parity_bit $end
     $var wire 1 ]" last_tick $end
     $var wire 1 ^" tx_pulled $end
     $var wire 1 _" cb_incr $end
     $var wire 4 `" count_ticks [3:0] $end
     $var wire 3 a" count_bits [2:0] $end
     $var wire 3 b" cb_next [2:0] $end
     $var wire 3 c" parity_reg [2:0] $end
     $var wire 1 d" last_bit $end
     $var wire 1 e" stop_bits $end
     $var wire 1 f" half_parity $end
     $scope module tsr $end
      $var wire 32 ?# N [31:0] $end
      $var wire 1 g" clk $end
      $var wire 1 h" res_n $end
      $var wire 1 i" en $end
      $var wire 1 j" din $end
      $var wire 1 k" load_en $end
      $var wire 8 l" load [7:0] $end
      $var wire 8 m" dout [7:0] $end
      $var wire 1 n" dout_n $end
      $var wire 32 o" i [31:0] $end
      $var wire 8 p" darr [7:0] $end
      $scope module genblk1[0] $end
       $scope module dff_k $end
        $var wire 32 ># N [31:0] $end
        $var wire 1 q" clk $end
        $var wire 1 r" res_n $end
        $var wire 1 =# en $end
        $var wire 1 s" din [0:0] $end
        $var wire 1 t" Q [0:0] $end
       $upscope $end
      $upscope $end
      $scope module genblk1[1] $end
       $scope module dff_k $end
        $var wire 32 ># N [31:0] $end
        $var wire 1 u" clk $end
        $var wire 1 v" res_n $end
        $var wire 1 =# en $end
        $var wire 1 w" din [0:0] $end
        $var wire 1 x" Q [0:0] $end
       $upscope $end
      $upscope $end
      $scope module genblk1[2] $end
       $scope module dff_k $end
        $var wire 32 ># N [31:0] $end
        $var wire 1 y" clk $end
        $var wire 1 z" res_n $end
        $var wire 1 =# en $end
        $var wire 1 {" din [0:0] $end
        $var wire 1 |" Q [0:0] $end
       $upscope $end
      $upscope $end
      $scope module genblk1[3] $end
       $scope module dff_k $end
        $var wire 32 ># N [31:0] $end
        $var wire 1 }" clk $end
        $var wire 1 ~" res_n $end
        $var wire 1 =# en $end
        $var wire 1 !# din [0:0] $end
        $var wire 1 "# Q [0:0] $end
       $upscope $end
      $upscope $end
      $scope module genblk1[4] $end
       $scope module dff_k $end
        $var wire 32 ># N [31:0] $end
        $var wire 1 ## clk $end
        $var wire 1 $# res_n $end
        $var wire 1 =# en $end
        $var wire 1 %# din [0:0] $end
        $var wire 1 &# Q [0:0] $end
       $upscope $end
      $upscope $end
      $scope module genblk1[5] $end
       $scope module dff_k $end
        $var wire 32 ># N [31:0] $end
        $var wire 1 '# clk $end
        $var wire 1 (# res_n $end
        $var wire 1 =# en $end
        $var wire 1 )# din [0:0] $end
        $var wire 1 *# Q [0:0] $end
       $upscope $end
      $upscope $end
      $scope module genblk1[6] $end
       $scope module dff_k $end
        $var wire 32 ># N [31:0] $end
        $var wire 1 +# clk $end
        $var wire 1 ,# res_n $end
        $var wire 1 =# en $end
        $var wire 1 -# din [0:0] $end
        $var wire 1 .# Q [0:0] $end
       $upscope $end
      $upscope $end
      $scope module genblk1[7] $end
       $scope module dff_k $end
        $var wire 32 ># N [31:0] $end
        $var wire 1 /# clk $end
        $var wire 1 0# res_n $end
        $var wire 1 =# en $end
        $var wire 1 1# din [0:0] $end
        $var wire 1 2# Q [0:0] $end
       $upscope $end
      $upscope $end
     $upscope $end
    $upscope $end
    $scope module baud_gen $end
     $var wire 32 @# DIV_WIDTH [31:0] $end
     $var wire 1 3# res_n $end
     $var wire 1 4# clk_in $end
     $var wire 16 5# div [15:0] $end
     $var wire 1 6# clk_out $end
     $var wire 16 7# counter [15:0] $end
     $var wire 16 8# next_count [15:0] $end
     $var wire 1 9# cycle_init $end
     $var wire 1 :# cycle_full $end
     $var wire 1 ;# switch_clk $end
     $var wire 1 <# half_cycle $end
    $upscope $end
   $upscope $end
  $upscope $end
 $upscope $end
$enddefinitions $end


#0
1"
1#
0$
0%
0&
b000 '
b00000000 (
b00000000 )
b00000000 *
1+
0,
1-
0.
0/
00
01
b000 2
b00000000 3
14
15
06
b01100000 7
b00000000 8
b00000001 9
b00000000 :
b00000000 ;
b00000000 <
b00000000 =
b00000000 >
b0000000000 ?
b00000000 @
b00000000 A
b00000000 B
0C
0D
0E
0F
0G
0H
0I
0J
0K
1L
1M
0N
0O
b0000000000000000 P
1Q
0R
0S
0T
0U
0V
b0000000000000000 W
b00000000 X
b00000000 Y
b00000000 Z
b00000000 [
b0000000000 \
1]
1^
1_
0`
0a
0b
1c
0d
b00000000 e
b00000000 f
b0000000000 g
b0000000000 h
1i
1j
1k
1l
0m
0n
0o
0p
0q
1r
1s
0t
0u
b0000000000 v
b0000000000 w
1x
0y
b00000 z
b0000000000 {
b0000000000 |
b0000000000 }
b0000000000 ~
b0000000000 !!
b0000000000 "!
b0000000000 #!
b0000000000 $!
b0000000000 %!
b0000000000 &!
b0000000000 '!
b0000000000 (!
b0000000000 )!
b0000000000 *!
b0000000000 +!
b0000000000 ,!
b0000 -!
b0000 .!
b0001 /!
b0001 0!
01!
02!
b00000 3!
14!
05!
16!
17!
b00000000 8!
b0000000000 9!
0:!
b000 ;!
b000 <!
0=!
0>!
0?!
1@!
0A!
0B!
0C!
0D!
0E!
0F!
0G!
b0000 H!
b0001 I!
b000 J!
b000 K!
b000000000 L!
b000 M!
0N!
0O!
0P!
0Q!
0R!
0S!
1T!
1U!
0V!
0W!
0X!
0Y!
b000000000 Z!
b000000000 [!
0\!
b00000000000000000000000000001001 ]!
b000000000 ^!
1_!
0`!
0a!
0b!
1c!
0d!
0e!
0f!
1g!
0h!
0i!
0j!
1k!
0l!
0m!
0n!
1o!
0p!
0q!
0r!
1s!
0t!
0u!
0v!
1w!
0x!
0y!
0z!
1{!
0|!
0}!
0~!
1!"
0""
0#"
0$"
1%"
1&"
1'"
1("
0)"
1*"
1+"
1,"
1-"
1."
0/"
00"
b00000000 1"
b00000000 2"
13"
04"
b00000 5"
b00000000 6"
b00000000 7"
b00000000 8"
b00000000 9"
b00000000 :"
b00000000 ;"
b00000000 <"
b00000000 ="
b00000000 >"
b00000000 ?"
b00000000 @"
b00000000 A"
b00000000 B"
b00000000 C"
b00000000 D"
b00000000 E"
b0000 F"
b0000 G"
b0001 H"
b0001 I"
0J"
0K"
b00000 L"
1M"
0N"
1O"
0P"
b00000000 Q"
b00000000 R"
1S"
0T"
b00000000 U"
b000 V"
b000 W"
0X"
0Y"
0Z"
0["
0\"
0]"
0^"
0_"
b0000 `"
b000 a"
b000 b"
b000 c"
0d"
0e"
0f"
0g"
0h"
0i"
0j"
0k"
b00000000 l"
b00000000 m"
0n"
b00000000000000000000000000001000 o"
b00000000 p"
0q"
0r"
0s"
0t"
0u"
0v"
0w"
0x"
0y"
0z"
0{"
0|"
0}"
0~"
0!#
0"#
0##
0$#
0%#
0&#
0'#
0(#
0)#
0*#
0+#
0,#
0-#
0.#
0/#
00#
01#
02#
03#
14#
b0000000000000000 5#
16#
b0000000000000001 7#
b0000000000000010 8#
19#
0:#
0;#
0<#
1=#
b00000000000000000000000000000001 >#
b00000000000000000000000000001000 ?#
b00000000000000000000000000010000 @#
b00000000000000000000000000000100 A#
b01010010011110000101111101100110011010010110011001101111 B#
b00000000000000000000000000001010 D#
b00000000000000000000000000000011 E#
b00000000000000000000000000000010 F#
b00000000000000000000000000000110 G#
b00000000000000000000000000001011 H#
b00000000000000000000000000001001 I#
1J#
b01010100011110000101111101100110011010010110011001101111 K#
b00000000000000000000000000000111 M#
#5
0"
0+
0Q
0s
04!
0%"
0."
0M"
04#
#10
1"
0#
1+
0-
1Q
1S
0k
0l
0r
1s
14!
15!
1V!
1`!
1d!
1h!
1l!
1p!
1t!
1x!
1|!
1""
1%"
0&"
1)"
0-"
1."
1M"
1N"
1h"
1r"
1v"
1z"
1~"
1$#
1(#
1,#
10#
13#
14#
b0000000000000010 7#
b0000000000000011 8#
09#
#15
0"
1$
1&
b011 '
b10000000 (
b10000000 )
b10000000 *
0+
1.
11
b011 2
b10000000 3
b10000000 B
1D
0Q
b10000000 X
0s
04!
0%"
0."
b10000000 1"
0M"
04#
#20
1"
1+
b10000000 8
1E
1Q
b10000000 Y
1s
14!
b10000000 8!
1%"
0)"
1."
1M"
b10000000 Q"
14#
b0000000000000011 7#
b0000000000000100 8#
#25
0"
b000 '
b01000000 (
b01000000 )
b01000000 *
0+
b000 2
b01000000 3
b01000000 <
b01000000 B
b0000000001000000 P
0Q
b0000000001000000 W
b01000000 X
0s
04!
0%"
0."
b01000000 1"
0M"
04#
b0000000001000000 5#
#30
1"
1+
1Q
1s
14!
1%"
1)"
1."
1M"
14#
b0000000000000100 7#
b0000000000000101 8#
#35
0"
0$
1%
0&
b011 '
b10000000 (
b10000000 *
0+
0.
1/
01
b011 2
b10000000 3
b10000000 A
b00000000 B
1C
0D
0Q
b00000000 X
0s
04!
0%"
0."
b00000000 1"
0M"
04#
#40
1"
1+
1Q
1s
14!
1%"
0)"
1."
1M"
14#
b0000000000000101 7#
b0000000000000110 8#
