UART/vcd/uart_rx_tb.vcd
$date
	Wed Apr 15 09:48:51 2026
$end
$version
	Icarus Verilog
$end
$timescale
	1ns
$end
$scope module uart_rx_tb $end
$var wire 1 ! valid $end
$var wire 10 " uart_rx_out [9:0] $end
$var wire 1 # err_par $end
$var wire 1 $ err_fr $end
$var wire 1 % b_tick $end
$var parameter 32 & DATA_WIDTH $end
$var parameter 16 ' DIV $end
$var parameter 112 ( baud_wait $end
$var reg 1 ) clk $end
$var reg 1 * din $end
$var reg 1 + res_n $end
$scope module dut $end
$var wire 1 ) clk $end
$var wire 1 , ct_restart $end
$var wire 1 - err_fr $end
$var wire 1 . err_par $end
$var wire 1 / last_bit $end
$var wire 8 0 lcreg [7:0] $end
$var wire 1 + res_n $end
$var wire 1 * rx_din $end
$var wire 1 1 voted_din $end
$var wire 9 2 sreg_out [8:0] $end
$var wire 1 3 rx_sync $end
$var wire 1 % rx_baud $end
$var wire 3 4 parity_reg [2:0] $end
$var wire 1 5 last_tick $end
$var wire 1 6 first_tick $end
$var wire 4 7 ct_nextval [3:0] $end
$var wire 3 8 cb_next [2:0] $end
$var parameter 32 9 DATA_WIDTH $end
$var parameter 32 : TICKS_NUM $end
$var parameter 33 ; TICK_BW $end
$var parameter 32 < TICK_DELTA $end
$var parameter 33 = TICK_SAMPLE_A $end
$var parameter 32 > TICK_SAMPLE_B $end
$var parameter 33 ? TICK_SAMPLE_C $end
$var parameter 34 @ TICK_SAMPLE_D $end
$var reg 1 A cb_incr $end
$var reg 3 B count_bits [2:0] $end
$var reg 4 C count_ticks [3:0] $end
$var reg 1 D init_ct $end
$var reg 3 E next_state [2:0] $end
$var reg 1 F parity_bit $end
$var reg 1 G parity_val $end
$var reg 1 H rx_done $end
$var reg 1 I rx_done_set $end
$var reg 10 J rx_out [9:0] $end
$var reg 1 ! rx_ready $end
$var reg 1 K s0 $end
$var reg 1 L s1 $end
$var reg 1 M s2 $end
$var reg 1 N sreg_en $end
$var reg 3 O state [2:0] $end
$scope module rsr $end
$var wire 1 6 clk $end
$var wire 1 1 din $end
$var wire 1 N en $end
$var wire 9 P load [8:0] $end
$var wire 1 Q load_en $end
$var wire 1 + res_n $end
$var wire 1 R dout_n $end
$var wire 9 S dout [8:0] $end
$var parameter 33 T N $end
$var reg 9 U darr [8:0] $end
$var integer 32 V i [31:0] $end
$scope begin genblk1[0] $end
$var parameter 2 W k $end
$scope module dff_k $end
$var wire 1 6 clk $end
$var wire 1 X din $end
$var wire 1 Y en $end
$var wire 1 + res_n $end
$var parameter 32 Z N $end
$var reg 1 [ Q $end
$upscope $end
$upscope $end
$scope begin genblk1[1] $end
$var parameter 2 \ k $end
$scope module dff_k $end
$var wire 1 6 clk $end
$var wire 1 ] din $end
$var wire 1 ^ en $end
$var wire 1 + res_n $end
$var parameter 32 _ N $end
$var reg 1 ` Q $end
$upscope $end
$upscope $end
$scope begin genblk1[2] $end
$var parameter 3 a k $end
$scope module dff_k $end
$var wire 1 6 clk $end
$var wire 1 b din $end
$var wire 1 c en $end
$var wire 1 + res_n $end
$var parameter 32 d N $end
$var reg 1 e Q $end
$upscope $end
$upscope $end
$scope begin genblk1[3] $end
$var parameter 3 f k $end
$scope module dff_k $end
$var wire 1 6 clk $end
$var wire 1 g din $end
$var wire 1 h en $end
$var wire 1 + res_n $end
$var parameter 32 i N $end
$var reg 1 j Q $end
$upscope $end
$upscope $end
$scope begin genblk1[4] $end
$var parameter 4 k k $end
$scope module dff_k $end
$var wire 1 6 clk $end
$var wire 1 l din $end
$var wire 1 m en $end
$var wire 1 + res_n $end
$var parameter 32 n N $end
$var reg 1 o Q $end
$upscope $end
$upscope $end
$scope begin genblk1[5] $end
$var parameter 4 p k $end
$scope module dff_k $end
$var wire 1 6 clk $end
$var wire 1 q din $end
$var wire 1 r en $end
$var wire 1 + res_n $end
$var parameter 32 s N $end
$var reg 1 t Q $end
$upscope $end
$upscope $end
$scope begin genblk1[6] $end
$var parameter 4 u k $end
$scope module dff_k $end
$var wire 1 6 clk $end
$var wire 1 v din $end
$var wire 1 w en $end
$var wire 1 + res_n $end
$var parameter 32 x N $end
$var reg 1 y Q $end
$upscope $end
$upscope $end
$scope begin genblk1[7] $end
$var parameter 4 z k $end
$scope module dff_k $end
$var wire 1 6 clk $end
$var wire 1 { din $end
$var wire 1 | en $end
$var wire 1 + res_n $end
$var parameter 32 } N $end
$var reg 1 ~ Q $end
$upscope $end
$upscope $end
$scope begin genblk1[8] $end
$var parameter 5 !" k $end
$scope module dff_k $end
$var wire 1 6 clk $end
$var wire 1 "" din $end
$var wire 1 #" en $end
$var wire 1 + res_n $end
$var parameter 32 $" N $end
$var reg 1 %" Q $end
$upscope $end
$upscope $end
$upscope $end
$scope module synch_din $end
$var wire 1 ) clk $end
$var wire 1 * din $end
$var wire 1 &" res $end
$var wire 1 3 dout $end
$var parameter 32 '" DATA_WIDTH $end
$var parameter 1 (" INIT_VAL $end
$var parameter 32 )" RES_VAL $end
$var parameter 32 *" STAGES $end
$var reg 1 +" edges $end
$var reg 1 ," q0 $end
$var reg 1 -" q1 $end
$scope begin genblk1 $end
$var reg 1 ." q2 $end
$scope begin genblk1 $end
$upscope $end
$upscope $end
$upscope $end
$upscope $end
$scope module rx_baud $end
$var wire 1 ) clk_in $end
$var wire 16 /" div [15:0] $end
$var wire 1 + res_n $end
$var wire 1 0" switch_clk $end
$var wire 16 1" next_count [15:0] $end
$var wire 1 2" half_cycle $end
$var wire 1 3" cycle_init $end
$var wire 1 4" cycle_full $end
$var parameter 32 5" DIV_WIDTH $end
$var reg 1 % clk_out $end
$var reg 16 6" counter [15:0] $end
$upscope $end
$scope task driver $end
$var reg 8 7" tx_data [7:0] $end
$var integer 32 8" i [31:0] $end
$upscope $end
$upscope $end
$enddefinitions $end
$comment Show the parameter values. $end
$dumpall
b10000 5"
b11 *"
b1 )"
1("
b1 '"
b1 $"
b1000 !"
b1 }
b111 z
b1 x
b110 u
b1 s
b101 p
b1 n
b100 k
b1 i
b11 f
b1 d
b10 a
b1 _
b1 \
b1 Z
b0 W
b1001 T
b1011 @
b1010 ?
b1000 >
b110 =
b10 <
b11 ;
b10000 :
b1000 9
b1010000000 (
b100 '
b1000 &
$end
#0
$dumpvars
b0 8"
bx 7"
bx 6"
x4"
x3"
x2"
bx 1"
x0"
b100 /"
x."
x-"
x,"
x+"
0&"
x%"
1#"
x""
x~
1|
x{
xy
1w
xv
xt
1r
xq
xo
1m
xl
xj
1h
xg
xe
1c
xb
x`
1^
x]
x[
1Y
xX
b1001 V
bx U
bx S
xR
zQ
bz P
bx O
0N
xM
xL
xK
bx J
xI
0H
xG
0F
b0 E
0D
bx C
bx B
0A
bx 8
bx 7
x6
x5
b1 4
x3
bx 2
x1
b1111 0
x/
x.
x-
0,
1+
x*
1)
1%
x$
x#
bx "
x!
$end
#5
0)
#10
0/
b0 8
b0 B
0#
0.
0""
0{
0v
0q
0l
0g
0b
0]
0X
0R
0G
b0 U
b1001 V
0$
b0 2
b0 S
b0 "
b0 J
0-
13"
00"
13
1."
1,"
1-"
0+"
0[
0`
0e
0j
0o
0t
0y
0~
0%"
b0 O
16
05
b1 7
b0 C
04"
02"
b10 1"
b1 6"
0!
0I
1&"
0+
1)
#15
0)
#20
1)
#25
0)
#30
03"
10"
12"
b11 1"
b10 6"
0&"
b10110010 7"
1*
1+
1)
#35
0)
#40
00"
1+"
02"
b100 1"
b11 6"
0%
1)
#45
0)
#50
10"
0+"
14"
b101 1"
b100 6"
1)
#55
0)
#60
06
b10 7
b1 C
13"
00"
1+"
04"
b10 1"
b1 6"
1%
1)
#65
0)
#70
03"
10"
0+"
12"
b11 1"
b10 6"
1)
#75
0)
#80
00"
1+"
02"
b100 1"
b11 6"
0%
1)
#85
0)
#90
10"
0+"
14"
b101 1"
b100 6"
1)
#95
0)
#100
b11 7
b10 C
13"
00"
1+"
04"
b10 1"
b1 6"
1%
1)
#105
0)
#110
03"
10"
0+"
12"
b11 1"
b10 6"
1)
#115
0)
#120
00"
1+"
02"
b100 1"
b11 6"
0%
1)
#125
0)
#130
10"
0+"
14"
b101 1"
b100 6"
1)
#135
0)
#140
b100 7
b11 C
13"
00"
1+"
04"
b10 1"
b1 6"
1%
1)
#145
0)
#150
03"
10"
0+"
12"
b11 1"
b10 6"
1)
#155
0)
#160
00"
1+"
02"
b100 1"
b11 6"
0%
1)
#165
0)
#170
10"
0+"
14"
b101 1"
b100 6"
1)
#175
0)
#180
b101 7
b100 C
13"
00"
1+"
04"
b10 1"
b1 6"
1%
1)
#185
0)
#190
03"
10"
0+"
12"
b11 1"
b10 6"
1)
#195
0)
#200
00"
1+"
02"
b100 1"
b11 6"
0%
1)
#205
0)
#210
10"
0+"
14"
b101 1"
b100 6"
1)
#215
0)
#220
b110 7
b101 C
13"
00"
1+"
04"
b10 1"
b1 6"
1%
1)
#225
0)
#230
03"
10"
0+"
12"
b11 1"
b10 6"
1)
#235
0)
#240
00"
1+"
02"
b100 1"
b11 6"
0%
1)
#245
0)
#250
10"
0+"
14"
b101 1"
b100 6"
1)
#255
0)
#260
b111 7
b110 C
13"
00"
1+"
04"
b10 1"
b1 6"
1%
1)
#265
0)
#270
03"
10"
0+"
12"
b11 1"
b10 6"
1)
#275
0)
#280
00"
1+"
02"
b100 1"
b11 6"
0%
1)
#285
0)
#290
10"
0+"
14"
b101 1"
b100 6"
1)
#295
0)
#300
1K
b1000 7
b111 C
13"
00"
1+"
04"
b10 1"
b1 6"
1%
1)
#305
0)
#310
03"
10"
0+"
12"
b11 1"
b10 6"
1)
#315
0)
#320
00"
1+"
02"
b100 1"
b11 6"
0%
1)
#325
0)
#330
10"
0+"
14"
b101 1"
b100 6"
1)
#335
0)
#340
b1001 7
b1000 C
13"
00"
1+"
04"
b10 1"
b1 6"
1%
1)
#345
0)
#350
03"
10"
0+"
12"
b11 1"
b10 6"
1)
#355
0)
#360
00"
1+"
02"
b100 1"
b11 6"
0%
1)
#365
0)
#370
10"
0+"
14"
b101 1"
b100 6"
1)
#375
0)
#380
b1001 V
11
1L
b1010 7
b1001 C
13"
00"
1+"
04"
b10 1"
b1 6"
1%
1)
#385
0)
#390
03"
10"
0+"
12"
b11 1"
b10 6"
1)
#395
0)
#400
00"
1+"
02"
b100 1"
b11 6"
0%
1)
#405
0)
#410
10"
0+"
14"
b101 1"
b100 6"
1)
#415
0)
#420
b1011 7
b1010 C
13"
00"
1+"
04"
b10 1"
b1 6"
1%
1)
#425
0)
#430
03"
10"
0+"
12"
b11 1"
b10 6"
1)
#435
0)
#440
00"
1+"
02"
b100 1"
b11 6"
0%
1)
#445
0)
#450
10"
0+"
14"
b101 1"
b100 6"
1)
#455
0)
#460
1M
b1100 7
b1011 C
13"
00"
1+"
04"
b10 1"
b1 6"
1%
1)
#465
0)
#470
03"
10"
0+"
12"
b11 1"
b10 6"
1)
#475
0)
#480
00"
1+"
02"
b100 1"
b11 6"
0%
1)
#485
0)
#490
10"
0+"
14"
b101 1"
b100 6"
1)
#495
0)
#500
b1101 7
b1100 C
13"
00"
1+"
04"
b10 1"
b1 6"
1%
1)
#505
0)
#510
03"
10"
0+"
12"
b11 1"
b10 6"
1)
#515
0)
#520
00"
1+"
02"
b100 1"
b11 6"
0%
1)
#525
0)
#530
10"
0+"
14"
b101 1"
b100 6"
1)
#535
0)
#540
b1110 7
b1101 C
13"
00"
1+"
04"
b10 1"
b1 6"
1%
1)
#545
0)
#550
03"
10"
0+"
12"
b11 1"
b10 6"
1)
#555
0)
#560
00"
1+"
02"
b100 1"
b11 6"
0%
1)
#565
0)
#570
10"
0+"
14"
b101 1"
b100 6"
1)
#575
0)
#580
b1111 7
b1110 C
13"
00"
1+"
04"
b10 1"
b1 6"
1%
1)
#585
0)
#590
03"
10"
0+"
12"
b11 1"
b10 6"
1)
#595
0)
#600
00"
1+"
02"
b100 1"
b11 6"
0%
1)
#605
0)
#610
10"
0+"
14"
b101 1"
b100 6"
1)
#615
0)
#620
15
b0 7
b1111 C
13"
00"
1+"
04"
b10 1"
b1 6"
1%
1)
#625
0)
#630
03"
10"
0+"
12"
b11 1"
b10 6"
1)
#635
0)
#640
00"
1+"
02"
b100 1"
b11 6"
0%
1)
#645
0)
#650
10"
0+"
14"
b101 1"
b100 6"
1)
#655
0)
#660
16
05
b1 7
b0 C
13"
00"
1+"
04"
b10 1"
b1 6"
1%
1)
#665
0)
#670
03"
10"
0,"
0+"
12"
b11 1"
b10 6"
1)
0*
#675
0)
#680
00"
1+"
0-"
02"
b100 1"
b11 6"
0%
1)
#685
0)
#690
10"
03
0."
0+"
14"
b101 1"
b100 6"
1)
#695
0)
#700
b1 E
1,
1D
06
b10 7
b1 C
13"
00"
04"
b10 1"
b1 6"
1%
1)
#705
0)
#710
03"
10"
12"
b11 1"
b10 6"
1)
#715
0)
#720
00"
02"
b100 1"
b11 6"
0%
1)
#725
0)
#730
10"
14"
b101 1"
b100 6"
1)
#735
0)
#740
b0 E
b1 O
0,
16
b1 7
b0 C
13"
00"
04"
b10 1"
b1 6"
1%
1)
#745
0)
#750
03"
10"
12"
b11 1"
b10 6"
1)
#755
0)
#760
00"
02"
b100 1"
b11 6"
0%
1)
#765
0)
#770
10"
14"
b101 1"
b100 6"
1)
#775
0)
#780
0D
06
b10 7
b1 C
13"
00"
04"
b10 1"
b1 6"
1%
1)
#785
0)
#790
03"
10"
12"
b11 1"
b10 6"
1)
#795
0)
#800
00"
02"
b100 1"
b11 6"
0%
1)
#805
0)
#810
10"
14"
b101 1"
b100 6"
1)
#815
0)
#820
b11 7
b10 C
13"
00"
04"
b10 1"
b1 6"
1%
1)
#825
0)
#830
03"
10"
12"
b11 1"
b10 6"
1)
#835
0)
#840
00"
02"
b100 1"
b11 6"
0%
1)
#845
0)
#850
10"
14"
b101 1"
b100 6"
1)
#855
0)
#860
b100 7
b11 C
13"
00"
04"
b10 1"
b1 6"
1%
1)
#865
0)
#870
03"
10"
12"
b11 1"
b10 6"
1)
#875
0)
#880
00"
02"
b100 1"
b11 6"
0%
1)
#885
0)
#890
10"
14"
b101 1"
b100 6"
1)
#895
0)
#900
b101 7
b100 C
13"
00"
04"
b10 1"
b1 6"
1%
1)
#905
0)
#910
03"
10"
12"
b11 1"
b10 6"
1)
#915
0)
#920
00"
02"
b100 1"
b11 6"
0%
1)
#925
0)
#930
10"
14"
b101 1"
b100 6"
1)
#935
0)
#940
b110 7
b101 C
13"
00"
04"
b10 1"
b1 6"
1%
1)
#945
0)
#950
03"
10"
12"
b11 1"
b10 6"
1)
#955
0)
#960
00"
02"
b100 1"
b11 6"
0%
1)
#965
0)
#970
10"
14"
b101 1"
b100 6"
1)
#975
0)
#980
b111 7
b110 C
13"
00"
04"
b10 1"
b1 6"
1%
1)
#985
0)
#990
03"
10"
12"
b11 1"
b10 6"
1)
#995
0)
#1000
00"
02"
b100 1"
b11 6"
0%
1)
#1005
0)
#1010
10"
14"
b101 1"
b100 6"
1)
#1015
0)
#1020
0K
b1000 7
b111 C
13"
00"
04"
b10 1"
b1 6"
1%
1)
#1025
0)
#1030
03"
10"
12"
b11 1"
b10 6"
1)
#1035
0)
#1040
00"
02"
b100 1"
b11 6"
0%
1)
#1045
0)
#1050
10"
14"
b101 1"
b100 6"
1)
#1055
0)
#1060
b1001 7
b1000 C
13"
00"
04"
b10 1"
b1 6"
1%
1)
#1065
0)
#1070
03"
10"
12"
b11 1"
b10 6"
1)
#1075
0)
#1080
00"
02"
b100 1"
b11 6"
0%
1)
#1085
0)
#1090
10"
14"
b101 1"
b100 6"
1)
#1095
0)
#1100
b1001 V
b10 E
01
0L
b1010 7
b1001 C
13"
00"
04"
b10 1"
b1 6"
1%
1)
#1105
0)
#1110
03"
10"
12"
b11 1"
b10 6"
1)
#1115
0)
#1120
00"
02"
b100 1"
b11 6"
0%
1)
#1125
0)
#1130
10"
14"
b101 1"
b100 6"
1)
#1135
0)
#1140
b1011 7
b1010 C
13"
00"
04"
b10 1"
b1 6"
1%
1)
#1145
0)
#1150
03"
10"
12"
b11 1"
b10 6"
1)
#1155
0)
#1160
00"
02"
b100 1"
b11 6"
0%
1)
#1165
0)
#1170
10"
14"
b101 1"
b100 6"
1)
#1175
0)
#1180
0M
b1100 7
b1011 C
13"
00"
04"
b10 1"
b1 6"
1%
1)
#1185
0)
#1190
03"
10"
12"
b11 1"
b10 6"
1)
#1195
0)
#1200
00"
02"
b100 1"
b11 6"
0%
1)
#1205
0)
#1210
10"
14"
b101 1"
b100 6"
1)
#1215
0)
#1220
b1101 7
b1100 C
13"
00"
04"
b10 1"
b1 6"
1%
1)
#1225
0)
#1230
03"
10"
12"
b11 1"
b10 6"
1)
#1235
0)
#1240
00"
02"
b100 1"
b11 6"
0%
1)
#1245
0)
#1250
10"
14"
b101 1"
b100 6"
1)
#1255
0)
#1260
b1110 7
b1101 C
13"
00"
04"
b10 1"
b1 6"
1%
1)
#1265
0)
#1270
03"
10"
12"
b11 1"
b10 6"
1)
#1275
0)
#1280
00"
02"
b100 1"
b11 6"
0%
1)
#1285
0)
#1290
10"
14"
b101 1"
b100 6"
1)
#1295
0)
#1300
b1111 7
b1110 C
13"
00"
04"
b10 1"
b1 6"
1%
1)
#1305
0)
#1310
03"
10"
12"
b11 1"
b10 6"
1)
b1 8"
#1315
0)
#1320
00"
02"
b100 1"
b11 6"
0%
1)
#1325
0)
#1330
10"
14"
b101 1"
b100 6"
1)
#1335
0)
#1340
15
b0 7
b1111 C
13"
00"
04"
b10 1"
b1 6"
1%
1)
#1345
0)
#1350
03"
10"
12"
b11 1"
b10 6"
1)
#1355
0)
#1360
00"
02"
b100 1"
b11 6"
0%
1)
#1365
0)
#1370
10"
14"
b101 1"
b100 6"
1)
#1375
0)
#1380
b1001 V
b1 8
1N
1A
b10 O
16
05
b1 7
b0 C
13"
00"
04"
b10 1"
b1 6"
1%
1)
#1385
0)
#1390
03"
10"
12"
b11 1"
b10 6"
1)
#1395
0)
#1400
00"
02"
b100 1"
b11 6"
0%
1)
#1405
0)
#1410
10"
14"
b101 1"
b100 6"
1)
#1415
0)
#1420
06
b10 7
b1 C
13"
00"
04"
b10 1"
b1 6"
1%
1)
#1425
0)
#1430
03"
10"
12"
b11 1"
b10 6"
1)
#1435
0)
#1440
00"
02"
b100 1"
b11 6"
0%
1)
#1445
0)
#1450
10"
14"
b101 1"
b100 6"
1)
#1455
0)
#1460
b11 7
b10 C
13"
00"
04"
b10 1"
b1 6"
1%
1)
#1465
0)
#1470
03"
10"
12"
b11 1"
b10 6"
1)
#1475
0)
#1480
00"
02"
b100 1"
b11 6"
0%
1)
#1485
0)
#1490
10"
14"
b101 1"
b100 6"
1)
#1495
0)
#1500
b100 7
b11 C
13"
00"
04"
b10 1"
b1 6"
1%
1)
#1505
0)
#1510
03"
10"
12"
b11 1"
b10 6"
1)
#1515
0)
#1520
00"
02"
b100 1"
b11 6"
0%
1)
#1525
0)
#1530
10"
14"
b101 1"
b100 6"
1)
#1535
0)
#1540
b101 7
b100 C
13"
00"
04"
b10 1"
b1 6"
1%
1)
#1545
0)
#1550
03"
10"
12"
b11 1"
b10 6"
1)
#1555
0)
#1560
00"
02"
b100 1"
b11 6"
0%
1)
#1565
0)
#1570
10"
14"
b101 1"
b100 6"
1)
#1575
0)
#1580
b110 7
b101 C
13"
00"
04"
b10 1"
b1 6"
1%
1)
#1585
0)
#1590
03"
10"
12"
b11 1"
b10 6"
1)
#1595
0)
#1600
00"
02"
b100 1"
b11 6"
0%
1)
#1605
0)
#1610
10"
14"
b101 1"
b100 6"
1)
#1615
0)
#1620
b111 7
b110 C
13"
00"
04"
b10 1"
b1 6"
1%
1)
#1625
0)
#1630
03"
10"
12"
b11 1"
b10 6"
1)
#1635
0)
#1640
00"
02"
b100 1"
b11 6"
0%
1)
#1645
0)
#1650
10"
14"
b101 1"
b100 6"
1)
#1655
0)
#1660
b1000 7
b111 C
13"
00"
04"
b10 1"
b1 6"
1%
1)
#1665
0)
#1670
03"
10"
12"
b11 1"
b10 6"
1)
#1675
0)
#1680
00"
02"
b100 1"
b11 6"
0%
1)
#1685
0)
#1690
10"
14"
b101 1"
b100 6"
1)
#1695
0)
#1700
b1001 7
b1000 C
13"
00"
04"
b10 1"
b1 6"
1%
1)
#1705
0)
#1710
03"
10"
12"
b11 1"
b10 6"
1)
#1715
0)
#1720
00"
02"
b100 1"
b11 6"
0%
1)
#1725
0)
#1730
10"
14"
b101 1"
b100 6"
1)
#1735
0)
#1740
b1010 7
b1001 C
13"
00"
04"
b10 1"
b1 6"
1%
1)
#1745
0)
#1750
03"
10"
12"
b11 1"
b10 6"
1)
#1755
0)
#1760
00"
02"
b100 1"
b11 6"
0%
1)
#1765
0)
#1770
10"
14"
b101 1"
b100 6"
1)
#1775
0)
#1780
b1011 7
b1010 C
13"
00"
04"
b10 1"
b1 6"
1%
1)
#1785
0)
#1790
03"
10"
12"
b11 1"
b10 6"
1)
#1795
0)
#1800
00"
02"
b100 1"
b11 6"
0%
1)
#1805
0)
#1810
10"
14"
b101 1"
b100 6"
1)
#1815
0)
#1820
b1100 7
b1011 C
13"
00"
04"
b10 1"
b1 6"
1%
1)
#1825
0)
#1830
03"
10"
12"
b11 1"
b10 6"
1)
#1835
0)
#1840
00"
02"
b100 1"
b11 6"
0%
1)
#1845
0)
#1850
10"
14"
b101 1"
b100 6"
1)
#1855
0)
#1860
b1101 7
b1100 C
13"
00"
04"
b10 1"
b1 6"
1%
1)
#1865
0)
#1870
03"
10"
12"
b11 1"
b10 6"
1)
#1875
0)
#1880
00"
02"
b100 1"
b11 6"
0%
1)
#1885
0)
#1890
10"
14"
b101 1"
b100 6"
1)
#1895
0)
#1900
b1110 7
b1101 C
13"
00"
04"
b10 1"
b1 6"
1%
1)
#1905
0)
#1910
03"
10"
12"
b11 1"
b10 6"
1)
#1915
0)
#1920
00"
02"
b100 1"
b11 6"
0%
1)
#1925
0)
#1930
10"
14"
b101 1"
b100 6"
1)
#1935
0)
#1940
b1111 7
b1110 C
13"
00"
04"
b10 1"
b1 6"
1%
1)
#1945
0)
#1950
03"
10"
1,"
12"
b11 1"
b10 6"
1)
b10 8"
1*
#1955
0)
#1960
00"
1-"
02"
b100 1"
b11 6"
0%
1)
#1965
0)
#1970
10"
13
1."
14"
b101 1"
b100 6"
1)
#1975
0)
#1980
15
b0 7
b1111 C
13"
00"
1+"
04"
b10 1"
b1 6"
1%
1)
#1985
0)
#1990
03"
10"
0+"
12"
b11 1"
b10 6"
1)
#1995
0)
#2000
00"
1+"
02"
b100 1"
b11 6"
0%
1)
#2005
0)
#2010
10"
0+"
14"
b101 1"
b100 6"
1)
#2015
0)
#2020
b10 8
b1 B
16
05
b1 7
b0 C
13"
00"
1+"
04"
b10 1"
b1 6"
1%
1)
#2025
0)
#2030
03"
10"
0+"
12"
b11 1"
b10 6"
1)
#2035
0)
#2040
00"
1+"
02"
b100 1"
b11 6"
0%
1)
#2045
0)
#2050
10"
0+"
14"
b101 1"
b100 6"
1)
#2055
0)
#2060
06
b10 7
b1 C
13"
00"
1+"
04"
b10 1"
b1 6"
1%
1)
#2065
0)
#2070
03"
10"
0+"
12"
b11 1"
b10 6"
1)
#2075
0)
#2080
00"
1+"
02"
b100 1"
b11 6"
0%
1)
#2085
0)
#2090
10"
0+"
14"
b101 1"
b100 6"
1)
#2095
0)
#2100
b11 7
b10 C
13"
00"
1+"
04"
b10 1"
b1 6"
1%
1)
#2105
0)
#2110
03"
10"
0+"
12"
b11 1"
b10 6"
1)
#2115
0)
#2120
00"
1+"
02"
b100 1"
b11 6"
0%
1)
#2125
0)
#2130
10"
0+"
14"
b101 1"
b100 6"
1)
#2135
0)
#2140
b100 7
b11 C
13"
00"
1+"
04"
b10 1"
b1 6"
1%
1)
#2145
0)
#2150
03"
10"
0+"
12"
b11 1"
b10 6"
1)
#2155
0)
#2160
00"
1+"
02"
b100 1"
b11 6"
0%
1)
#2165
0)
#2170
10"
0+"
14"
b101 1"
b100 6"
1)
#2175
0)
#2180
b101 7
b100 C
13"
00"
1+"
04"
b10 1"
b1 6"
1%
1)
#2185
0)
#2190
03"
10"
0+"
12"
b11 1"
b10 6"
1)
#2195
0)
#2200
00"
1+"
02"
b100 1"
b11 6"
0%
1)
#2205
0)
#2210
10"
0+"
14"
b101 1"
b100 6"
1)
#2215
0)
#2220
b110 7
b101 C
13"
00"
1+"
04"
b10 1"
b1 6"
1%
1)
#2225
0)
#2230
03"
10"
0+"
12"
b11 1"
b10 6"
1)
#2235
0)
#2240
00"
1+"
02"
b100 1"
b11 6"
0%
1)
#2245
0)
#2250
10"
0+"
14"
b101 1"
b100 6"
1)
#2255
0)
#2260
b111 7
b110 C
13"
00"
1+"
04"
b10 1"
b1 6"
1%
1)
#2265
0)
#2270
03"
10"
0+"
12"
b11 1"
b10 6"
1)
#2275
0)
#2280
00"
1+"
02"
b100 1"
b11 6"
0%
1)
#2285
0)
#2290
10"
0+"
14"
b101 1"
b100 6"
1)
#2295
0)
#2300
1K
b1000 7
b111 C
13"
00"
1+"
04"
b10 1"
b1 6"
1%
1)
#2305
0)
#2310
03"
10"
0+"
12"
b11 1"
b10 6"
1)
#2315
0)
#2320
00"
1+"
02"
b100 1"
b11 6"
0%
1)
#2325
0)
#2330
10"
0+"
14"
b101 1"
b100 6"
1)
#2335
0)
#2340
b1001 7
b1000 C
13"
00"
1+"
04"
b10 1"
b1 6"
1%
1)
#2345
0)
#2350
03"
10"
0+"
12"
b11 1"
b10 6"
1)
#2355
0)
#2360
00"
1+"
02"
b100 1"
b11 6"
0%
1)
#2365
0)
#2370
10"
0+"
14"
b101 1"
b100 6"
1)
#2375
0)
#2380
1""
b100000000 U
b1001 V
11
1L
b1010 7
b1001 C
13"
00"
1+"
04"
b10 1"
b1 6"
1%
1)
#2385
0)
#2390
03"
10"
0+"
12"
b11 1"
b10 6"
1)
#2395
0)
#2400
00"
1+"
02"
b100 1"
b11 6"
0%
1)
#2405
0)
#2410
10"
0+"
14"
b101 1"
b100 6"
1)
#2415
0)
#2420
b1011 7
b1010 C
13"
00"
1+"
04"
b10 1"
b1 6"
1%
1)
#2425
0)
#2430
03"
10"
0+"
12"
b11 1"
b10 6"
1)
#2435
0)
#2440
00"
1+"
02"
b100 1"
b11 6"
0%
1)
#2445
0)
#2450
10"
0+"
14"
b101 1"
b100 6"
1)
#2455
0)
#2460
1M
b1100 7
b1011 C
13"
00"
1+"
04"
b10 1"
b1 6"
1%
1)
#2465
0)
#2470
03"
10"
0+"
12"
b11 1"
b10 6"
1)
#2475
0)
#2480
00"
1+"
02"
b100 1"
b11 6"
0%
1)
#2485
0)
#2490
10"
0+"
14"
b101 1"
b100 6"
1)
#2495
0)
#2500
b1101 7
b1100 C
13"
00"
1+"
04"
b10 1"
b1 6"
1%
1)
#2505
0)
#2510
03"
10"
0+"
12"
b11 1"
b10 6"
1)
#2515
0)
#2520
00"
1+"
02"
b100 1"
b11 6"
0%
1)
#2525
0)
#2530
10"
0+"
14"
b101 1"
b100 6"
1)
#2535
0)
#2540
b1110 7
b1101 C
13"
00"
1+"
04"
b10 1"
b1 6"
1%
1)
#2545
0)
#2550
03"
10"
0+"
12"
b11 1"
b10 6"
1)
#2555
0)
#2560
00"
1+"
02"
b100 1"
b11 6"
0%
1)
#2565
0)
#2570
10"
0+"
14"
b101 1"
b100 6"
1)
#2575
0)
#2580
b1111 7
b1110 C
13"
00"
1+"
04"
b10 1"
b1 6"
1%
1)
#2585
0)
#2590
03"
10"
0,"
0+"
12"
b11 1"
b10 6"
1)
b11 8"
0*
#2595
0)
#2600
00"
1+"
0-"
02"
b100 1"
b11 6"
0%
1)
#2605
0)
#2610
10"
03
0."
0+"
14"
b101 1"
b100 6"
1)
#2615
0)
#2620
15
b0 7
b1111 C
13"
00"
04"
b10 1"
b1 6"
1%
1)
#2625
0)
#2630
03"
10"
12"
b11 1"
b10 6"
1)
#2635
0)
#2640
00"
02"
b100 1"
b11 6"
0%
1)
#2645
0)
#2650
10"
14"
b101 1"
b100 6"
1)
#2655
0)
#2660
b11 8
b10 B
16
05
b1 7
b0 C
13"
00"
04"
b10 1"
b1 6"
1%
1)
#2662
1#
b100000000 "
b100000000 J
1.
1{
1G
b110000000 U
b1001 V
b100000000 2
b100000000 S
1%"
#2665
0)
#2670
03"
10"
12"
b11 1"
b10 6"
1)
#2675
0)
#2680
00"
02"
b100 1"
b11 6"
0%
1)
#2685
0)
#2690
10"
14"
b101 1"
b100 6"
1)
#2695
0)
#2700
06
b10 7
b1 C
13"
00"
04"
b10 1"
b1 6"
1%
1)
#2705
0)
#2710
03"
10"
12"
b11 1"
b10 6"
1)
#2715
0)
#2720
00"
02"
b100 1"
b11 6"
0%
1)
#2725
0)
#2730
10"
14"
b101 1"
b100 6"
1)
#2735
0)
#2740
b11 7
b10 C
13"
00"
04"
b10 1"
b1 6"
1%
1)
#2745
0)
#2750
03"
10"
12"
b11 1"
b10 6"
1)
#2755
0)
#2760
00"
02"
b100 1"
b11 6"
0%
1)
#2765
0)
#2770
10"
14"
b101 1"
b100 6"
1)
#2775
0)
#2780
b100 7
b11 C
13"
00"
04"
b10 1"
b1 6"
1%
1)
#2785
0)
#2790
03"
10"
12"
b11 1"
b10 6"
1)
#2795
0)
#2800
00"
02"
b100 1"
b11 6"
0%
1)
#2805
0)
#2810
10"
14"
b101 1"
b100 6"
1)
#2815
0)
#2820
b101 7
b100 C
13"
00"
04"
b10 1"
b1 6"
1%
1)
#2825
0)
#2830
03"
10"
12"
b11 1"
b10 6"
1)
#2835
0)
#2840
00"
02"
b100 1"
b11 6"
0%
1)
#2845
0)
#2850
10"
14"
b101 1"
b100 6"
1)
#2855
0)
