UART/vcd/uart_cpp_tb.vcd
$version Generated by VerilatedVcd $end
$timescale 1s $end
 $scope module TOP $end
  $var wire 1 " clk $end
  $var wire 1 # rclk $end
  $var wire 1 $ res $end
  $var wire 1 % cs $end
  $var wire 1 & wr $end
  $var wire 1 ' rd $end
  $var wire 1 ( sin $end
  $var wire 1 ) ddis $end
  $var wire 3 * addr [2:0] $end
  $var wire 8 + data_bus [7:0] $end
  $var wire 1 , sout $end
  $var wire 1 - baudout $end
  $var wire 1 . intr $end
  $scope module uart_top $end
   $var wire 1 / clk $end
   $var wire 1 0 rclk $end
   $var wire 1 1 res $end
   $var wire 1 2 cs $end
   $var wire 1 3 wr $end
   $var wire 1 4 rd $end
   $var wire 1 5 sin $end
   $var wire 1 6 ddis $end
   $var wire 3 7 addr [2:0] $end
   $var wire 8 8 data_bus [7:0] $end
   $var wire 1 9 sout $end
   $var wire 1 : baudout $end
   $var wire 1 ; intr $end
   $var wire 8 < lsr [7:0] $end
   $var wire 8 = lcr [7:0] $end
   $var wire 8 > iir [7:0] $end
   $var wire 8 ? ier [7:0] $end
   $var wire 8 @ fcr [7:0] $end
   $var wire 8 A dll [7:0] $end
   $var wire 8 B dlm [7:0] $end
   $var wire 8 C thr [7:0] $end
   $var wire 10 D rx_fifo_out [9:0] $end
   $var wire 8 E tsr_data [7:0] $end
   $var wire 8 F rd_data [7:0] $end
   $var wire 8 G data_in [7:0] $end
   $var wire 1 H ren $end
   $var wire 1 I wen $end
   $var wire 1 J dlab $end
   $var wire 1 K fifo_en $end
   $var wire 1 L lsr_rd $end
   $var wire 1 M thr_wr $end
   $var wire 1 N rbr_rd $end
   $var wire 1 O rx_ready $end
   $var wire 1 P rx_full $end
   $var wire 1 Q tx_empty $end
   $var wire 1 R rx_empty $end
   $var wire 1 S tx_ready $end
   $var wire 1 T rx_pull $end
   $var wire 16 U divisor [15:0] $end
   $scope module uart_uut $end
    $var wire 32 B# LOOPBACK [31:0] $end
    $var wire 32 C# DWIDTH [31:0] $end
    $var wire 32 D# DIV_BITS [31:0] $end
    $var wire 32 D# TICKS_NUM [31:0] $end
    $var wire 32 E# FIFO_ADDR_W [31:0] $end
    $var wire 1 V clk $end
    $var wire 1 W clk_rx $end
    $var wire 1 X res_n $end
    $var wire 1 Y rd_uart $end
    $var wire 1 Z wr_uart $end
    $var wire 1 [ rx_ext $end
    $var wire 16 \ divisor [15:0] $end
    $var wire 8 ] wr_data [7:0] $end
    $var wire 8 ^ lcreg [7:0] $end
    $var wire 8 _ fcreg [7:0] $end
    $var wire 8 ` tsr_data [7:0] $end
    $var wire 10 a rd_data [9:0] $end
    $var wire 1 b tx_baud $end
    $var wire 1 c tx_ext $end
    $var wire 1 d rx_empty $end
    $var wire 1 e tx_full $end
    $var wire 1 f rx_ready $end
    $var wire 1 g rx_full $end
    $var wire 1 h tx_empty $end
    $var wire 1 i tx_ready $end
    $var wire 8 j tx_data [7:0] $end
    $var wire 8 k tx_fifo_out [7:0] $end
    $var wire 10 l rx_fifo_out [9:0] $end
    $var wire 10 m rx_out [9:0] $end
    $var wire 1 n rx_din $end
    $var wire 1 o rx_clk $end
    $var wire 1 p res_rxf $end
    $var wire 1 q res_txf $end
    $var wire 1 r fifo_en $end
    $var wire 1 s rx_fifo_full $end
    $var wire 1 t tx_fifo_full $end
    $var wire 1 u tx_push $end
    $var wire 1 v rx_push $end
    $scope module Rx_fifo $end
     $var wire 56 F# name [55:0] $end
     $var wire 32 E# ADDR_WIDTH [31:0] $end
     $var wire 32 H# DATA_WIDTH [31:0] $end
     $var wire 1 w res $end
     $var wire 1 x clk $end
     $var wire 1 y push $end
     $var wire 1 z pull $end
     $var wire 10 { din [9:0] $end
     $var wire 10 | dout [9:0] $end
     $var wire 1 } empty $end
     $var wire 1 ~ full $end
     $var wire 5 !! count [4:0] $end
     $var wire 10 "! mem[15] [9:0] $end
     $var wire 10 #! mem[14] [9:0] $end
     $var wire 10 $! mem[13] [9:0] $end
     $var wire 10 %! mem[12] [9:0] $end
     $var wire 10 &! mem[11] [9:0] $end
     $var wire 10 '! mem[10] [9:0] $end
     $var wire 10 (! mem[9] [9:0] $end
     $var wire 10 )! mem[8] [9:0] $end
     $var wire 10 *! mem[7] [9:0] $end
     $var wire 10 +! mem[6] [9:0] $end
     $var wire 10 ,! mem[5] [9:0] $end
     $var wire 10 -! mem[4] [9:0] $end
     $var wire 10 .! mem[3] [9:0] $end
     $var wire 10 /! mem[2] [9:0] $end
     $var wire 10 0! mem[1] [9:0] $end
     $var wire 10 1! mem[0] [9:0] $end
     $var wire 4 2! w_ptr [3:0] $end
     $var wire 4 3! r_ptr [3:0] $end
     $var wire 4 4! next_w [3:0] $end
     $var wire 4 5! next_r [3:0] $end
     $var wire 1 6! ren $end
     $var wire 1 7! wen $end
     $var wire 5 8! count_add [4:0] $end
    $upscope $end
    $scope module Rx_uut $end
     $var wire 32 C# DATA_WIDTH [31:0] $end
     $var wire 32 D# TICKS_NUM [31:0] $end
     $var wire 1 9! clk $end
     $var wire 1 :! res_n $end
     $var wire 1 ;! rx_baud $end
     $var wire 1 <! rx_din $end
     $var wire 8 =! lcreg [7:0] $end
     $var wire 10 >! rx_out [9:0] $end
     $var wire 1 ?! rx_ready $end
     $var wire 32 I# TICK_BW [31:0] $end
     $var wire 32 J# TICK_DELTA [31:0] $end
     $var wire 32 K# TICK_SAMPLE_A [31:0] $end
     $var wire 32 C# TICK_SAMPLE_B [31:0] $end
     $var wire 32 H# TICK_SAMPLE_C [31:0] $end
     $var wire 32 L# TICK_SAMPLE_D [31:0] $end
     $var wire 3 @! state [2:0] $end
     $var wire 3 A! next_state [2:0] $end
     $var wire 1 B! sreg_en $end
     $var wire 1 C! parity_val $end
     $var wire 1 D! parity_bit $end
     $var wire 1 E! first_tick $end
     $var wire 1 F! last_tick $end
     $var wire 1 G! init_ct $end
     $var wire 1 H! cb_incr $end
     $var wire 1 I! voted_din $end
     $var wire 1 J! rx_done $end
     $var wire 1 K! rx_done_set $end
     $var wire 1 L! ct_restart $end
     $var wire 4 M! count_ticks [3:0] $end
     $var wire 4 N! ct_nextval [3:0] $end
     $var wire 3 O! count_bits [2:0] $end
     $var wire 3 P! cb_next [2:0] $end
     $var wire 9 Q! sreg_out [8:0] $end
     $var wire 3 R! parity_reg [2:0] $end
     $var wire 1 S! last_bit $end
     $var wire 1 T! err_par $end
     $var wire 1 U! err_fr $end
     $var wire 1 V! s0 $end
     $var wire 1 W! s1 $end
     $var wire 1 X! s2 $end
     $var wire 1 Y! rx_sync $end
     $scope module rsr $end
      $var wire 32 M# N [31:0] $end
      $var wire 1 Z! clk $end
      $var wire 1 [! res_n $end
      $var wire 1 \! en $end
      $var wire 1 ]! din $end
      $var wire 1 ^! load_en $end
      $var wire 9 _! load [8:0] $end
      $var wire 9 `! dout [8:0] $end
      $var wire 1 a! dout_n $end
      $var wire 32 b! i [31:0] $end
      $var wire 9 c! darr [8:0] $end
      $scope module genblk1[0] $end
       $scope module dff_k $end
        $var wire 32 B# N [31:0] $end
        $var wire 1 d! clk $end
        $var wire 1 e! res_n $end
        $var wire 1 N# en $end
        $var wire 1 f! din [0:0] $end
        $var wire 1 g! Q [0:0] $end
       $upscope $end
      $upscope $end
      $scope module genblk1[1] $end
       $scope module dff_k $end
        $var wire 32 B# N [31:0] $end
        $var wire 1 h! clk $end
        $var wire 1 i! res_n $end
        $var wire 1 N# en $end
        $var wire 1 j! din [0:0] $end
        $var wire 1 k! Q [0:0] $end
       $upscope $end
      $upscope $end
      $scope module genblk1[2] $end
       $scope module dff_k $end
        $var wire 32 B# N [31:0] $end
        $var wire 1 l! clk $end
        $var wire 1 m! res_n $end
        $var wire 1 N# en $end
        $var wire 1 n! din [0:0] $end
        $var wire 1 o! Q [0:0] $end
       $upscope $end
      $upscope $end
      $scope module genblk1[3] $end
       $scope module dff_k $end
        $var wire 32 B# N [31:0] $end
        $var wire 1 p! clk $end
        $var wire 1 q! res_n $end
        $var wire 1 N# en $end
        $var wire 1 r! din [0:0] $end
        $var wire 1 s! Q [0:0] $end
       $upscope $end
      $upscope $end
      $scope module genblk1[4] $end
       $scope module dff_k $end
        $var wire 32 B# N [31:0] $end
        $var wire 1 t! clk $end
        $var wire 1 u! res_n $end
        $var wire 1 N# en $end
        $var wire 1 v! din [0:0] $end
        $var wire 1 w! Q [0:0] $end
       $upscope $end
      $upscope $end
      $scope module genblk1[5] $end
       $scope module dff_k $end
        $var wire 32 B# N [31:0] $end
        $var wire 1 x! clk $end
        $var wire 1 y! res_n $end
        $var wire 1 N# en $end
        $var wire 1 z! din [0:0] $end
        $var wire 1 {! Q [0:0] $end
       $upscope $end
      $upscope $end
      $scope module genblk1[6] $end
       $scope module dff_k $end
        $var wire 32 B# N [31:0] $end
        $var wire 1 |! clk $end
        $var wire 1 }! res_n $end
        $var wire 1 N# en $end
        $var wire 1 ~! din [0:0] $end
        $var wire 1 !" Q [0:0] $end
       $upscope $end
      $upscope $end
      $scope module genblk1[7] $end
       $scope module dff_k $end
        $var wire 32 B# N [31:0] $end
        $var wire 1 "" clk $end
        $var wire 1 #" res_n $end
        $var wire 1 N# en $end
        $var wire 1 $" din [0:0] $end
        $var wire 1 %" Q [0:0] $end
       $upscope $end
      $upscope $end
      $scope module genblk1[8] $end
       $scope module dff_k $end
        $var wire 32 B# N [31:0] $end
        $var wire 1 &" clk $end
        $var wire 1 '" res_n $end
        $var wire 1 N# en $end
        $var wire 1 (" din [0:0] $end
        $var wire 1 )" Q [0:0] $end
       $upscope $end
      $upscope $end
     $upscope $end
     $scope module synch_din $end
      $var wire 32 B# DATA_WIDTH [31:0] $end
      $var wire 32 I# STAGES [31:0] $end
      $var wire 32 B# RES_VAL [31:0] $end
      $var wire 1 *" clk $end
      $var wire 1 +" res $end
      $var wire 1 ," din [0:0] $end
      $var wire 1 -" dout [0:0] $end
      $var wire 1 ." edges [0:0] $end
      $var wire 1 O# INIT_VAL [0:0] $end
      $var wire 1 /" q0 [0:0] $end
      $var wire 1 0" q1 [0:0] $end
      $scope module genblk1 $end
       $var wire 1 1" q2 [0:0] $end
      $upscope $end
     $upscope $end
    $upscope $end
    $scope module Tx_fifo $end
     $var wire 56 P# name [55:0] $end
     $var wire 32 E# ADDR_WIDTH [31:0] $end
     $var wire 32 C# DATA_WIDTH [31:0] $end
     $var wire 1 2" res $end
     $var wire 1 3" clk $end
     $var wire 1 4" push $end
     $var wire 1 5" pull $end
     $var wire 8 6" din [7:0] $end
     $var wire 8 7" dout [7:0] $end
     $var wire 1 8" empty $end
     $var wire 1 9" full $end
     $var wire 5 :" count [4:0] $end
     $var wire 8 ;" mem[15] [7:0] $end
     $var wire 8 <" mem[14] [7:0] $end
     $var wire 8 =" mem[13] [7:0] $end
     $var wire 8 >" mem[12] [7:0] $end
     $var wire 8 ?" mem[11] [7:0] $end
     $var wire 8 @" mem[10] [7:0] $end
     $var wire 8 A" mem[9] [7:0] $end
     $var wire 8 B" mem[8] [7:0] $end
     $var wire 8 C" mem[7] [7:0] $end
     $var wire 8 D" mem[6] [7:0] $end
     $var wire 8 E" mem[5] [7:0] $end
     $var wire 8 F" mem[4] [7:0] $end
     $var wire 8 G" mem[3] [7:0] $end
     $var wire 8 H" mem[2] [7:0] $end
     $var wire 8 I" mem[1] [7:0] $end
     $var wire 8 J" mem[0] [7:0] $end
     $var wire 4 K" w_ptr [3:0] $end
     $var wire 4 L" r_ptr [3:0] $end
     $var wire 4 M" next_w [3:0] $end
     $var wire 4 N" next_r [3:0] $end
     $var wire 1 O" ren $end
     $var wire 1 P" wen $end
     $var wire 5 Q" count_add [4:0] $end
    $upscope $end
    $scope module Tx_uut $end
     $var wire 32 C# DATA_WIDTH [31:0] $end
     $var wire 32 D# TICKS_NUM [31:0] $end
     $var wire 1 R" clk $end
     $var wire 1 S" res_n $end
     $var wire 1 T" tx_baud $end
     $var wire 1 U" tx_start $end
     $var wire 8 V" lcreg [7:0] $end
     $var wire 8 W" tx_din [7:0] $end
     $var wire 1 X" tx_dout $end
     $var wire 1 Y" tx_ready $end
     $var wire 8 Z" tsr_data [7:0] $end
     $var wire 32 I# TICK_BW [31:0] $end
     $var wire 32 R# HALF_TICKS [31:0] $end
     $var wire 32 R# HALF_CYCLE [31:0] $end
     $var wire 3 [" state [2:0] $end
     $var wire 3 \" next_state [2:0] $end
     $var wire 1 ]" sreg_en $end
     $var wire 1 ^" load_en $end
     $var wire 1 _" reg_out $end
     $var wire 1 `" parity $end
     $var wire 1 a" parity_bit $end
     $var wire 1 b" last_tick $end
     $var wire 1 c" tx_pulled $end
     $var wire 1 d" cb_incr $end
     $var wire 4 e" count_ticks [3:0] $end
     $var wire 3 f" count_bits [2:0] $end
     $var wire 3 g" cb_next [2:0] $end
     $var wire 3 h" parity_reg [2:0] $end
     $var wire 1 i" last_bit $end
     $var wire 1 j" stop_bits $end
     $var wire 1 k" half_parity $end
     $scope module tsr $end
      $var wire 32 C# N [31:0] $end
      $var wire 1 l" clk $end
      $var wire 1 m" res_n $end
      $var wire 1 n" en $end
      $var wire 1 o" din $end
      $var wire 1 p" load_en $end
      $var wire 8 q" load [7:0] $end
      $var wire 8 r" dout [7:0] $end
      $var wire 1 s" dout_n $end
      $var wire 32 t" i [31:0] $end
      $var wire 8 u" darr [7:0] $end
      $scope module genblk1[0] $end
       $scope module dff_k $end
        $var wire 32 B# N [31:0] $end
        $var wire 1 v" clk $end
        $var wire 1 w" res_n $end
        $var wire 1 N# en $end
        $var wire 1 x" din [0:0] $end
        $var wire 1 y" Q [0:0] $end
       $upscope $end
      $upscope $end
      $scope module genblk1[1] $end
       $scope module dff_k $end
        $var wire 32 B# N [31:0] $end
        $var wire 1 z" clk $end
        $var wire 1 {" res_n $end
        $var wire 1 N# en $end
        $var wire 1 |" din [0:0] $end
        $var wire 1 }" Q [0:0] $end
       $upscope $end
      $upscope $end
      $scope module genblk1[2] $end
       $scope module dff_k $end
        $var wire 32 B# N [31:0] $end
        $var wire 1 ~" clk $end
        $var wire 1 !# res_n $end
        $var wire 1 N# en $end
        $var wire 1 "# din [0:0] $end
        $var wire 1 ## Q [0:0] $end
       $upscope $end
      $upscope $end
      $scope module genblk1[3] $end
       $scope module dff_k $end
        $var wire 32 B# N [31:0] $end
        $var wire 1 $# clk $end
        $var wire 1 %# res_n $end
        $var wire 1 N# en $end
        $var wire 1 &# din [0:0] $end
        $var wire 1 '# Q [0:0] $end
       $upscope $end
      $upscope $end
      $scope module genblk1[4] $end
       $scope module dff_k $end
        $var wire 32 B# N [31:0] $end
        $var wire 1 (# clk $end
        $var wire 1 )# res_n $end
        $var wire 1 N# en $end
        $var wire 1 *# din [0:0] $end
        $var wire 1 +# Q [0:0] $end
       $upscope $end
      $upscope $end
      $scope module genblk1[5] $end
       $scope module dff_k $end
        $var wire 32 B# N [31:0] $end
        $var wire 1 ,# clk $end
        $var wire 1 -# res_n $end
        $var wire 1 N# en $end
        $var wire 1 .# din [0:0] $end
        $var wire 1 /# Q [0:0] $end
       $upscope $end
      $upscope $end
      $scope module genblk1[6] $end
       $scope module dff_k $end
        $var wire 32 B# N [31:0] $end
        $var wire 1 0# clk $end
        $var wire 1 1# res_n $end
        $var wire 1 N# en $end
        $var wire 1 2# din [0:0] $end
        $var wire 1 3# Q [0:0] $end
       $upscope $end
      $upscope $end
      $scope module genblk1[7] $end
       $scope module dff_k $end
        $var wire 32 B# N [31:0] $end
        $var wire 1 4# clk $end
        $var wire 1 5# res_n $end
        $var wire 1 N# en $end
        $var wire 1 6# din [0:0] $end
        $var wire 1 7# Q [0:0] $end
       $upscope $end
      $upscope $end
     $upscope $end
    $upscope $end
    $scope module baud_gen $end
     $var wire 32 D# DIV_WIDTH [31:0] $end
     $var wire 1 8# res_n $end
     $var wire 1 9# clk_in $end
     $var wire 16 :# div [15:0] $end
     $var wire 1 ;# clk_out $end
     $var wire 16 <# counter [15:0] $end
     $var wire 16 =# next_count [15:0] $end
     $var wire 1 ># cycle_init $end
     $var wire 1 ?# cycle_full $end
     $var wire 1 @# switch_clk $end
     $var wire 1 A# half_cycle $end
    $upscope $end
   $upscope $end
  $upscope $end
 $upscope $end
$enddefinitions $end


#0
0"
0#
1$
0%
0&
0'
0(
0)
b000 *
b00000000 +
1,
0-
1.
0/
00
11
02
03
04
05
06
b000 7
b00000000 8
19
0:
1;
b01100000 <
b00000000 =
b00000000 >
b00000000 ?
b00000000 @
b00000000 A
b00000000 B
b00000000 C
b0000000000 D
b00000000 E
b00000000 F
b00000000 G
0H
0I
0J
0K
0L
0M
0N
0O
0P
1Q
1R
0S
0T
b0000000000000000 U
0V
0W
0X
0Y
0Z
0[
b0000000000000000 \
b00000000 ]
b00000000 ^
b00000000 _
b00000000 `
b0000000000 a
0b
1c
1d
0e
0f
0g
1h
0i
b00000000 j
b00000000 k
b0000000000 l
b0000000000 m
1n
0o
1p
1q
0r
0s
0t
0u
0v
1w
0x
0y
0z
b0000000000 {
b0000000000 |
1}
0~
b00000 !!
b0000000000 "!
b0000000000 #!
b0000000000 $!
b0000000000 %!
b0000000000 &!
b0000000000 '!
b0000000000 (!
b0000000000 )!
b0000000000 *!
b0000000000 +!
b0000000000 ,!
b0000000000 -!
b0000000000 .!
b0000000000 /!
b0000000000 0!
b0000000000 1!
b0000 2!
b0000 3!
b0000 4!
b0000 5!
06!
07!
b00000 8!
09!
0:!
0;!
1<!
b00000000 =!
b0000000000 >!
0?!
b000 @!
b000 A!
0B!
0C!
0D!
1E!
0F!
0G!
0H!
0I!
0J!
0K!
0L!
b0000 M!
b0001 N!
b000 O!
b000 P!
b000000000 Q!
b000 R!
0S!
0T!
0U!
0V!
0W!
0X!
1Y!
1Z!
0[!
0\!
0]!
0^!
b000000000 _!
b000000000 `!
0a!
b00000000000000000000000000001001 b!
b000000000 c!
1d!
0e!
0f!
0g!
1h!
0i!
0j!
0k!
1l!
0m!
0n!
0o!
1p!
0q!
0r!
0s!
1t!
0u!
0v!
0w!
1x!
0y!
0z!
0{!
1|!
0}!
0~!
0!"
1""
0#"
0$"
0%"
1&"
0'"
0("
0)"
0*"
1+"
1,"
1-"
0."
1/"
10"
11"
12"
03"
04"
05"
b00000000 6"
b00000000 7"
18"
09"
b00000 :"
b00000000 ;"
b00000000 <"
b00000000 ="
b00000000 >"
b00000000 ?"
b00000000 @"
b00000000 A"
b00000000 B"
b00000000 C"
b00000000 D"
b00000000 E"
b00000000 F"
b00000000 G"
b00000000 H"
b00000000 I"
b00000000 J"
b0000 K"
b0000 L"
b0000 M"
b0000 N"
0O"
0P"
b00000 Q"
0R"
0S"
0T"
0U"
b00000000 V"
b00000000 W"
1X"
0Y"
b00000000 Z"
b000 ["
b000 \"
0]"
0^"
0_"
0`"
0a"
0b"
0c"
0d"
b0000 e"
b000 f"
b000 g"
b000 h"
0i"
0j"
0k"
0l"
0m"
0n"
0o"
0p"
b00000000 q"
b00000000 r"
0s"
b00000000000000000000000000001000 t"
b00000000 u"
0v"
0w"
0x"
0y"
0z"
0{"
0|"
0}"
0~"
0!#
0"#
0##
0$#
0%#
0&#
0'#
0(#
0)#
0*#
0+#
0,#
0-#
0.#
0/#
00#
01#
02#
03#
04#
05#
06#
07#
08#
09#
b0000000000000000 :#
0;#
b0000000000000000 <#
b0000000000000001 =#
0>#
1?#
1@#
1A#
b00000000000000000000000000000001 B#
b00000000000000000000000000001000 C#
b00000000000000000000000000010000 D#
b00000000000000000000000000000100 E#
b01010010011110000101111101100110011010010110011001101111 F#
b00000000000000000000000000001010 H#
b00000000000000000000000000000011 I#
b00000000000000000000000000000010 J#
b00000000000000000000000000000110 K#
b00000000000000000000000000001011 L#
b00000000000000000000000000001001 M#
1N#
1O#
b01010100011110000101111101100110011010010110011001101111 P#
b00000000000000000000000000000111 R#
#125
1"
1-
0.
1/
1:
0;
b00000001 >
1V
1b
1o
1x
b0001 4!
b0001 5!
19!
1;!
1*"
13"
b0001 M"
b0001 N"
1R"
1T"
19#
1;#
b0000000000000001 <#
b0000000000000010 =#
1>#
0?#
0@#
0A#
#250
0"
0$
1%
1&
1)
b011 *
b10000000 +
0/
01
12
13
16
b011 7
b10000000 8
b10000000 G
1I
0V
1X
b10000000 ]
0p
0q
0w
0x
09!
1:!
1[!
1e!
1i!
1m!
1q!
1u!
1y!
1}!
1#"
1'"
0*"
0+"
02"
03"
b10000000 6"
0R"
1S"
1m"
1w"
1{"
1!#
1%#
1)#
1-#
11#
15#
18#
09#
#375
1"
1/
b10000000 =
1J
1V
b10000000 ^
1x
19!
b10000000 =!
1*"
1."
13"
1R"
b10000000 V"
19#
b0000000000000010 <#
b0000000000000011 =#
0>#
#500
0"
b000 *
b00000010 +
0/
b000 7
b00000010 8
b00000010 A
b00000010 G
b0000000000000010 U
0V
b0000000000000010 \
b00000010 ]
0x
09!
0*"
03"
b00000010 6"
0R"
09#
b0000000000000010 :#
1?#
1@#
#625
1"
0-
1/
0:
1V
0b
0o
1x
19!
0;!
1*"
0."
13"
1R"
0T"
19#
0;#
b0000000000000001 <#
b0000000000000010 =#
1>#
0?#
1A#
#750
0"
b001 *
b00000000 +
0/
b001 7
b00000000 8
b00000000 G
0V
b00000000 ]
0x
09!
0*"
03"
b00000000 6"
0R"
09#
#875
1"
1-
1/
1:
1V
1b
1o
1x
19!
1;!
0E!
b0001 M!
b0010 N!
0Z!
0d!
0h!
0l!
0p!
0t!
0x!
0|!
0""
0&"
1*"
1."
13"
1R"
1T"
b0001 e"
19#
1;#
b0000000000000010 <#
b0000000000000011 =#
0>#
1?#
0A#
#1000
0"
b011 *
b00011111 +
0/
b011 7
b00011111 8
b00011111 G
0V
b00011111 ]
0x
09!
0*"
03"
b00011111 6"
0R"
09#
#1125
1"
0-
1/
0:
b00011111 =
0J
1V
b00011111 ^
0b
b0100000000 m
0o
1x
b0100000000 {
19!
0;!
b00011111 =!
b0100000000 >!
1D!
b011 R!
1T!
1*"
0."
13"
1R"
0T"
b00011111 V"
1a"
b011 h"
1j"
19#
0;#
b0000000000000001 <#
b0000000000000010 =#
1>#
0?#
1A#
#1250
0"
0&
1'
0)
0/
03
14
06
b00011111 F
b00000000 G
1H
0I
0V
b00000000 ]
0x
09!
0*"
03"
b00000000 6"
0R"
09#
#1375
1"
1-
1/
1:
1V
1b
1o
1x
19!
1;!
b0010 M!
b0011 N!
1*"
1."
13"
1R"
1T"
b0010 e"
19#
1;#
b0000000000000010 <#
b0000000000000011 =#
0>#
1?#
0A#
#1500
0"
1&
0'
1)
b010 *
b00000000 +
0/
13
04
16
b010 7
b00000000 8
0H
1I
0V
0x
09!
0*"
03"
0R"
09#
#1625
1"
0-
1/
0:
1V
0b
0o
1x
19!
0;!
1*"
0."
13"
1R"
0T"
19#
0;#
b0000000000000001 <#
b0000000000000010 =#
1>#
0?#
1A#
#1750
0"
b001 *
0/
b001 7
0V
0x
09!
0*"
03"
0R"
09#
#1875
1"
1-
1/
1:
1V
1b
1o
1x
19!
1;!
b0011 M!
b0100 N!
1*"
1."
13"
1R"
1T"
b0011 e"
19#
1;#
b0000000000000010 <#
b0000000000000011 =#
0>#
1?#
0A#
#2000
0"
0&
1'
0)
b101 *
0/
03
14
06
b101 7
b01100000 F
1H
0I
1L
0V
0x
09!
0*"
03"
0R"
09#
#2125
1"
0-
1/
0:
1V
0b
0o
1x
19!
0;!
1*"
0."
13"
1R"
0T"
19#
0;#
b0000000000000001 <#
b0000000000000010 =#
1>#
0?#
1A#
#2250
0"
1&
0'
1)
b000 *
b01011010 +
0/
13
04
16
b000 7
b01011010 8
b01011010 G
0H
1I
0L
1M
0V
1Z
b01011010 ]
1u
0x
09!
0*"
03"
14"
b01011010 6"
1P"
b00001 Q"
0R"
09#
#2375
1"
1-
1/
1:
b00000000 <
0Q
1V
1b
1e
0h
b01011010 k
1o
0u
1x
19!
1;!
b0100 M!
b0101 N!
1*"
1."
13"
04"
b01011010 7"
08"
b00001 :"
b01011010 J"
b0001 K"
b0010 M"
0P"
b00000 Q"
1R"
1T"
1U"
b001 \"
b0100 e"
19#
1;#
b0000000000000010 <#
b0000000000000011 =#
0>#
1?#
0A#
#2500
0"
0&
1'
0)
b101 *
0/
03
14
06
b101 7
b00000000 F
b00000000 G
1H
0I
1L
0M
0V
0Z
b00000000 ]
0x
09!
0*"
03"
b00000000 6"
0R"
09#
#2625
1"
0-
1/
0:
1V
0b
0o
1x
19!
0;!
1*"
0."
13"
1R"
0T"
19#
0;#
b0000000000000001 <#
b0000000000000010 =#
1>#
0?#
1A#
#2750
0"
0/
0V
0x
09!
0*"
03"
0R"
09#
#2875
1"
1-
1/
1:
1V
1b
1o
1x
19!
1;!
b0101 M!
b0110 N!
1*"
1."
13"
1R"
1T"
b0101 e"
19#
1;#
b0000000000000010 <#
b0000000000000011 =#
0>#
1?#
0A#
#3000
0"
0/
0V
0x
09!
0*"
03"
0R"
09#
#3125
1"
0-
1/
0:
1V
0b
0o
1x
19!
0;!
1*"
0."
13"
1R"
0T"
19#
0;#
b0000000000000001 <#
b0000000000000010 =#
1>#
0?#
1A#
#3250
0"
0/
0V
0x
09!
0*"
03"
0R"
09#
#3375
1"
1-
1/
1:
1V
1b
1o
1x
19!
1;!
b0110 M!
b0111 N!
1*"
1."
13"
1R"
1T"
b0110 e"
19#
1;#
b0000000000000010 <#
b0000000000000011 =#
0>#
1?#
0A#
#3500
0"
0/
0V
0x
09!
0*"
03"
0R"
09#
#3625
1"
0-
1/
0:
1V
0b
0o
1x
19!
0;!
1*"
0."
13"
1R"
0T"
19#
0;#
b0000000000000001 <#
b0000000000000010 =#
1>#
0?#
1A#
#3750
0"
0/
0V
0x
09!
0*"
03"
0R"
09#
#3875
1"
1-
1/
1:
1V
1b
1o
1x
19!
1;!
b0111 M!
b1000 N!
1V!
1*"
1."
13"
1R"
1T"
b0111 e"
19#
1;#
b0000000000000010 <#
b0000000000000011 =#
0>#
1?#
0A#
#4000
0"
0/
0V
0x
09!
0*"
03"
0R"
09#
#4125
1"
0-
1/
0:
1V
0b
0o
1x
19!
0;!
1*"
0."
13"
1R"
0T"
19#
0;#
b0000000000000001 <#
b0000000000000010 =#
1>#
0?#
1A#
#4250
0"
0/
0V
0x
09!
0*"
03"
0R"
09#
#4375
1"
1-
1/
1:
1V
1b
1o
1x
19!
1;!
b1000 M!
b1001 N!
1*"
1."
13"
1R"
1T"
b1000 e"
19#
1;#
b0000000000000010 <#
b0000000000000011 =#
0>#
1?#
0A#
#4500
0"
0/
0V
0x
09!
0*"
03"
0R"
09#
#4625
1"
0-
1/
0:
1V
0b
0o
1x
19!
0;!
1*"
0."
13"
1R"
0T"
19#
0;#
b0000000000000001 <#
b0000000000000010 =#
1>#
0?#
1A#
#4750
0"
0/
0V
0x
09!
0*"
03"
0R"
09#
#4875
1"
1-
1/
1:
1V
1b
1o
1x
19!
1;!
1I!
b1001 M!
b1010 N!
1W!
1]!
1*"
1."
13"
1R"
1T"
b1001 e"
19#
1;#
b0000000000000010 <#
b0000000000000011 =#
0>#
1?#
0A#
#5000
0"
0/
0V
0x
09!
0*"
03"
0R"
09#
#5125
1"
0-
1/
0:
1V
0b
0o
1x
19!
0;!
1*"
0."
13"
1R"
0T"
19#
0;#
b0000000000000001 <#
b0000000000000010 =#
1>#
0?#
1A#
#5250
0"
0/
0V
0x
09!
0*"
03"
0R"
09#
#5375
1"
1-
1/
1:
1V
1b
1o
1x
19!
1;!
b1010 M!
b1011 N!
1*"
1."
13"
1R"
1T"
b1010 e"
19#
1;#
b0000000000000010 <#
b0000000000000011 =#
0>#
1?#
0A#
#5500
0"
0/
0V
0x
09!
0*"
03"
0R"
09#
#5625
1"
0-
1/
0:
1V
0b
0o
1x
19!
0;!
1*"
0."
13"
1R"
0T"
19#
0;#
b0000000000000001 <#
b0000000000000010 =#
1>#
0?#
1A#
#5750
0"
0/
0V
0x
09!
0*"
03"
0R"
09#
#5875
1"
1-
1/
1:
1V
1b
1o
1x
19!
1;!
b1011 M!
b1100 N!
1X!
1*"
1."
13"
1R"
1T"
b1011 e"
19#
1;#
b0000000000000010 <#
b0000000000000011 =#
0>#
1?#
0A#
#6000
0"
0/
0V
0x
09!
0*"
03"
0R"
09#
#6125
1"
0-
1/
0:
1V
0b
0o
1x
19!
0;!
1*"
0."
13"
1R"
0T"
19#
0;#
b0000000000000001 <#
b0000000000000010 =#
1>#
0?#
1A#
#6250
0"
0/
0V
0x
09!
0*"
03"
0R"
09#
#6375
1"
1-
1/
1:
1V
1b
1o
1x
19!
1;!
b1100 M!
b1101 N!
1*"
1."
13"
1R"
1T"
b1100 e"
19#
1;#
b0000000000000010 <#
b0000000000000011 =#
0>#
1?#
0A#
#6500
0"
0/
0V
0x
09!
0*"
03"
0R"
09#
#6625
1"
0-
1/
0:
1V
0b
0o
1x
19!
0;!
1*"
0."
13"
1R"
0T"
19#
0;#
b0000000000000001 <#
b0000000000000010 =#
1>#
0?#
1A#
#6750
0"
0/
0V
0x
09!
0*"
03"
0R"
09#
#6875
1"
1-
1/
1:
1V
1b
1o
1x
19!
1;!
b1101 M!
b1110 N!
1*"
1."
13"
1R"
1T"
b1101 e"
19#
1;#
b0000000000000010 <#
b0000000000000011 =#
0>#
1?#
0A#
#7000
0"
0/
0V
0x
09!
0*"
03"
0R"
09#
#7125
1"
0-
1/
0:
1V
0b
0o
1x
19!
0;!
1*"
0."
13"
1R"
0T"
19#
0;#
b0000000000000001 <#
b0000000000000010 =#
1>#
0?#
1A#
#7250
0"
0/
0V
0x
09!
0*"
03"
0R"
09#
