tb_uvm_fifo/dir/dsim.log
=S:Begin run-time elaboration and static initialization...
=N:[dumpVCD] preparing VCD dump to 'dir/waves.vcd'.
=N:[dump] Dump started at time 0
=N:[ToggleCoverage] Toggle coverage enabled.
=N:Starting event scheduler...
=W:[dump] top_tb.sv:40:9: $dumpfile() called, but dump already enabled.
=W:[dump] top_tb.sv:41:9: $dumpvars() called after dumping started.
UVM_INFO @ 0: reporter [TOP] RESET STARTED
UVM_INFO @ 0: reporter [RNTST] Running test test_regression...
------------------------------------------------------------------
Name                       Type                        Size  Value
------------------------------------------------------------------
uvm_test_top               test_regression             -     @341 
  ENV                      environment                 -     @354 
    AGT                    agent                       -     @410 
      DRV                  driver                      -     @448 
        rsp_port           uvm_analysis_port           -     @467 
        seq_item_port      uvm_seq_item_pull_port      -     @457 
      MON                  monitor                     -     @477 
        mon_port           uvm_analysis_port           -     @486 
      SQR                  sequencer                   -     @496 
        rsp_export         uvm_analysis_export         -     @505 
        seq_item_export    uvm_seq_item_pull_imp       -     @623 
        arbitration_queue  array                       0     -    
        lock_queue         array                       0     -    
        num_last_reqs      integral                    32    'd1  
        num_last_rsps      integral                    32    'd1  
    CVG                    coverage                    -     @419 
      analysis_imp         uvm_analysis_imp            -     @428 
    SCB                    scoreboard                  -     @438 
      scb_fifo             uvm_tlm_analysis_fifo #(T)  -     @640 
        analysis_export    uvm_analysis_imp            -     @689 
        get_ap             uvm_analysis_port           -     @679 
        get_peek_export    uvm_get_peek_imp            -     @659 
        put_ap             uvm_analysis_port           -     @669 
        put_export         uvm_put_imp                 -     @649 
------------------------------------------------------------------
UVM_INFO @ 0: uvm_test_top [uvm_test_top] ::: CONFIG :::
--------------------------------------
Name          Type         Size  Value
--------------------------------------
cfg           fifo_config  -     @363 
  WIDTH       integral     32    'd8  
  DEPTH       integral     32    'd8  
  T_CLK       integral     32    'd5  
  FREQ        integral     32    'd100
  SEQ_REPEAT  integral     32    'd24 
--------------------------------------
UVM_INFO @ 0: uvm_test_top [uvm_test_top] ::: FACTORY :::
UVM_INFO /home/AltairDSim/2026/uvm/1.2/src/base/uvm_factory.svh(1645) @ 0: reporter [UVM/FACTORY/PRINT] 
#### Factory Configuration (*)

  No instance or type overrides are registered with this factory

All types registered with the factory: 78 total
  Type Name
  ---------
  agent
  coverage
  driver
  environment
  fifo_config
  monitor
  scoreboard
  seq_lib
  sequence_consecutives_while_empty
  sequence_consecutives_while_full
  sequence_parallel
  sequence_push_pull_00
  sequence_push_pull_FF_00
  sequence_push_pull_ff
  sequence_rand
  sequencer
  sequences
  test_base
  test_parallel
  test_push_00
  test_push_ff
  test_push_pull_while_empty
  test_push_pull_while_full
  test_random
  test_regression
  transaction
(*) Types with no associated type name will be printed as <unknown>

####


UVM_INFO /home/AltairDSim/2026/uvm/1.2/src/seq/uvm_sequence_library.svh(659) @ 0: uvm_test_top.ENV.AGT.SQR@@SEQ [SEQLIB/START] Starting sequence library seq_lib in unknown phase: 10 iterations in mode UVM_SEQ_LIB_USER
UVM_INFO @ 0: uvm_test_top.ENV.AGT.SQR@@SEQ.sequence_push_pull_00:1 [sequence_push_pull_00:1] --- STARTING TRANSACTIONS: push 00 and pull 16 times (2 total) ---
UVM_INFO @ 0: uvm_test_top.ENV.AGT.SQR@@SEQ.sequence_push_pull_00:1 [sequence_push_pull_00:1] --- STARTING TRANSACTIONS: push 0x00 (16 total) ---
UVM_INFO tests.sv(15) @ 0: uvm_test_top [CFG_PHASE] Sequences library:
Current FIFO state:
mem[0] = 0xxx
mem[1] = 0xxx
mem[2] = 0xxx
mem[3] = 0xxx
mem[4] = 0xxx
mem[5] = 0xxx
mem[6] = 0xxx
mem[7] = 0xxx
                   5 D COUNT=0
FIFO: w_ptr=x next_w=x, push=x din=xx, full=x
FIFO: r_ptr=x next_r=x, pull=x dout=xx, empty=x
                   5 S COUNT=0
UVM_INFO @ 10: reporter [TOP] RESET FINISHED
Current FIFO state:
mem[0] = 0xxx
mem[1] = 0xxx
mem[2] = 0xxx
mem[3] = 0xxx
mem[4] = 0xxx
mem[5] = 0xxx
mem[6] = 0xxx
mem[7] = 0xxx
                  15 D COUNT=0
FIFO: w_ptr=0 next_w=1, push=x din=xx, full=0
FIFO: r_ptr=0 next_r=1, pull=x dout=xx, empty=1
UVM_INFO @ 15: uvm_test_top.ENV.AGT.DRV [DRV sent item] push=1 pull=0 din=0x0 dout=0x0 empty=0 full=0
UVM_INFO @ 15: uvm_test_top.ENV.SCB [SCB_FIFO_PORT] push=0 pull=0 din=0x0 dout=0x0 empty=1 full=0
                  15 S COUNT=0
Current FIFO state:
mem[0] = 0xxx
mem[1] = 0xxx
mem[2] = 0xxx
mem[3] = 0xxx
mem[4] = 0xxx
mem[5] = 0xxx
mem[6] = 0xxx
mem[7] = 0xxx
                  25 D COUNT=0
FIFO: w_ptr=0 next_w=1, push=1 din=0, full=0
FIFO: r_ptr=0 next_r=1, pull=0 dout=xx, empty=1
UVM_INFO @ 25: uvm_test_top.ENV.AGT.DRV [DRV sent item] push=1 pull=0 din=0x0 dout=0x0 empty=0 full=0
UVM_INFO @ 25: uvm_test_top.ENV.SCB [SCB_FIFO_PORT] push=1 pull=0 din=0x0 dout=0x0 empty=1 full=0
                  25 S COUNT=1
Current FIFO state:
mem[0] = 0x00
mem[1] = 0xxx
mem[2] = 0xxx
mem[3] = 0xxx
mem[4] = 0xxx
mem[5] = 0xxx
mem[6] = 0xxx
mem[7] = 0xxx
                  35 D COUNT=1
FIFO: w_ptr=1 next_w=2, push=1 din=0, full=0
FIFO: r_ptr=0 next_r=1, pull=0 dout=0, empty=0
UVM_INFO @ 35: uvm_test_top.ENV.AGT.DRV [DRV sent item] push=1 pull=0 din=0x0 dout=0x0 empty=0 full=0
UVM_INFO @ 35: uvm_test_top.ENV.SCB [SCB_FIFO_PORT] push=1 pull=0 din=0x0 dout=0x0 empty=0 full=0
                  35 S COUNT=2
Current FIFO state:
mem[0] = 0x00
mem[1] = 0x00
mem[2] = 0xxx
mem[3] = 0xxx
mem[4] = 0xxx
mem[5] = 0xxx
mem[6] = 0xxx
mem[7] = 0xxx
                  45 D COUNT=2
FIFO: w_ptr=2 next_w=3, push=1 din=0, full=0
FIFO: r_ptr=0 next_r=1, pull=0 dout=0, empty=0
UVM_INFO @ 45: uvm_test_top.ENV.AGT.DRV [DRV sent item] push=1 pull=0 din=0x0 dout=0x0 empty=0 full=0
UVM_INFO @ 45: uvm_test_top.ENV.SCB [SCB_FIFO_PORT] push=1 pull=0 din=0x0 dout=0x0 empty=0 full=0
                  45 S COUNT=3
Current FIFO state:
mem[0] = 0x00
mem[1] = 0x00
mem[2] = 0x00
mem[3] = 0xxx
mem[4] = 0xxx
mem[5] = 0xxx
mem[6] = 0xxx
mem[7] = 0xxx
                  55 D COUNT=3
FIFO: w_ptr=3 next_w=4, push=1 din=0, full=0
FIFO: r_ptr=0 next_r=1, pull=0 dout=0, empty=0
UVM_INFO @ 55: uvm_test_top.ENV.AGT.DRV [DRV sent item] push=1 pull=0 din=0x0 dout=0x0 empty=0 full=0
UVM_INFO @ 55: uvm_test_top.ENV.SCB [SCB_FIFO_PORT] push=1 pull=0 din=0x0 dout=0x0 empty=0 full=0
                  55 S COUNT=4
Current FIFO state:
mem[0] = 0x00
mem[1] = 0x00
mem[2] = 0x00
mem[3] = 0x00
mem[4] = 0xxx
mem[5] = 0xxx
mem[6] = 0xxx
mem[7] = 0xxx
                  65 D COUNT=4
FIFO: w_ptr=4 next_w=5, push=1 din=0, full=0
FIFO: r_ptr=0 next_r=1, pull=0 dout=0, empty=0
UVM_INFO @ 65: uvm_test_top.ENV.AGT.DRV [DRV sent item] push=1 pull=0 din=0x0 dout=0x0 empty=0 full=0
UVM_INFO @ 65: uvm_test_top.ENV.SCB [SCB_FIFO_PORT] push=1 pull=0 din=0x0 dout=0x0 empty=0 full=0
                  65 S COUNT=5
Current FIFO state:
mem[0] = 0x00
mem[1] = 0x00
mem[2] = 0x00
mem[3] = 0x00
mem[4] = 0x00
mem[5] = 0xxx
mem[6] = 0xxx
mem[7] = 0xxx
                  75 D COUNT=5
FIFO: w_ptr=5 next_w=6, push=1 din=0, full=0
FIFO: r_ptr=0 next_r=1, pull=0 dout=0, empty=0
UVM_INFO @ 75: uvm_test_top.ENV.AGT.DRV [DRV sent item] push=1 pull=0 din=0x0 dout=0x0 empty=0 full=0
UVM_INFO @ 75: uvm_test_top.ENV.SCB [SCB_FIFO_PORT] push=1 pull=0 din=0x0 dout=0x0 empty=0 full=0
                  75 S COUNT=6
Current FIFO state:
mem[0] = 0x00
mem[1] = 0x00
mem[2] = 0x00
mem[3] = 0x00
mem[4] = 0x00
mem[5] = 0x00
mem[6] = 0xxx
mem[7] = 0xxx
                  85 D COUNT=6
FIFO: w_ptr=6 next_w=7, push=1 din=0, full=0
FIFO: r_ptr=0 next_r=1, pull=0 dout=0, empty=0
UVM_INFO @ 85: uvm_test_top.ENV.AGT.DRV [DRV sent item] push=1 pull=0 din=0x0 dout=0x0 empty=0 full=0
UVM_INFO @ 85: uvm_test_top.ENV.SCB [SCB_FIFO_PORT] push=1 pull=0 din=0x0 dout=0x0 empty=0 full=0
                  85 S COUNT=7
Current FIFO state:
mem[0] = 0x00
mem[1] = 0x00
mem[2] = 0x00
mem[3] = 0x00
mem[4] = 0x00
mem[5] = 0x00
mem[6] = 0x00
mem[7] = 0xxx
                  95 D COUNT=7
FIFO: w_ptr=7 next_w=0, push=1 din=0, full=1
FIFO: r_ptr=0 next_r=1, pull=0 dout=0, empty=0
UVM_INFO @ 95: uvm_test_top.ENV.AGT.DRV [DRV sent item] push=1 pull=0 din=0x0 dout=0x0 empty=0 full=0
UVM_INFO @ 95: uvm_test_top.ENV.SCB [SCB_FIFO_PORT] push=1 pull=0 din=0x0 dout=0x0 empty=0 full=1
                  95 S COUNT=7
Current FIFO state:
mem[0] = 0x00
mem[1] = 0x00
mem[2] = 0x00
mem[3] = 0x00
mem[4] = 0x00
mem[5] = 0x00
mem[6] = 0x00
mem[7] = 0xxx
                 105 D COUNT=7
FIFO: w_ptr=7 next_w=0, push=1 din=0, full=1
FIFO: r_ptr=0 next_r=1, pull=0 dout=0, empty=0
UVM_INFO @ 105: uvm_test_top.ENV.AGT.DRV [DRV sent item] push=1 pull=0 din=0x0 dout=0x0 empty=0 full=0
UVM_INFO @ 105: uvm_test_top.ENV.SCB [SCB_FIFO_PORT] push=1 pull=0 din=0x0 dout=0x0 empty=0 full=1
                 105 S COUNT=7
Current FIFO state:
mem[0] = 0x00
mem[1] = 0x00
mem[2] = 0x00
mem[3] = 0x00
mem[4] = 0x00
mem[5] = 0x00
mem[6] = 0x00
mem[7] = 0xxx
                 115 D COUNT=7
FIFO: w_ptr=7 next_w=0, push=1 din=0, full=1
FIFO: r_ptr=0 next_r=1, pull=0 dout=0, empty=0
UVM_INFO @ 115: uvm_test_top.ENV.AGT.DRV [DRV sent item] push=1 pull=0 din=0x0 dout=0x0 empty=0 full=0
UVM_INFO @ 115: uvm_test_top.ENV.SCB [SCB_FIFO_PORT] push=1 pull=0 din=0x0 dout=0x0 empty=0 full=1
                 115 S COUNT=7
Current FIFO state:
mem[0] = 0x00
mem[1] = 0x00
mem[2] = 0x00
mem[3] = 0x00
mem[4] = 0x00
mem[5] = 0x00
mem[6] = 0x00
mem[7] = 0xxx
                 125 D COUNT=7
FIFO: w_ptr=7 next_w=0, push=1 din=0, full=1
FIFO: r_ptr=0 next_r=1, pull=0 dout=0, empty=0
UVM_INFO @ 125: uvm_test_top.ENV.AGT.DRV [DRV sent item] push=1 pull=0 din=0x0 dout=0x0 empty=0 full=0
UVM_INFO @ 125: uvm_test_top.ENV.SCB [SCB_FIFO_PORT] push=1 pull=0 din=0x0 dout=0x0 empty=0 full=1
                 125 S COUNT=7
Current FIFO state:
mem[0] = 0x00
mem[1] = 0x00
mem[2] = 0x00
mem[3] = 0x00
mem[4] = 0x00
mem[5] = 0x00
mem[6] = 0x00
mem[7] = 0xxx
                 135 D COUNT=7
FIFO: w_ptr=7 next_w=0, push=1 din=0, full=1
FIFO: r_ptr=0 next_r=1, pull=0 dout=0, empty=0
UVM_INFO @ 135: uvm_test_top.ENV.AGT.DRV [DRV sent item] push=1 pull=0 din=0x0 dout=0x0 empty=0 full=0
UVM_INFO @ 135: uvm_test_top.ENV.SCB [SCB_FIFO_PORT] push=1 pull=0 din=0x0 dout=0x0 empty=0 full=1
                 135 S COUNT=7
Current FIFO state:
mem[0] = 0x00
mem[1] = 0x00
mem[2] = 0x00
mem[3] = 0x00
mem[4] = 0x00
mem[5] = 0x00
mem[6] = 0x00
mem[7] = 0xxx
                 145 D COUNT=7
FIFO: w_ptr=7 next_w=0, push=1 din=0, full=1
FIFO: r_ptr=0 next_r=1, pull=0 dout=0, empty=0
UVM_INFO @ 145: uvm_test_top.ENV.AGT.DRV [DRV sent item] push=1 pull=0 din=0x0 dout=0x0 empty=0 full=0
UVM_INFO @ 145: uvm_test_top.ENV.SCB [SCB_FIFO_PORT] push=1 pull=0 din=0x0 dout=0x0 empty=0 full=1
                 145 S COUNT=7
Current FIFO state:
mem[0] = 0x00
mem[1] = 0x00
mem[2] = 0x00
mem[3] = 0x00
mem[4] = 0x00
mem[5] = 0x00
mem[6] = 0x00
mem[7] = 0xxx
                 155 D COUNT=7
FIFO: w_ptr=7 next_w=0, push=1 din=0, full=1
FIFO: r_ptr=0 next_r=1, pull=0 dout=0, empty=0
UVM_INFO @ 155: uvm_test_top.ENV.AGT.DRV [DRV sent item] push=1 pull=0 din=0x0 dout=0x0 empty=0 full=0
UVM_INFO @ 155: uvm_test_top.ENV.SCB [SCB_FIFO_PORT] push=1 pull=0 din=0x0 dout=0x0 empty=0 full=1
                 155 S COUNT=7
Current FIFO state:
mem[0] = 0x00
mem[1] = 0x00
mem[2] = 0x00
mem[3] = 0x00
mem[4] = 0x00
mem[5] = 0x00
mem[6] = 0x00
mem[7] = 0xxx
                 165 D COUNT=7
FIFO: w_ptr=7 next_w=0, push=1 din=0, full=1
FIFO: r_ptr=0 next_r=1, pull=0 dout=0, empty=0
UVM_INFO @ 165: uvm_test_top.ENV.AGT.DRV [DRV sent item] push=1 pull=0 din=0x0 dout=0x0 empty=0 full=0
UVM_INFO @ 165: uvm_test_top.ENV.SCB [SCB_FIFO_PORT] push=1 pull=0 din=0x0 dout=0x0 empty=0 full=1
UVM_INFO @ 165: uvm_test_top.ENV.AGT.SQR@@SEQ.sequence_push_pull_00:1 [sequence_push_pull_00:1] --- STARTING TRANSACTIONS: pull only (16 total) ---
                 165 S COUNT=7
Current FIFO state:
mem[0] = 0x00
mem[1] = 0x00
mem[2] = 0x00
mem[3] = 0x00
mem[4] = 0x00
mem[5] = 0x00
mem[6] = 0x00
mem[7] = 0xxx
                 175 D COUNT=7
FIFO: w_ptr=7 next_w=0, push=1 din=0, full=1
FIFO: r_ptr=0 next_r=1, pull=0 dout=0, empty=0
UVM_INFO @ 175: uvm_test_top.ENV.AGT.DRV [DRV sent item] push=0 pull=1 din=0x6a dout=0x0 empty=0 full=0
UVM_INFO @ 175: uvm_test_top.ENV.SCB [SCB_FIFO_PORT] push=1 pull=0 din=0x0 dout=0x0 empty=0 full=1
                 175 S COUNT=7
Current FIFO state:
mem[0] = 0x00
mem[1] = 0x00
mem[2] = 0x00
mem[3] = 0x00
mem[4] = 0x00
mem[5] = 0x00
mem[6] = 0x00
mem[7] = 0xxx
                 185 D COUNT=7
FIFO: w_ptr=7 next_w=0, push=0 din=6a, full=1
FIFO: r_ptr=0 next_r=1, pull=1 dout=0, empty=0
UVM_INFO @ 185: uvm_test_top.ENV.AGT.DRV [DRV sent item] push=0 pull=1 din=0x32 dout=0x0 empty=0 full=0
UVM_INFO @ 185: uvm_test_top.ENV.SCB [SCB_FIFO_PORT] push=0 pull=1 din=0x6a dout=0x0 empty=0 full=1
UVM_INFO @ 185: uvm_test_top.ENV.SCB [SCB] --- PASSED MATCH: Exp=0x0 | Rec=0x0
                 185 S COUNT=6
Current FIFO state:
mem[0] = 0x00
mem[1] = 0x00
mem[2] = 0x00
mem[3] = 0x00
mem[4] = 0x00
mem[5] = 0x00
mem[6] = 0x00
mem[7] = 0xxx
                 195 D COUNT=6
FIFO: w_ptr=7 next_w=0, push=0 din=32, full=0
FIFO: r_ptr=1 next_r=2, pull=1 dout=0, empty=0
UVM_INFO @ 195: uvm_test_top.ENV.AGT.DRV [DRV sent item] push=0 pull=1 din=0x5a dout=0x0 empty=0 full=0
UVM_INFO @ 195: uvm_test_top.ENV.SCB [SCB_FIFO_PORT] push=0 pull=1 din=0x32 dout=0x0 empty=0 full=0
UVM_INFO @ 195: uvm_test_top.ENV.SCB [SCB] --- PASSED MATCH: Exp=0x0 | Rec=0x0
                 195 S COUNT=5
Current FIFO state:
mem[0] = 0x00
mem[1] = 0x00
mem[2] = 0x00
mem[3] = 0x00
mem[4] = 0x00
mem[5] = 0x00
mem[6] = 0x00
mem[7] = 0xxx
                 205 D COUNT=5
FIFO: w_ptr=7 next_w=0, push=0 din=5a, full=0
FIFO: r_ptr=2 next_r=3, pull=1 dout=0, empty=0
UVM_INFO @ 205: uvm_test_top.ENV.AGT.DRV [DRV sent item] push=0 pull=1 din=0xf8 dout=0x0 empty=0 full=0
UVM_INFO @ 205: uvm_test_top.ENV.SCB [SCB_FIFO_PORT] push=0 pull=1 din=0x5a dout=0x0 empty=0 full=0
UVM_INFO @ 205: uvm_test_top.ENV.SCB [SCB] --- PASSED MATCH: Exp=0x0 | Rec=0x0
                 205 S COUNT=4
Current FIFO state:
mem[0] = 0x00
mem[1] = 0x00
mem[2] = 0x00
mem[3] = 0x00
mem[4] = 0x00
mem[5] = 0x00
mem[6] = 0x00
mem[7] = 0xxx
                 215 D COUNT=4
FIFO: w_ptr=7 next_w=0, push=0 din=f8, full=0
FIFO: r_ptr=3 next_r=4, pull=1 dout=0, empty=0
UVM_INFO @ 215: uvm_test_top.ENV.AGT.DRV [DRV sent item] push=0 pull=1 din=0xde dout=0x0 empty=0 full=0
UVM_INFO @ 215: uvm_test_top.ENV.SCB [SCB_FIFO_PORT] push=0 pull=1 din=0xf8 dout=0x0 empty=0 full=0
UVM_INFO @ 215: uvm_test_top.ENV.SCB [SCB] --- PASSED MATCH: Exp=0x0 | Rec=0x0
                 215 S COUNT=3
Current FIFO state:
mem[0] = 0x00
mem[1] = 0x00
mem[2] = 0x00
mem[3] = 0x00
mem[4] = 0x00
mem[5] = 0x00
mem[6] = 0x00
mem[7] = 0xxx
                 225 D COUNT=3
FIFO: w_ptr=7 next_w=0, push=0 din=de, full=0
FIFO: r_ptr=4 next_r=5, pull=1 dout=0, empty=0
UVM_INFO @ 225: uvm_test_top.ENV.AGT.DRV [DRV sent item] push=0 pull=1 din=0x37 dout=0x0 empty=0 full=0
UVM_INFO @ 225: uvm_test_top.ENV.SCB [SCB_FIFO_PORT] push=0 pull=1 din=0xde dout=0x0 empty=0 full=0
UVM_INFO @ 225: uvm_test_top.ENV.SCB [SCB] --- PASSED MATCH: Exp=0x0 | Rec=0x0
                 225 S COUNT=2
Current FIFO state:
mem[0] = 0x00
mem[1] = 0x00
mem[2] = 0x00
mem[3] = 0x00
mem[4] = 0x00
mem[5] = 0x00
mem[6] = 0x00
mem[7] = 0xxx
                 235 D COUNT=2
FIFO: w_ptr=7 next_w=0, push=0 din=37, full=0
FIFO: r_ptr=5 next_r=6, pull=1 dout=0, empty=0
UVM_INFO @ 235: uvm_test_top.ENV.AGT.DRV [DRV sent item] push=0 pull=1 din=0x62 dout=0x0 empty=0 full=0
UVM_INFO @ 235: uvm_test_top.ENV.SCB [SCB_FIFO_PORT] push=0 pull=1 din=0x37 dout=0x0 empty=0 full=0
UVM_INFO @ 235: uvm_test_top.ENV.SCB [SCB] --- PASSED MATCH: Exp=0x0 | Rec=0x0
                 235 S COUNT=1
Current FIFO state:
mem[0] = 0x00
mem[1] = 0x00
mem[2] = 0x00
mem[3] = 0x00
mem[4] = 0x00
mem[5] = 0x00
mem[6] = 0x00
mem[7] = 0xxx
                 245 D COUNT=1
FIFO: w_ptr=7 next_w=0, push=0 din=62, full=0
FIFO: r_ptr=6 next_r=7, pull=1 dout=0, empty=0
UVM_INFO @ 245: uvm_test_top.ENV.AGT.DRV [DRV sent item] push=0 pull=1 din=0x3d dout=0x0 empty=0 full=0
UVM_INFO @ 245: uvm_test_top.ENV.SCB [SCB_FIFO_PORT] push=0 pull=1 din=0x62 dout=0x0 empty=0 full=0
UVM_INFO @ 245: uvm_test_top.ENV.SCB [SCB] --- PASSED MATCH: Exp=0x0 | Rec=0x0
                 245 S COUNT=0
Current FIFO state:
mem[0] = 0x00
mem[1] = 0x00
mem[2] = 0x00
mem[3] = 0x00
mem[4] = 0x00
mem[5] = 0x00
mem[6] = 0x00
mem[7] = 0xxx
                 255 D COUNT=0
FIFO: w_ptr=7 next_w=0, push=0 din=3d, full=0
FIFO: r_ptr=7 next_r=0, pull=1 dout=xx, empty=1
UVM_INFO @ 255: uvm_test_top.ENV.AGT.DRV [DRV sent item] push=0 pull=1 din=0x64 dout=0x0 empty=0 full=0
UVM_INFO @ 255: uvm_test_top.ENV.SCB [SCB_FIFO_PORT] push=0 pull=1 din=0x3d dout=0x0 empty=1 full=0
                 255 S COUNT=0
Current FIFO state:
mem[0] = 0x00
mem[1] = 0x00
mem[2] = 0x00
mem[3] = 0x00
mem[4] = 0x00
mem[5] = 0x00
mem[6] = 0x00
mem[7] = 0xxx
                 265 D COUNT=0
FIFO: w_ptr=7 next_w=0, push=0 din=64, full=0
FIFO: r_ptr=7 next_r=0, pull=1 dout=xx, empty=1
UVM_INFO @ 265: uvm_test_top.ENV.AGT.DRV [DRV sent item] push=0 pull=1 din=0x22 dout=0x0 empty=0 full=0
UVM_INFO @ 265: uvm_test_top.ENV.SCB [SCB_FIFO_PORT] push=0 pull=1 din=0x64 dout=0x0 empty=1 full=0
                 265 S COUNT=0
Current FIFO state:
mem[0] = 0x00
mem[1] = 0x00
mem[2] = 0x00
mem[3] = 0x00
mem[4] = 0x00
mem[5] = 0x00
mem[6] = 0x00
mem[7] = 0xxx
                 275 D COUNT=0
FIFO: w_ptr=7 next_w=0, push=0 din=22, full=0
FIFO: r_ptr=7 next_r=0, pull=1 dout=xx, empty=1
UVM_INFO @ 275: uvm_test_top.ENV.AGT.DRV [DRV sent item] push=0 pull=1 din=0x10 dout=0x0 empty=0 full=0
UVM_INFO @ 275: uvm_test_top.ENV.SCB [SCB_FIFO_PORT] push=0 pull=1 din=0x22 dout=0x0 empty=1 full=0
                 275 S COUNT=0
Current FIFO state:
mem[0] = 0x00
mem[1] = 0x00
mem[2] = 0x00
mem[3] = 0x00
mem[4] = 0x00
mem[5] = 0x00
mem[6] = 0x00
mem[7] = 0xxx
                 285 D COUNT=0
FIFO: w_ptr=7 next_w=0, push=0 din=10, full=0
FIFO: r_ptr=7 next_r=0, pull=1 dout=xx, empty=1
UVM_INFO @ 285: uvm_test_top.ENV.AGT.DRV [DRV sent item] push=0 pull=1 din=0x2 dout=0x0 empty=0 full=0
UVM_INFO @ 285: uvm_test_top.ENV.SCB [SCB_FIFO_PORT] push=0 pull=1 din=0x10 dout=0x0 empty=1 full=0
                 285 S COUNT=0
Current FIFO state:
mem[0] = 0x00
mem[1] = 0x00
mem[2] = 0x00
mem[3] = 0x00
mem[4] = 0x00
mem[5] = 0x00
mem[6] = 0x00
mem[7] = 0xxx
                 295 D COUNT=0
FIFO: w_ptr=7 next_w=0, push=0 din=2, full=0
FIFO: r_ptr=7 next_r=0, pull=1 dout=xx, empty=1
UVM_INFO @ 295: uvm_test_top.ENV.AGT.DRV [DRV sent item] push=0 pull=1 din=0x88 dout=0x0 empty=0 full=0
UVM_INFO @ 295: uvm_test_top.ENV.SCB [SCB_FIFO_PORT] push=0 pull=1 din=0x2 dout=0x0 empty=1 full=0
                 295 S COUNT=0
Current FIFO state:
mem[0] = 0x00
mem[1] = 0x00
mem[2] = 0x00
mem[3] = 0x00
mem[4] = 0x00
mem[5] = 0x00
mem[6] = 0x00
mem[7] = 0xxx
                 305 D COUNT=0
FIFO: w_ptr=7 next_w=0, push=0 din=88, full=0
FIFO: r_ptr=7 next_r=0, pull=1 dout=xx, empty=1
UVM_INFO @ 305: uvm_test_top.ENV.AGT.DRV [DRV sent item] push=0 pull=1 din=0xf0 dout=0x0 empty=0 full=0
UVM_INFO @ 305: uvm_test_top.ENV.SCB [SCB_FIFO_PORT] push=0 pull=1 din=0x88 dout=0x0 empty=1 full=0
                 305 S COUNT=0
Current FIFO state:
mem[0] = 0x00
mem[1] = 0x00
mem[2] = 0x00
mem[3] = 0x00
mem[4] = 0x00
mem[5] = 0x00
mem[6] = 0x00
mem[7] = 0xxx
                 315 D COUNT=0
FIFO: w_ptr=7 next_w=0, push=0 din=f0, full=0
FIFO: r_ptr=7 next_r=0, pull=1 dout=xx, empty=1
UVM_INFO @ 315: uvm_test_top.ENV.AGT.DRV [DRV sent item] push=0 pull=1 din=0x1a dout=0x0 empty=0 full=0
UVM_INFO @ 315: uvm_test_top.ENV.SCB [SCB_FIFO_PORT] push=0 pull=1 din=0xf0 dout=0x0 empty=1 full=0
                 315 S COUNT=0
Current FIFO state:
mem[0] = 0x00
mem[1] = 0x00
mem[2] = 0x00
mem[3] = 0x00
mem[4] = 0x00
mem[5] = 0x00
mem[6] = 0x00
mem[7] = 0xxx
                 325 D COUNT=0
FIFO: w_ptr=7 next_w=0, push=0 din=1a, full=0
FIFO: r_ptr=7 next_r=0, pull=1 dout=xx, empty=1
UVM_INFO @ 325: uvm_test_top.ENV.AGT.DRV [DRV sent item] push=0 pull=1 din=0x26 dout=0x0 empty=0 full=0
UVM_INFO @ 325: uvm_test_top.ENV.SCB [SCB_FIFO_PORT] push=0 pull=1 din=0x1a dout=0x0 empty=1 full=0
UVM_INFO @ 325: uvm_test_top.ENV.AGT.SQR@@SEQ.sequence_push_pull_00:1 [sequence_push_pull_00:1] --- STARTING TRANSACTIONS: push 0x00 (16 total) ---
                 325 S COUNT=0
Current FIFO state:
mem[0] = 0x00
mem[1] = 0x00
mem[2] = 0x00
mem[3] = 0x00
mem[4] = 0x00
mem[5] = 0x00
mem[6] = 0x00
mem[7] = 0xxx
                 335 D COUNT=0
FIFO: w_ptr=7 next_w=0, push=0 din=26, full=0
FIFO: r_ptr=7 next_r=0, pull=1 dout=xx, empty=1
UVM_INFO @ 335: uvm_test_top.ENV.AGT.DRV [DRV sent item] push=1 pull=0 din=0x0 dout=0x0 empty=0 full=0
UVM_INFO @ 335: uvm_test_top.ENV.SCB [SCB_FIFO_PORT] push=0 pull=1 din=0x26 dout=0x0 empty=1 full=0
                 335 S COUNT=0
Current FIFO state:
mem[0] = 0x00
mem[1] = 0x00
mem[2] = 0x00
mem[3] = 0x00
mem[4] = 0x00
mem[5] = 0x00
mem[6] = 0x00
mem[7] = 0xxx
                 345 D COUNT=0
FIFO: w_ptr=7 next_w=0, push=1 din=0, full=0
FIFO: r_ptr=7 next_r=0, pull=0 dout=xx, empty=1
UVM_INFO @ 345: uvm_test_top.ENV.AGT.DRV [DRV sent item] push=1 pull=0 din=0x0 dout=0x0 empty=0 full=0
UVM_INFO @ 345: uvm_test_top.ENV.SCB [SCB_FIFO_PORT] push=1 pull=0 din=0x0 dout=0x0 empty=1 full=0
                 345 S COUNT=1
Current FIFO state:
mem[0] = 0x00
mem[1] = 0x00
mem[2] = 0x00
mem[3] = 0x00
mem[4] = 0x00
mem[5] = 0x00
mem[6] = 0x00
mem[7] = 0x00
                 355 D COUNT=1
FIFO: w_ptr=0 next_w=1, push=1 din=0, full=0
FIFO: r_ptr=7 next_r=0, pull=0 dout=0, empty=0
UVM_INFO @ 355: uvm_test_top.ENV.AGT.DRV [DRV sent item] push=1 pull=0 din=0x0 dout=0x0 empty=0 full=0
UVM_INFO @ 355: uvm_test_top.ENV.SCB [SCB_FIFO_PORT] push=1 pull=0 din=0x0 dout=0x0 empty=0 full=0
                 355 S COUNT=2
Current FIFO state:
mem[0] = 0x00
mem[1] = 0x00
mem[2] = 0x00
mem[3] = 0x00
mem[4] = 0x00
mem[5] = 0x00
mem[6] = 0x00
mem[7] = 0x00
                 365 D COUNT=2
FIFO: w_ptr=1 next_w=2, push=1 din=0, full=0
FIFO: r_ptr=7 next_r=0, pull=0 dout=0, empty=0
UVM_INFO @ 365: uvm_test_top.ENV.AGT.DRV [DRV sent item] push=1 pull=0 din=0x0 dout=0x0 empty=0 full=0
UVM_INFO @ 365: uvm_test_top.ENV.SCB [SCB_FIFO_PORT] push=1 pull=0 din=0x0 dout=0x0 empty=0 full=0
                 365 S COUNT=3
Current FIFO state:
mem[0] = 0x00
mem[1] = 0x00
mem[2] = 0x00
mem[3] = 0x00
mem[4] = 0x00
mem[5] = 0x00
mem[6] = 0x00
mem[7] = 0x00
                 375 D COUNT=3
FIFO: w_ptr=2 next_w=3, push=1 din=0, full=0
FIFO: r_ptr=7 next_r=0, pull=0 dout=0, empty=0
UVM_INFO @ 375: uvm_test_top.ENV.AGT.DRV [DRV sent item] push=1 pull=0 din=0x0 dout=0x0 empty=0 full=0
UVM_INFO @ 375: uvm_test_top.ENV.SCB [SCB_FIFO_PORT] push=1 pull=0 din=0x0 dout=0x0 empty=0 full=0
                 375 S COUNT=4
Current FIFO state:
mem[0] = 0x00
mem[1] = 0x00
mem[2] = 0x00
mem[3] = 0x00
mem[4] = 0x00
mem[5] = 0x00
mem[6] = 0x00
mem[7] = 0x00
                 385 D COUNT=4
FIFO: w_ptr=3 next_w=4, push=1 din=0, full=0
FIFO: r_ptr=7 next_r=0, pull=0 dout=0, empty=0
