modules/vcd/counter_jkff_tb.vcd
$date
	Sun Dec 28 17:25:25 2025
$end
$version
	Icarus Verilog
$end
$timescale
	1ns
$end
$scope module counter_tb $end
$var wire 4 ! count [3:0] $end
$var parameter 32 " TYPE $end
$var parameter 32 # T_CLK $end
$var parameter 64 $ T_CYC $end
$var parameter 32 % n $end
$var reg 1 & clk $end
$var reg 1 ' count_up $end
$var reg 1 ( enable $end
$var reg 1 ) load $end
$var reg 1 * res_n $end
$var reg 4 + set [3:0] $end
$var integer 32 , expected [31:0] $end
$var integer 32 - i [31:0] $end
$scope begin genblk1 $end
$scope module dut $end
$var wire 1 . J $end
$var wire 1 / K $end
$var wire 1 & clk $end
$var wire 1 ' count_up $end
$var wire 1 ( en $end
$var wire 1 * res_n $end
$var wire 4 0 k [3:0] $end
$var wire 4 1 j [3:0] $end
$var wire 4 2 d [3:0] $end
$var wire 4 3 count [3:0] $end
$var parameter 32 4 n $end
$scope begin genblk1[0] $end
$var parameter 2 5 i $end
$scope begin genblk1 $end
$upscope $end
$scope module ff $end
$var wire 1 6 J $end
$var wire 1 7 K $end
$var wire 1 & clk $end
$var reg 1 8 Q $end
$upscope $end
$upscope $end
$scope begin genblk1[1] $end
$var parameter 2 9 i $end
$scope begin genblk1 $end
$upscope $end
$scope module ff $end
$var wire 1 : J $end
$var wire 1 ; K $end
$var wire 1 & clk $end
$var reg 1 < Q $end
$upscope $end
$upscope $end
$scope begin genblk1[2] $end
$var parameter 3 = i $end
$scope begin genblk1 $end
$upscope $end
$scope module ff $end
$var wire 1 > J $end
$var wire 1 ? K $end
$var wire 1 & clk $end
$var reg 1 @ Q $end
$upscope $end
$upscope $end
$scope begin genblk1[3] $end
$var parameter 3 A i $end
$scope begin genblk1 $end
$upscope $end
$scope module ff $end
$var wire 1 B J $end
$var wire 1 C K $end
$var wire 1 & clk $end
$var reg 1 D Q $end
$upscope $end
$upscope $end
$upscope $end
$upscope $end
$upscope $end
$enddefinitions $end
$comment Show the parameter values. $end
$dumpall
b11 A
b10 =
b1 9
b0 5
b100 4
b100 %
b10100 $
b1010 #
b1101010011010110110011001100110 "
$end
#0
$dumpvars
xD
0C
0B
x@
0?
0>
x<
0;
0:
x8
07
06
bx 3
b0 2
b0 1
b0 0
0/
0.
bx -
bx ,
bx +
1*
x)
0(
1'
0&
bx !
$end
#10
1&
#20
1C
1?
1;
17
b1111 0
1/
0&
b0 ,
0)
0*
#30
b0 !
b0 3
0D
0@
0<
08
1&
#40
0C
0?
0;
b1 0
0B
0>
0:
16
b1 1
b1 2
1.
0&
b1 ,
b0 -
1(
1*
#50
1&
#54
1;
1:
b11 0
b11 1
b11 2
b1 !
b1 3
18
#60
0&
b10 ,
b1 -
#70
1&
#74
0?
0;
0>
0:
b1 0
b1 1
b1 2
b10 !
b10 3
1<
08
#80
0&
b11 ,
b10 -
#90
1&
#94
1?
1>
1;
1:
b111 0
b111 1
b111 2
b11 !
b11 3
18
#100
0&
b100 ,
b11 -
#110
1&
#114
0C
0?
0;
0B
0>
0:
b1 0
b1 1
b1 2
b100 !
b100 3
1@
0<
08
#120
0&
b101 ,
b100 -
#130
1&
#134
1;
1:
b11 0
b11 1
b11 2
b101 !
b101 3
18
#140
0&
b110 ,
b101 -
#150
1&
#154
0C
0B
0?
0;
0>
0:
b1 0
b1 1
b1 2
b110 !
b110 3
1<
08
#160
0&
b111 ,
b110 -
#170
1&
#174
1C
1B
1?
1>
1;
1:
b1111 0
b1111 1
b1111 2
b111 !
b111 3
18
#180
0&
b1000 ,
b111 -
#190
1&
#194
0C
0?
0;
0B
0>
0:
b1 0
b1 1
b1 2
b1000 !
b1000 3
1D
0@
0<
08
#200
0&
b1001 ,
b1000 -
#210
1&
#214
1;
1:
b11 0
b11 1
b11 2
b1001 !
b1001 3
18
#220
0&
b1010 ,
b1001 -
#230
1&
#234
0?
0;
0>
0:
b1 0
b1 1
b1 2
b1010 !
b1010 3
1<
08
#240
0&
b1011 ,
b1010 -
#250
1&
#254
1?
1>
1;
1:
b111 0
b111 1
b111 2
b1011 !
b1011 3
18
#260
0&
b1100 ,
b1011 -
#270
1&
#274
0C
0?
0;
0B
0>
0:
b1 0
b1 1
b1 2
b1100 !
b1100 3
1@
0<
08
#280
0&
b1101 ,
b1100 -
#290
1&
#294
1;
1:
b11 0
b11 1
b11 2
b1101 !
b1101 3
18
#300
0&
b1110 ,
b1101 -
#310
1&
#314
0C
0B
0?
0;
0>
0:
b1 0
b1 1
b1 2
b1110 !
b1110 3
1<
08
#320
0&
b1111 ,
b1110 -
#330
1&
#334
1C
1B
1?
1>
1;
1:
b1111 0
b1111 1
b1111 2
b1111 !
b1111 3
18
#340
0&
b0 ,
b1111 -
#350
1&
#354
0C
0?
0;
0B
0>
0:
b1 0
b1 1
b1 2
b0 !
b0 3
0D
0@
0<
08
#360
0&
b1 ,
b10000 -
#370
1&
#374
1;
1:
b11 0
b11 1
b11 2
b1 !
b1 3
18
#380
0&
b10 ,
b10001 -
#390
1&
#394
0?
0;
0>
0:
b1 0
b1 1
b1 2
b10 !
b10 3
1<
08
#400
0&
b11 ,
b10010 -
#410
1&
#414
1?
1>
1;
1:
b111 0
b111 1
b111 2
b11 !
b11 3
18
#420
0&
b100 ,
b10011 -
#430
1&
#434
0C
0?
0;
0B
0>
0:
b1 0
b1 1
b1 2
b100 !
b100 3
1@
0<
08
#440
0&
b101 ,
b10100 -
#450
1&
#454
1;
1:
b11 0
b11 1
b11 2
b101 !
b101 3
18
#460
0&
b110 ,
b10101 -
#470
1&
#474
0C
0B
0?
0;
0>
0:
b1 0
b1 1
b1 2
b110 !
b110 3
1<
08
#480
0&
b111 ,
b10110 -
#490
1&
#494
1C
1B
1?
1>
1;
1:
b1111 0
b1111 1
b1111 2
b111 !
b111 3
18
#500
0&
b1000 ,
b10111 -
#510
1&
#514
0C
0?
0;
0B
0>
0:
b1 0
b1 1
b1 2
b1000 !
b1000 3
1D
0@
0<
08
#520
0&
b1001 ,
b11000 -
#530
1&
#534
1;
1:
b11 0
b11 1
b11 2
b1001 !
b1001 3
18
#540
0&
b1010 ,
b11001 -
#550
1&
#554
0?
0;
0>
0:
b1 0
b1 1
b1 2
b1010 !
b1010 3
1<
08
#560
0&
b1011 ,
b11010 -
#570
1&
#574
1?
1>
1;
1:
b111 0
b111 1
b111 2
b1011 !
b1011 3
18
#580
0&
b1100 ,
b11011 -
#590
1&
#594
0C
0?
0;
0B
0>
0:
b1 0
b1 1
b1 2
b1100 !
b1100 3
1@
0<
08
#600
0&
b1101 ,
b11100 -
#610
1&
#614
1;
1:
b11 0
b11 1
b11 2
b1101 !
b1101 3
18
#620
0&
b1110 ,
b11101 -
#630
1&
#634
0C
0B
0?
0;
0>
0:
b1 0
b1 1
b1 2
b1110 !
b1110 3
1<
08
#640
07
06
b0 0
b0 1
0.
0/
b0 2
0&
0'
0(
b11110 -
#650
1&
#660
1;
1:
17
16
b11 0
b11 1
1.
1/
b11 2
0&
b1101 ,
b0 -
1(
#670
1&
#674
0?
0;
0>
0:
b1 0
b1 1
b1 2
b1101 !
b1101 3
0<
18
#680
0&
b1100 ,
b1 -
#690
1&
#694
1?
1>
1;
1:
b111 0
b111 1
b111 2
b1100 !
b1100 3
08
#700
0&
b1011 ,
b10 -
#710
1&
#714
0C
0?
0;
0B
0>
0:
b1 0
b1 1
b1 2
b1011 !
b1011 3
0@
1<
18
#720
0&
b1010 ,
b11 -
#730
1&
#734
1;
1:
b11 0
b11 1
b11 2
b1010 !
b1010 3
08
#740
0&
b1001 ,
b100 -
#750
1&
#754
0C
0B
0?
0;
0>
0:
b1 0
b1 1
b1 2
b1001 !
b1001 3
0<
18
#760
0&
b1000 ,
b101 -
#770
1&
#774
1C
1B
1?
1>
1;
1:
b1111 0
b1111 1
b1111 2
b1000 !
b1000 3
08
#780
0&
b111 ,
b110 -
#790
1&
#794
0C
0?
0;
0B
0>
0:
b1 0
b1 1
b1 2
b111 !
b111 3
0D
1@
1<
18
#800
0&
b110 ,
b111 -
#810
1&
#814
1;
1:
b11 0
b11 1
b11 2
b110 !
b110 3
08
#820
0&
b101 ,
b1000 -
#830
1&
#834
0?
0;
0>
0:
b1 0
b1 1
b1 2
b101 !
b101 3
0<
18
#840
0&
b100 ,
b1001 -
#850
1&
#854
1?
1>
1;
1:
b111 0
b111 1
b111 2
b100 !
b100 3
08
#860
0&
b11 ,
b1010 -
#870
1&
#874
0C
0?
0;
0B
0>
0:
b1 0
b1 1
b1 2
b11 !
b11 3
0@
1<
18
#880
0&
b10 ,
b1011 -
#890
1&
#894
1;
1:
b11 0
b11 1
b11 2
b10 !
b10 3
08
#900
0&
b1 ,
b1100 -
#910
1&
#914
0C
0B
0?
0;
0>
0:
b1 0
b1 1
b1 2
b1 !
b1 3
0<
18
#920
0&
b0 ,
b1101 -
#930
1&
#934
1C
1B
1?
1>
1;
1:
b1111 0
b1111 1
b1111 2
b0 !
b0 3
08
#940
0&
b1111 ,
b1110 -
#950
1&
#954
0C
0?
0;
0B
0>
0:
b1 0
b1 1
b1 2
b1111 !
b1111 3
1D
1@
1<
18
#960
0&
b1110 ,
b1111 -
#970
1&
#974
1;
1:
b11 0
b11 1
b11 2
b1110 !
b1110 3
08
#980
0&
b1101 ,
b10000 -
#990
1&
#994
0?
0;
0>
0:
b1 0
b1 1
b1 2
b1101 !
b1101 3
0<
18
#1000
0&
b1100 ,
b10001 -
#1010
1&
#1014
1?
1>
1;
1:
b111 0
b111 1
b111 2
b1100 !
b1100 3
08
#1020
0&
b1011 ,
b10010 -
#1030
1&
#1034
0C
0?
0;
0B
0>
0:
b1 0
b1 1
b1 2
b1011 !
b1011 3
0@
1<
18
#1040
0&
b1010 ,
b10011 -
#1050
1&
#1054
1;
1:
b11 0
b11 1
b11 2
b1010 !
b1010 3
08
#1060
0&
b1001 ,
b10100 -
#1070
1&
#1074
0C
0B
0?
0;
0>
0:
b1 0
b1 1
b1 2
b1001 !
b1001 3
0<
18
#1080
0&
b1000 ,
b10101 -
#1090
1&
#1094
1C
1B
1?
1>
1;
1:
b1111 0
b1111 1
b1111 2
b1000 !
b1000 3
08
#1100
0&
b111 ,
b10110 -
#1110
1&
#1114
0C
0?
0;
0B
0>
0:
b1 0
b1 1
b1 2
b111 !
b111 3
0D
1@
1<
18
#1120
0&
b110 ,
b10111 -
#1130
1&
#1134
1;
1:
b11 0
b11 1
b11 2
b110 !
b110 3
08
#1140
0&
b101 ,
b11000 -
#1150
1&
#1154
0?
0;
0>
0:
b1 0
b1 1
b1 2
b101 !
b101 3
0<
18
#1160
0&
b100 ,
b11001 -
#1170
1&
#1174
1?
1>
1;
1:
b111 0
b111 1
b111 2
b100 !
b100 3
08
#1180
0&
b11 ,
b11010 -
#1190
1&
#1194
0C
0?
0;
0B
0>
0:
b1 0
b1 1
b1 2
b11 !
b11 3
0@
1<
18
#1200
0&
b10 ,
b11011 -
#1210
1&
#1214
1;
1:
b11 0
b11 1
b11 2
b10 !
b10 3
08
#1220
0&
b1 ,
b11100 -
#1230
1&
#1234
0C
0B
0?
0;
0>
0:
b1 0
b1 1
b1 2
b1 !
b1 3
0<
18
#1240
0&
b0 ,
b11101 -
#1250
1&
#1254
1C
1B
1?
1>
1;
1:
b1111 0
b1111 1
b1111 2
b0 !
b0 3
08
#1260
0&
b1111 ,
b11110 -
#1270
1&
#1274
0C
0?
0;
0B
0>
0:
b1 0
b1 1
b1 2
b1111 !
b1111 3
1D
1@
1<
18
#1280
0&
b1110 ,
b11111 -
#1290
1&
#1294
1;
1:
b11 0
b11 1
b11 2
b1110 !
b1110 3
08
#1300
0;
0:
07
06
b0 0
b0 1
0.
0/
b0 2
0&
0(
b0 -
#1310
1&
#1320
0&
b1 -
#1330
1&
#1340
0&
b10 -
#1350
1&
#1360
0&
b11 -
#1370
1&
#1380
0&
b100 -
#1390
1&
#1400
0&
b101 -
#1410
1&
#1420
0&
b110 -
#1430
1&
#1440
0&
b111 -
#1450
1&
#1460
0&
b1000 -
#1470
1&
#1480
0&
b1001 -
#1490
1&
#1500
0&
b1010 -
#1510
1&
#1520
0&
b1011 -
#1530
1&
#1540
0&
b1100 -
#1550
1&
#1560
0&
b1101 -
#1570
1&
#1580
0&
b1110 -
#1590
1&
#1600
0&
b1111 -
#1610
1&
#1620
0&
0(
b10000 -
