modules/vcd/counter_tff_async_tb.vcd
$date
	Sun Dec 28 17:43:48 2025
$end
$version
	Icarus Verilog
$end
$timescale
	1ns
$end
$scope module counter_tb $end
$var wire 4 ! count [3:0] $end
$var parameter 72 " TYPE $end
$var parameter 65 # T_CLK $end
$var parameter 97 $ T_CYC $end
$var parameter 32 % n $end
$var parameter 256 & vcd $end
$var reg 1 ' clk $end
$var reg 1 ( count_up $end
$var reg 1 ) enable $end
$var reg 1 * load $end
$var reg 1 + res_n $end
$var reg 4 , set [3:0] $end
$var integer 32 - expected [31:0] $end
$var integer 32 . i [31:0] $end
$scope begin genblk1 $end
$scope module dut $end
$var wire 1 ' clk $end
$var wire 1 ) en $end
$var wire 1 + res_n $end
$var wire 4 / ff_clk [3:0] $end
$var wire 4 0 count [3:0] $end
$var parameter 32 1 count_up $end
$var parameter 32 2 n $end
$scope begin genblk1[1] $end
$var parameter 2 3 i $end
$scope module ff_i $end
$var wire 1 ) T $end
$var wire 1 4 clk $end
$var wire 1 + res_n $end
$var reg 1 5 Q $end
$upscope $end
$upscope $end
$scope begin genblk1[2] $end
$var parameter 3 6 i $end
$scope module ff_i $end
$var wire 1 ) T $end
$var wire 1 7 clk $end
$var wire 1 + res_n $end
$var reg 1 8 Q $end
$upscope $end
$upscope $end
$scope begin genblk1[3] $end
$var parameter 3 9 i $end
$scope module ff_i $end
$var wire 1 ) T $end
$var wire 1 : clk $end
$var wire 1 + res_n $end
$var reg 1 ; Q $end
$upscope $end
$upscope $end
$scope module ff_0 $end
$var wire 1 ) T $end
$var wire 1 < clk $end
$var wire 1 + res_n $end
$var reg 1 = Q $end
$upscope $end
$upscope $end
$upscope $end
$upscope $end
$enddefinitions $end
$comment Show the parameter values. $end
$dumpall
b11 9
b10 6
b1 3
b100 2
b1 1
b111001001100101011100110111010101101100011101000111001100101111011000110110111101110101011011100111010001100101011100100101111101110100011001100110011001011111011000010111001101111001011011100110001101011111011101000110001000101110011101100110001101100100 &
b100 %
b10010 $
b1001 #
b11101000110011001100110010111110110000101110011011110010110111001100011 "
$end
#0
$dumpvars
x=
0<
x;
x:
x8
x7
x5
x4
bx 0
bx0 /
bx .
bx -
bx ,
1+
x*
0)
1(
0'
bx !
$end
#9
1<
bx1 /
1'
#18
1:
17
14
b0 !
b0 0
0=
05
08
0;
0<
b1110 /
0'
b0 -
0*
0+
#27
1<
b1111 /
1'
#36
0<
b1110 /
0'
b1 -
b0 .
1)
1+
#45
1<
b1111 /
1'
#47
04
b1101 /
b1 !
b1 0
1=
#54
0<
b1100 /
0'
b10 -
b1 .
#63
1<
b1101 /
1'
#65
14
b1111 /
b0 !
b0 0
0=
#67
07
b1011 /
b10 !
b10 0
15
#72
0<
b1010 /
0'
b11 -
b10 .
#81
1<
b1011 /
1'
#83
04
b1001 /
b11 !
b11 0
1=
#90
0<
b1000 /
0'
b100 -
b11 .
#99
1<
b1001 /
1'
#101
14
b1011 /
b10 !
b10 0
0=
#103
17
b1111 /
b0 !
b0 0
05
#105
0:
b111 /
b100 !
b100 0
18
#108
0<
b110 /
0'
b101 -
b100 .
#117
1<
b111 /
1'
#119
04
b101 /
b101 !
b101 0
1=
#126
0<
b100 /
0'
b110 -
b101 .
#135
1<
b101 /
1'
#137
14
b111 /
b100 !
b100 0
0=
#139
07
b11 /
b110 !
b110 0
15
#144
0<
b10 /
0'
b111 -
b110 .
#153
1<
b11 /
1'
#155
04
b1 /
b111 !
b111 0
1=
#162
0<
b0 /
0'
b1000 -
b111 .
#171
1<
b1 /
1'
#173
14
b11 /
b110 !
b110 0
0=
#175
17
b111 /
b100 !
b100 0
05
#177
1:
b1111 /
b0 !
b0 0
08
#179
b1000 !
b1000 0
1;
#180
0<
b1110 /
0'
b1001 -
b1000 .
#189
1<
b1111 /
1'
#191
04
b1101 /
b1001 !
b1001 0
1=
#198
0<
b1100 /
0'
b1010 -
b1001 .
#207
1<
b1101 /
1'
#209
14
b1111 /
b1000 !
b1000 0
0=
#211
07
b1011 /
b1010 !
b1010 0
15
#216
0<
b1010 /
0'
b1011 -
b1010 .
#225
1<
b1011 /
1'
#227
04
b1001 /
b1011 !
b1011 0
1=
#234
0<
b1000 /
0'
b1100 -
b1011 .
#243
1<
b1001 /
1'
#245
14
b1011 /
b1010 !
b1010 0
0=
#247
17
b1111 /
b1000 !
b1000 0
05
#249
0:
b111 /
b1100 !
b1100 0
18
#252
0<
b110 /
0'
b1101 -
b1100 .
#261
1<
b111 /
1'
#263
04
b101 /
b1101 !
b1101 0
1=
#270
0<
b100 /
0'
b1110 -
b1101 .
#279
1<
b101 /
1'
#281
14
b111 /
b1100 !
b1100 0
0=
#283
07
b11 /
b1110 !
b1110 0
15
#288
0<
b10 /
0'
b1111 -
b1110 .
#297
1<
b11 /
1'
#299
04
b1 /
b1111 !
b1111 0
1=
#306
0<
b0 /
0'
b0 -
b1111 .
#315
1<
b1 /
1'
#317
14
b11 /
b1110 !
b1110 0
0=
#319
17
b111 /
b1100 !
b1100 0
05
#321
1:
b1111 /
b1000 !
b1000 0
08
#323
b0 !
b0 0
0;
#324
0<
b1110 /
0'
b1 -
b10000 .
#333
1<
b1111 /
1'
#335
04
b1101 /
b1 !
b1 0
1=
#342
0<
b1100 /
0'
b10 -
b10001 .
#351
1<
b1101 /
1'
#353
14
b1111 /
b0 !
b0 0
0=
#355
07
b1011 /
b10 !
b10 0
15
#360
0<
b1010 /
0'
b11 -
b10010 .
#369
1<
b1011 /
1'
#371
04
b1001 /
b11 !
b11 0
1=
#378
0<
b1000 /
0'
b100 -
b10011 .
#387
1<
b1001 /
1'
#389
14
b1011 /
b10 !
b10 0
0=
#391
17
b1111 /
b0 !
b0 0
05
#393
0:
b111 /
b100 !
b100 0
18
#396
0<
b110 /
0'
b101 -
b10100 .
#405
1<
b111 /
1'
#407
04
b101 /
b101 !
b101 0
1=
#414
0<
b100 /
0'
b110 -
b10101 .
#423
1<
b101 /
1'
#425
14
b111 /
b100 !
b100 0
0=
#427
07
b11 /
b110 !
b110 0
15
#432
0<
b10 /
0'
b111 -
b10110 .
#441
1<
b11 /
1'
#443
04
b1 /
b111 !
b111 0
1=
#450
0<
b0 /
0'
b1000 -
b10111 .
#459
1<
b1 /
1'
#461
14
b11 /
b110 !
b110 0
0=
#463
17
b111 /
b100 !
b100 0
05
#465
1:
b1111 /
b0 !
b0 0
08
#467
b1000 !
b1000 0
1;
#468
0<
b1110 /
0'
b1001 -
b11000 .
#477
1<
b1111 /
1'
#479
04
b1101 /
b1001 !
b1001 0
1=
#486
0<
b1100 /
0'
b1010 -
b11001 .
#495
1<
b1101 /
1'
#497
14
b1111 /
b1000 !
b1000 0
0=
#499
07
b1011 /
b1010 !
b1010 0
15
#504
0<
b1010 /
0'
b1011 -
b11010 .
#513
1<
b1011 /
1'
#515
04
b1001 /
b1011 !
b1011 0
1=
#522
0<
b1000 /
0'
b1100 -
b11011 .
#531
1<
b1001 /
1'
#533
14
b1011 /
b1010 !
b1010 0
0=
#535
17
b1111 /
b1000 !
b1000 0
05
#537
0:
b111 /
b1100 !
b1100 0
18
#540
0<
b110 /
0'
b1101 -
b11100 .
#549
1<
b111 /
1'
#551
04
b101 /
b1101 !
b1101 0
1=
#558
0<
b100 /
0'
b1110 -
b11101 .
#567
1<
b101 /
1'
#569
14
b111 /
b1100 !
b1100 0
0=
#571
07
b11 /
b1110 !
b1110 0
15
#576
0<
b10 /
0'
0)
b0 .
#585
1<
b11 /
1'
#594
0<
b10 /
0'
b1 .
#603
1<
b11 /
1'
#612
0<
b10 /
0'
b10 .
#621
1<
b11 /
1'
#630
0<
b10 /
0'
b11 .
#639
1<
b11 /
1'
#648
0<
b10 /
0'
b100 .
#657
1<
b11 /
1'
#666
0<
b10 /
0'
b101 .
#675
1<
b11 /
1'
#684
0<
b10 /
0'
b110 .
#693
1<
b11 /
1'
#702
0<
b10 /
0'
b111 .
#711
1<
b11 /
1'
#720
0<
b10 /
0'
b1000 .
#729
1<
b11 /
1'
#738
0<
b10 /
0'
b1001 .
#747
1<
b11 /
1'
#756
0<
b10 /
0'
b1010 .
#765
1<
b11 /
1'
#774
0<
b10 /
0'
b1011 .
#783
1<
b11 /
1'
#792
0<
b10 /
0'
b1100 .
#801
1<
b11 /
1'
#810
0<
b10 /
0'
b1101 .
#819
1<
b11 /
1'
#828
0<
b10 /
0'
b1110 .
#837
1<
b11 /
1'
#846
0<
b10 /
0'
b1111 .
#855
1<
b11 /
1'
#864
0<
b10 /
0'
0)
b10000 .
#873
1<
b11 /
1'
#882
0<
b10 /
0'
