modules/vcd/counter_tff_sync_tb.vcd
$date
	Sun Dec 28 17:27:28 2025
$end
$version
	Icarus Verilog
$end
$timescale
	1ns
$end
$scope module counter_tb $end
$var wire 4 ! count [3:0] $end
$var parameter 64 " TYPE $end
$var parameter 32 # T_CLK $end
$var parameter 64 $ T_CYC $end
$var parameter 32 % n $end
$var reg 1 & clk $end
$var reg 1 ' count_up $end
$var reg 1 ( enable $end
$var reg 1 ) load $end
$var reg 1 * res_n $end
$var reg 4 + set [3:0] $end
$var integer 32 , expected [31:0] $end
$var integer 32 - i [31:0] $end
$scope begin genblk1 $end
$scope module dut $end
$var wire 1 & clk $end
$var wire 1 ' count_up $end
$var wire 1 ( en $end
$var wire 1 * res_n $end
$var wire 4 . en_and [3:0] $end
$var wire 4 / count [3:0] $end
$var parameter 32 0 n $end
$scope begin genblk1[1] $end
$var parameter 2 1 i $end
$scope module ff_i $end
$var wire 1 2 T $end
$var wire 1 & clk $end
$var wire 1 * res_n $end
$var reg 1 3 Q $end
$upscope $end
$upscope $end
$scope begin genblk1[2] $end
$var parameter 3 4 i $end
$scope module ff_i $end
$var wire 1 5 T $end
$var wire 1 & clk $end
$var wire 1 * res_n $end
$var reg 1 6 Q $end
$upscope $end
$upscope $end
$scope begin genblk1[3] $end
$var parameter 3 7 i $end
$scope module ff_i $end
$var wire 1 8 T $end
$var wire 1 & clk $end
$var wire 1 * res_n $end
$var reg 1 9 Q $end
$upscope $end
$upscope $end
$scope module ff_0 $end
$var wire 1 ( T $end
$var wire 1 & clk $end
$var wire 1 * res_n $end
$var reg 1 : Q $end
$upscope $end
$upscope $end
$upscope $end
$upscope $end
$enddefinitions $end
$comment Show the parameter values. $end
$dumpall
b11 7
b10 4
b1 1
b100 0
b100 %
b10100 $
b1010 #
b111010001100110011001100101111101110011011110010110111001100011 "
$end
#0
$dumpvars
x:
x9
08
x6
05
x3
02
bx /
b0 .
bx -
bx ,
bx +
1*
x)
0(
1'
0&
bx !
$end
#10
1&
#20
b0 !
b0 /
0:
09
06
03
0&
b0 ,
0)
0*
#30
1&
#40
b1 .
0&
b1 ,
b0 -
1(
1*
#50
1&
#54
12
b11 .
b1 !
b1 /
1:
#60
0&
b10 ,
b1 -
#70
1&
#74
05
02
b1 .
b10 !
b10 /
13
0:
#80
0&
b11 ,
b10 -
#90
1&
#94
15
12
b111 .
b11 !
b11 /
1:
#100
0&
b100 ,
b11 -
#110
1&
#114
08
05
02
b1 .
b100 !
b100 /
03
16
0:
#120
0&
b101 ,
b100 -
#130
1&
#134
12
b11 .
b101 !
b101 /
1:
#140
0&
b110 ,
b101 -
#150
1&
#154
08
05
02
b1 .
b110 !
b110 /
13
0:
#160
0&
b111 ,
b110 -
#170
1&
#174
18
15
12
b1111 .
b111 !
b111 /
1:
#180
0&
b1000 ,
b111 -
#190
1&
#194
08
05
02
b1 .
b1000 !
b1000 /
03
06
19
0:
#200
0&
b1001 ,
b1000 -
#210
1&
#214
12
b11 .
b1001 !
b1001 /
1:
#220
0&
b1010 ,
b1001 -
#230
1&
#234
05
02
b1 .
b1010 !
b1010 /
13
0:
#240
0&
b1011 ,
b1010 -
#250
1&
#254
15
12
b111 .
b1011 !
b1011 /
1:
#260
0&
b1100 ,
b1011 -
#270
1&
#274
08
05
02
b1 .
b1100 !
b1100 /
03
16
0:
#280
0&
b1101 ,
b1100 -
#290
1&
#294
12
b11 .
b1101 !
b1101 /
1:
#300
0&
b1110 ,
b1101 -
#310
1&
#314
08
05
02
b1 .
b1110 !
b1110 /
13
0:
#320
0&
b1111 ,
b1110 -
#330
1&
#334
18
15
12
b1111 .
b1111 !
b1111 /
1:
#340
0&
b0 ,
b1111 -
#350
1&
#354
08
05
02
b1 .
b0 !
b0 /
03
06
09
0:
#360
0&
b1 ,
b10000 -
#370
1&
#374
12
b11 .
b1 !
b1 /
1:
#380
0&
b10 ,
b10001 -
#390
1&
#394
05
02
b1 .
b10 !
b10 /
13
0:
#400
0&
b11 ,
b10010 -
#410
1&
#414
15
12
b111 .
b11 !
b11 /
1:
#420
0&
b100 ,
b10011 -
#430
1&
#434
08
05
02
b1 .
b100 !
b100 /
03
16
0:
#440
0&
b101 ,
b10100 -
#450
1&
#454
12
b11 .
b101 !
b101 /
1:
#460
0&
b110 ,
b10101 -
#470
1&
#474
08
05
02
b1 .
b110 !
b110 /
13
0:
#480
0&
b111 ,
b10110 -
#490
1&
#494
18
15
12
b1111 .
b111 !
b111 /
1:
#500
0&
b1000 ,
b10111 -
#510
1&
#514
08
05
02
b1 .
b1000 !
b1000 /
03
06
19
0:
#520
0&
b1001 ,
b11000 -
#530
1&
#534
12
b11 .
b1001 !
b1001 /
1:
#540
0&
b1010 ,
b11001 -
#550
1&
#554
05
02
b1 .
b1010 !
b1010 /
13
0:
#560
0&
b1011 ,
b11010 -
#570
1&
#574
15
12
b111 .
b1011 !
b1011 /
1:
#580
0&
b1100 ,
b11011 -
#590
1&
#594
08
05
02
b1 .
b1100 !
b1100 /
03
16
0:
#600
0&
b1101 ,
b11100 -
#610
1&
#614
12
b11 .
b1101 !
b1101 /
1:
#620
0&
b1110 ,
b11101 -
#630
1&
#634
08
05
02
b1 .
b1110 !
b1110 /
13
0:
#640
b0 .
0&
0'
0(
b11110 -
#650
1&
#660
12
b11 .
0&
b1101 ,
b0 -
1(
#670
1&
#674
05
02
b1 .
b1101 !
b1101 /
03
1:
#680
0&
b1100 ,
b1 -
#690
1&
#694
15
12
b111 .
b1100 !
b1100 /
0:
#700
0&
b1011 ,
b10 -
#710
1&
#714
08
05
02
b1 .
b1011 !
b1011 /
13
06
1:
#720
0&
b1010 ,
b11 -
#730
1&
#734
12
b11 .
b1010 !
b1010 /
0:
#740
0&
b1001 ,
b100 -
#750
1&
#754
08
05
02
b1 .
b1001 !
b1001 /
03
1:
#760
0&
b1000 ,
b101 -
#770
1&
#774
18
15
12
b1111 .
b1000 !
b1000 /
0:
#780
0&
b111 ,
b110 -
#790
1&
#794
08
05
02
b1 .
b111 !
b111 /
13
16
09
1:
#800
0&
b110 ,
b111 -
#810
1&
#814
12
b11 .
b110 !
b110 /
0:
#820
0&
b101 ,
b1000 -
#830
1&
#834
05
02
b1 .
b101 !
b101 /
03
1:
#840
0&
b100 ,
b1001 -
#850
1&
#854
15
12
b111 .
b100 !
b100 /
0:
#860
0&
b11 ,
b1010 -
#870
1&
#874
08
05
02
b1 .
b11 !
b11 /
13
06
1:
#880
0&
b10 ,
b1011 -
#890
1&
#894
12
b11 .
b10 !
b10 /
0:
#900
0&
b1 ,
b1100 -
#910
1&
#914
08
05
02
b1 .
b1 !
b1 /
03
1:
#920
0&
b0 ,
b1101 -
#930
1&
#934
18
15
12
b1111 .
b0 !
b0 /
0:
#940
0&
b1111 ,
b1110 -
#950
1&
#954
08
05
02
b1 .
b1111 !
b1111 /
13
16
19
1:
#960
0&
b1110 ,
b1111 -
#970
1&
#974
12
b11 .
b1110 !
b1110 /
0:
#980
0&
b1101 ,
b10000 -
#990
1&
#994
05
02
b1 .
b1101 !
b1101 /
03
1:
#1000
0&
b1100 ,
b10001 -
#1010
1&
#1014
15
12
b111 .
b1100 !
b1100 /
0:
#1020
0&
b1011 ,
b10010 -
#1030
1&
#1034
08
05
02
b1 .
b1011 !
b1011 /
13
06
1:
#1040
0&
b1010 ,
b10011 -
#1050
1&
#1054
12
b11 .
b1010 !
b1010 /
0:
#1060
0&
b1001 ,
b10100 -
#1070
1&
#1074
08
05
02
b1 .
b1001 !
b1001 /
03
1:
#1080
0&
b1000 ,
b10101 -
#1090
1&
#1094
18
15
12
b1111 .
b1000 !
b1000 /
0:
#1100
0&
b111 ,
b10110 -
#1110
1&
#1114
08
05
02
b1 .
b111 !
b111 /
13
16
09
1:
#1120
0&
b110 ,
b10111 -
#1130
1&
#1134
12
b11 .
b110 !
b110 /
0:
#1140
0&
b101 ,
b11000 -
#1150
1&
#1154
05
02
b1 .
b101 !
b101 /
03
1:
#1160
0&
b100 ,
b11001 -
#1170
1&
#1174
15
12
b111 .
b100 !
b100 /
0:
#1180
0&
b11 ,
b11010 -
#1190
1&
#1194
08
05
02
b1 .
b11 !
b11 /
13
06
1:
#1200
0&
b10 ,
b11011 -
#1210
1&
#1214
12
b11 .
b10 !
b10 /
0:
#1220
0&
b1 ,
b11100 -
#1230
1&
#1234
08
05
02
b1 .
b1 !
b1 /
03
1:
#1240
0&
b0 ,
b11101 -
#1250
1&
#1254
18
15
12
b1111 .
b0 !
b0 /
0:
#1260
0&
b1111 ,
b11110 -
#1270
1&
#1274
08
05
02
b1 .
b1111 !
b1111 /
13
16
19
1:
#1280
0&
b1110 ,
b11111 -
#1290
1&
#1294
12
b11 .
b1110 !
b1110 /
0:
#1300
02
b0 .
0&
0(
b0 -
#1310
1&
#1320
0&
b1 -
#1330
1&
#1340
0&
b10 -
#1350
1&
#1360
0&
b11 -
#1370
1&
#1380
0&
b100 -
#1390
1&
#1400
0&
b101 -
#1410
1&
#1420
0&
b110 -
#1430
1&
#1440
0&
b111 -
#1450
1&
#1460
0&
b1000 -
#1470
1&
#1480
0&
b1001 -
#1490
1&
#1500
0&
b1010 -
#1510
1&
#1520
0&
b1011 -
#1530
1&
#1540
0&
b1100 -
#1550
1&
#1560
0&
b1101 -
#1570
1&
#1580
0&
b1110 -
#1590
1&
#1600
0&
b1111 -
#1610
1&
#1620
0&
0(
b10000 -
