modules/vcd/memory_tb.vcd
$date
	Mon Jan 19 10:19:12 2026
$end
$version
	Icarus Verilog
$end
$timescale
	1ns
$end
$scope module RAM_tb $end
$var wire 1 ! done_flag $end
$var wire 4 " out [3:0] $end
$var reg 3 # add [2:0] $end
$var reg 1 $ clk $end
$var reg 4 % data [3:0] $end
$var reg 1 & rclk $end
$var reg 1 ' re $end
$var reg 1 ( res $end
$var reg 1 ) we $end
$var integer 32 * i [31:0] $end
$var integer 32 + j [31:0] $end
$scope module uut $end
$var wire 3 , address [2:0] $end
$var wire 4 - data [3:0] $end
$var wire 1 & rclk $end
$var wire 1 ' ren $end
$var wire 1 ( res $end
$var wire 1 $ wclk $end
$var wire 1 ) wen $end
$var parameter 32 . DEPTH $end
$var parameter 8 / MEM_FILE $end
$var parameter 32 0 RCLK_EDGE $end
$var parameter 1 1 RE_POLARITY $end
$var parameter 32 2 WCLK_EDGE $end
$var parameter 1 3 WE_POLARITY $end
$var parameter 32 4 WIDTH $end
$var reg 4 5 Q [3:0] $end
$var integer 32 6 i [31:0] $end
$scope begin rop_rise $end
$upscope $end
$scope begin wop_rise $end
$upscope $end
$upscope $end
$scope task check_ram $end
$var integer 32 7 a [31:0] $end
$upscope $end
$scope task r_op $end
$var reg 3 8 address [2:0] $end
$var reg 4 9 din [3:0] $end
$upscope $end
$scope task w_op $end
$var reg 3 : address [2:0] $end
$var reg 4 ; din [3:0] $end
$upscope $end
$upscope $end
$enddefinitions $end
$comment Show the parameter values. $end
$dumpall
b100 4
13
b1010010010010010101001101000101 2
11
b1010010010010010101001101000101 0
b0 /
b1000 .
$end
#0
$dumpvars
bx ;
bx :
bx 9
bx 8
bx 7
b1000 6
bx 5
bx -
bx ,
bx +
bx *
x)
0(
x'
0&
bx %
0$
bx #
bx "
z!
$end
#5
1&
1$
#10
0&
0$
1(
#15
1&
1$
#20
0&
0$
0(
#25
1&
1$
b0 ;
b0 :
b0 *
0'
1)
b0 %
b0 -
b0 #
b0 ,
#30
0&
0$
#35
b0 "
b0 5
1&
1$
1'
b0 9
b0 8
0)
#40
0&
0$
#45
1&
1$
1)
b1 #
b1 ,
b1 :
b1 *
0'
#50
0&
0$
#55
1&
1$
1'
b1 8
0)
#60
0&
0$
#65
1&
1$
1)
b10 #
b10 ,
b10 :
b10 *
0'
#70
0&
0$
#75
1&
1$
1'
b10 8
0)
#80
0&
0$
#85
1&
1$
1)
b11 #
b11 ,
b11 :
b11 *
0'
#90
0&
0$
#95
1&
1$
1'
b11 8
0)
#100
0&
0$
#105
1&
1$
1)
b100 #
b100 ,
b100 :
b100 *
0'
#110
0&
0$
#115
1&
1$
1'
b100 8
0)
#120
0&
0$
#125
1&
1$
1)
b101 #
b101 ,
b101 :
b101 *
0'
#130
0&
0$
#135
1&
1$
1'
b101 8
0)
#140
0&
0$
#145
1&
1$
1)
b110 #
b110 ,
b110 :
b110 *
0'
#150
0&
0$
#155
1&
1$
1'
b110 8
0)
#160
0&
0$
#165
1&
1$
1)
b111 #
b111 ,
b111 :
b111 *
0'
#170
0&
0$
#175
1&
1$
1'
b111 8
0)
#180
0&
0$
#185
1&
1$
b0 #
b0 ,
b0 8
b0 7
b1000 *
1'
#190
0&
0$
#195
1&
1$
b1 #
b1 ,
b1 8
b1 7
1'
#200
0&
0$
#205
1&
1$
b10 #
b10 ,
b10 8
b10 7
1'
#210
0&
0$
#215
1&
1$
b11 #
b11 ,
b11 8
b11 7
1'
#220
0&
0$
#225
1&
1$
b100 #
b100 ,
b100 8
b100 7
1'
#230
0&
0$
#235
1&
1$
b101 #
b101 ,
b101 8
b101 7
1'
#240
0&
0$
#245
1&
1$
b110 #
b110 ,
b110 8
b110 7
1'
#250
0&
0$
#255
1&
1$
b111 #
b111 ,
b111 8
b111 7
1'
#260
0&
0$
#265
1&
1$
b1 %
b1 -
1)
b0 #
b0 ,
b1 ;
b0 :
b0 +
b0 *
b1000 7
0'
#270
0&
0$
#275
b1 "
b1 5
1&
1$
1'
b1 9
b0 8
0)
#280
0&
0$
#285
1&
1$
b0 7
1'
#290
0&
0$
#295
b0 "
b0 5
1&
1$
b1 #
b1 ,
b0 9
b1 8
b1 7
1'
#300
0&
0$
#305
1&
1$
b10 #
b10 ,
b10 8
b10 7
1'
#310
0&
0$
#315
1&
1$
b11 #
b11 ,
b11 8
b11 7
1'
#320
0&
0$
#325
1&
1$
b100 #
b100 ,
b100 8
b100 7
1'
#330
0&
0$
#335
1&
1$
b101 #
b101 ,
b101 8
b101 7
1'
#340
0&
0$
#345
1&
1$
b110 #
b110 ,
b110 8
b110 7
1'
#350
0&
0$
#355
1&
1$
b111 #
b111 ,
b111 8
b111 7
1'
#360
0&
0$
#365
1&
1$
b10 %
b10 -
1)
b0 #
b0 ,
b10 ;
b1 +
b1000 7
0'
#370
0&
0$
#375
b10 "
b10 5
1&
1$
1'
b10 9
b0 8
0)
#380
0&
0$
#385
1&
1$
b0 7
1'
#390
0&
0$
#395
b0 "
b0 5
1&
1$
b1 #
b1 ,
b0 9
b1 8
b1 7
1'
#400
0&
0$
#405
1&
1$
b10 #
b10 ,
b10 8
b10 7
1'
#410
0&
0$
#415
1&
1$
b11 #
b11 ,
b11 8
b11 7
1'
#420
0&
0$
#425
1&
1$
b100 #
b100 ,
b100 8
b100 7
1'
#430
0&
0$
#435
1&
1$
b101 #
b101 ,
b101 8
b101 7
1'
#440
0&
0$
#445
1&
1$
b110 #
b110 ,
b110 8
b110 7
1'
#450
0&
0$
#455
1&
1$
b111 #
b111 ,
b111 8
b111 7
1'
#460
0&
0$
#465
1&
1$
b100 %
b100 -
1)
b0 #
b0 ,
b100 ;
b10 +
b1000 7
0'
#470
0&
0$
#475
b100 "
b100 5
1&
1$
1'
b100 9
b0 8
0)
#480
0&
0$
#485
1&
1$
b0 7
1'
#490
0&
0$
#495
b0 "
b0 5
1&
1$
b1 #
b1 ,
b0 9
b1 8
b1 7
1'
#500
0&
0$
#505
1&
1$
b10 #
b10 ,
b10 8
b10 7
1'
#510
0&
0$
#515
1&
1$
b11 #
b11 ,
b11 8
b11 7
1'
#520
0&
0$
#525
1&
1$
b100 #
b100 ,
b100 8
b100 7
1'
#530
0&
0$
#535
1&
1$
b101 #
b101 ,
b101 8
b101 7
1'
#540
0&
0$
#545
1&
1$
b110 #
b110 ,
b110 8
b110 7
1'
#550
0&
0$
#555
1&
1$
b111 #
b111 ,
b111 8
b111 7
1'
#560
0&
0$
#565
1&
1$
b1000 %
b1000 -
1)
b0 #
b0 ,
b1000 ;
b11 +
b1000 7
0'
#570
0&
0$
#575
b1000 "
b1000 5
1&
1$
1'
b1000 9
b0 8
0)
#580
0&
0$
#585
1&
1$
b0 7
1'
#590
0&
0$
#595
b0 "
b0 5
1&
1$
b1 #
b1 ,
b0 9
b1 8
b1 7
1'
#600
0&
0$
#605
1&
1$
b10 #
b10 ,
b10 8
b10 7
1'
#610
0&
0$
#615
1&
1$
b11 #
b11 ,
b11 8
b11 7
1'
#620
0&
0$
#625
1&
1$
b100 #
b100 ,
b100 8
b100 7
1'
#630
0&
0$
#635
1&
1$
b101 #
b101 ,
b101 8
b101 7
1'
#640
0&
0$
#645
1&
1$
b110 #
b110 ,
b110 8
b110 7
1'
#650
0&
0$
#655
1&
1$
b111 #
b111 ,
b111 8
b111 7
1'
#660
0&
0$
#665
1&
1$
b0 %
b0 -
1)
b0 #
b0 ,
b0 ;
b100 +
b1000 7
0'
#670
0&
0$
#675
1&
1$
b1 %
b1 -
b1 #
b1 ,
b1 ;
b1 :
b0 +
b1 *
1)
#680
0&
0$
#685
b1 "
b1 5
1&
1$
1'
b1 9
b1 8
0)
#690
0&
0$
#695
b0 "
b0 5
1&
1$
b0 #
b0 ,
b0 9
b0 8
b0 7
1'
#700
0&
0$
#705
b1 "
b1 5
1&
1$
b1 #
b1 ,
b1 9
b1 8
b1 7
1'
#710
0&
0$
#715
b0 "
b0 5
1&
1$
b10 #
b10 ,
b0 9
b10 8
b10 7
1'
#720
0&
0$
#725
1&
1$
b11 #
b11 ,
b11 8
b11 7
1'
#730
0&
0$
#735
1&
1$
b100 #
b100 ,
b100 8
b100 7
1'
#740
0&
0$
#745
1&
1$
b101 #
b101 ,
b101 8
b101 7
1'
#750
0&
0$
#755
1&
1$
b110 #
b110 ,
b110 8
b110 7
1'
#760
0&
0$
#765
1&
1$
b111 #
b111 ,
b111 8
b111 7
1'
#770
0&
0$
#775
1&
1$
b10 %
b10 -
1)
b1 #
b1 ,
b10 ;
b1 +
b1000 7
0'
#780
0&
0$
#785
b10 "
b10 5
1&
1$
1'
b10 9
b1 8
0)
#790
0&
0$
#795
b0 "
b0 5
1&
1$
b0 #
b0 ,
b0 9
b0 8
b0 7
1'
#800
0&
0$
#805
b10 "
b10 5
1&
1$
b1 #
b1 ,
b10 9
b1 8
b1 7
1'
#810
0&
0$
#815
b0 "
b0 5
1&
1$
b10 #
b10 ,
b0 9
b10 8
b10 7
1'
#820
0&
0$
#825
1&
1$
b11 #
b11 ,
b11 8
b11 7
1'
#830
0&
0$
#835
1&
1$
b100 #
b100 ,
b100 8
b100 7
1'
#840
0&
0$
#845
1&
1$
b101 #
b101 ,
b101 8
b101 7
1'
#850
0&
0$
#855
1&
1$
b110 #
b110 ,
b110 8
b110 7
1'
#860
0&
0$
#865
1&
1$
b111 #
b111 ,
b111 8
b111 7
1'
#870
0&
0$
#875
1&
1$
b100 %
b100 -
1)
b1 #
b1 ,
b100 ;
b10 +
b1000 7
0'
#880
0&
0$
#885
b100 "
b100 5
1&
1$
1'
b100 9
b1 8
0)
#890
0&
0$
#895
b0 "
b0 5
1&
1$
b0 #
b0 ,
b0 9
b0 8
b0 7
1'
#900
0&
0$
#905
b100 "
b100 5
1&
1$
b1 #
b1 ,
b100 9
b1 8
b1 7
1'
#910
0&
0$
#915
b0 "
b0 5
1&
1$
b10 #
b10 ,
b0 9
b10 8
b10 7
1'
#920
0&
0$
#925
1&
1$
b11 #
b11 ,
b11 8
b11 7
1'
#930
0&
0$
#935
1&
1$
b100 #
b100 ,
b100 8
b100 7
1'
#940
0&
0$
#945
1&
1$
b101 #
b101 ,
b101 8
b101 7
1'
#950
0&
0$
#955
1&
1$
b110 #
b110 ,
b110 8
b110 7
1'
#960
0&
0$
#965
1&
1$
b111 #
b111 ,
b111 8
b111 7
1'
#970
0&
0$
#975
1&
1$
b1000 %
b1000 -
1)
b1 #
b1 ,
b1000 ;
b11 +
b1000 7
0'
#980
0&
0$
#985
b1000 "
b1000 5
1&
1$
1'
b1000 9
b1 8
0)
#990
0&
0$
#995
b0 "
b0 5
1&
1$
b0 #
b0 ,
b0 9
b0 8
b0 7
1'
#1000
0&
0$
#1005
b1000 "
b1000 5
1&
1$
b1 #
b1 ,
b1000 9
b1 8
b1 7
1'
#1010
0&
0$
#1015
b0 "
b0 5
1&
1$
b10 #
b10 ,
b0 9
b10 8
b10 7
1'
#1020
0&
0$
#1025
1&
1$
b11 #
b11 ,
b11 8
b11 7
1'
#1030
0&
0$
#1035
1&
1$
b100 #
b100 ,
b100 8
b100 7
1'
#1040
0&
0$
#1045
1&
1$
b101 #
b101 ,
b101 8
b101 7
1'
#1050
0&
0$
#1055
1&
1$
b110 #
b110 ,
b110 8
b110 7
1'
#1060
0&
0$
#1065
1&
1$
b111 #
b111 ,
b111 8
b111 7
1'
#1070
0&
0$
#1075
1&
1$
b0 %
b0 -
1)
b1 #
b1 ,
b0 ;
b100 +
b1000 7
0'
#1080
0&
0$
#1085
1&
1$
b1 %
b1 -
b10 #
b10 ,
b1 ;
b10 :
b0 +
b10 *
1)
#1090
0&
0$
#1095
b1 "
b1 5
1&
1$
1'
b1 9
b10 8
0)
#1100
0&
0$
#1105
b0 "
b0 5
1&
1$
b0 #
b0 ,
b0 9
b0 8
b0 7
1'
#1110
0&
0$
#1115
1&
1$
b1 #
b1 ,
b1 8
b1 7
1'
#1120
0&
0$
#1125
b1 "
b1 5
1&
1$
b10 #
b10 ,
b1 9
b10 8
b10 7
1'
#1130
0&
0$
#1135
b0 "
b0 5
1&
1$
b11 #
b11 ,
b0 9
b11 8
b11 7
1'
#1140
0&
0$
#1145
1&
1$
b100 #
b100 ,
b100 8
b100 7
1'
#1150
0&
0$
#1155
1&
1$
b101 #
b101 ,
b101 8
b101 7
1'
#1160
0&
0$
#1165
1&
1$
b110 #
b110 ,
b110 8
b110 7
1'
#1170
0&
0$
#1175
1&
1$
b111 #
b111 ,
b111 8
b111 7
1'
#1180
0&
0$
#1185
1&
1$
b10 %
b10 -
1)
b10 #
b10 ,
b10 ;
b1 +
b1000 7
0'
#1190
0&
0$
#1195
b10 "
b10 5
1&
1$
1'
b10 9
b10 8
0)
#1200
0&
0$
#1205
b0 "
b0 5
1&
1$
b0 #
b0 ,
b0 9
b0 8
b0 7
1'
#1210
0&
0$
#1215
1&
1$
b1 #
b1 ,
b1 8
b1 7
1'
#1220
0&
0$
#1225
b10 "
b10 5
1&
1$
b10 #
b10 ,
b10 9
b10 8
b10 7
1'
#1230
0&
0$
#1235
b0 "
b0 5
1&
1$
b11 #
b11 ,
b0 9
b11 8
b11 7
1'
#1240
0&
0$
#1245
1&
1$
b100 #
b100 ,
b100 8
b100 7
1'
#1250
0&
0$
#1255
1&
1$
b101 #
b101 ,
b101 8
b101 7
1'
#1260
0&
0$
#1265
1&
1$
b110 #
b110 ,
b110 8
b110 7
1'
#1270
0&
0$
#1275
1&
1$
b111 #
b111 ,
b111 8
b111 7
1'
#1280
0&
0$
#1285
1&
1$
b100 %
b100 -
1)
b10 #
b10 ,
b100 ;
b10 +
b1000 7
0'
#1290
0&
0$
#1295
b100 "
b100 5
1&
1$
1'
b100 9
b10 8
0)
#1300
0&
0$
#1305
b0 "
b0 5
1&
1$
b0 #
b0 ,
b0 9
b0 8
b0 7
1'
#1310
0&
0$
#1315
1&
1$
b1 #
b1 ,
b1 8
b1 7
1'
#1320
0&
0$
#1325
b100 "
b100 5
1&
1$
b10 #
b10 ,
b100 9
b10 8
b10 7
1'
#1330
0&
0$
#1335
b0 "
b0 5
1&
1$
b11 #
b11 ,
b0 9
b11 8
b11 7
1'
#1340
0&
0$
#1345
1&
1$
b100 #
b100 ,
b100 8
b100 7
1'
#1350
0&
0$
#1355
1&
1$
b101 #
b101 ,
b101 8
b101 7
1'
#1360
0&
0$
#1365
1&
1$
b110 #
b110 ,
b110 8
b110 7
1'
#1370
0&
0$
#1375
1&
1$
b111 #
b111 ,
b111 8
b111 7
1'
#1380
0&
0$
#1385
1&
1$
b1000 %
b1000 -
1)
b10 #
b10 ,
b1000 ;
b11 +
b1000 7
0'
#1390
0&
0$
#1395
b1000 "
b1000 5
1&
1$
1'
b1000 9
b10 8
0)
#1400
0&
0$
#1405
b0 "
b0 5
1&
1$
b0 #
b0 ,
b0 9
b0 8
b0 7
1'
#1410
0&
0$
#1415
1&
1$
b1 #
b1 ,
b1 8
b1 7
1'
#1420
0&
0$
#1425
b1000 "
b1000 5
1&
1$
b10 #
b10 ,
b1000 9
b10 8
b10 7
1'
#1430
0&
0$
#1435
b0 "
b0 5
1&
1$
b11 #
b11 ,
b0 9
b11 8
b11 7
1'
#1440
0&
0$
#1445
1&
1$
b100 #
b100 ,
b100 8
b100 7
1'
#1450
0&
0$
#1455
1&
1$
b101 #
b101 ,
b101 8
b101 7
1'
#1460
0&
0$
#1465
1&
1$
b110 #
b110 ,
b110 8
b110 7
1'
#1470
0&
0$
#1475
1&
1$
b111 #
b111 ,
b111 8
b111 7
1'
#1480
0&
0$
#1485
1&
1$
b0 %
b0 -
1)
b10 #
b10 ,
b0 ;
b100 +
b1000 7
0'
#1490
0&
0$
#1495
1&
1$
b1 %
b1 -
b11 #
b11 ,
b1 ;
b11 :
b0 +
b11 *
1)
#1500
0&
0$
#1505
b1 "
b1 5
1&
1$
1'
b1 9
b11 8
0)
#1510
0&
0$
#1515
b0 "
b0 5
1&
1$
b0 #
b0 ,
b0 9
b0 8
b0 7
1'
#1520
0&
0$
#1525
1&
1$
b1 #
b1 ,
b1 8
b1 7
1'
#1530
0&
0$
#1535
1&
1$
b10 #
b10 ,
b10 8
b10 7
1'
#1540
0&
0$
#1545
b1 "
b1 5
1&
1$
b11 #
b11 ,
b1 9
b11 8
b11 7
1'
#1550
0&
0$
#1555
b0 "
b0 5
1&
1$
b100 #
b100 ,
b0 9
b100 8
b100 7
1'
#1560
0&
0$
#1565
1&
1$
b101 #
b101 ,
b101 8
b101 7
1'
#1570
0&
0$
#1575
1&
1$
b110 #
b110 ,
b110 8
b110 7
1'
#1580
0&
0$
#1585
1&
1$
b111 #
b111 ,
b111 8
b111 7
1'
#1590
0&
0$
#1595
1&
1$
b10 %
b10 -
1)
b11 #
b11 ,
b10 ;
b1 +
b1000 7
0'
#1600
0&
0$
#1605
b10 "
b10 5
1&
1$
1'
b10 9
b11 8
0)
#1610
0&
0$
#1615
b0 "
b0 5
1&
1$
b0 #
b0 ,
b0 9
b0 8
b0 7
1'
#1620
0&
0$
#1625
1&
1$
b1 #
b1 ,
b1 8
b1 7
1'
#1630
0&
0$
#1635
1&
1$
b10 #
b10 ,
b10 8
b10 7
1'
#1640
0&
0$
#1645
b10 "
b10 5
1&
1$
b11 #
b11 ,
b10 9
b11 8
b11 7
1'
#1650
0&
0$
#1655
b0 "
b0 5
1&
1$
b100 #
b100 ,
b0 9
b100 8
b100 7
1'
#1660
0&
0$
#1665
1&
1$
b101 #
b101 ,
b101 8
b101 7
1'
#1670
0&
0$
#1675
1&
1$
b110 #
b110 ,
b110 8
b110 7
1'
#1680
0&
0$
#1685
1&
1$
b111 #
b111 ,
b111 8
b111 7
1'
#1690
0&
0$
#1695
1&
1$
b100 %
b100 -
1)
b11 #
b11 ,
b100 ;
b10 +
b1000 7
0'
#1700
0&
0$
#1705
b100 "
b100 5
1&
1$
1'
b100 9
b11 8
0)
#1710
0&
0$
#1715
b0 "
b0 5
1&
1$
b0 #
b0 ,
b0 9
b0 8
b0 7
1'
#1720
0&
0$
#1725
1&
1$
b1 #
b1 ,
b1 8
b1 7
1'
#1730
0&
0$
#1735
1&
1$
b10 #
b10 ,
b10 8
b10 7
1'
#1740
0&
0$
#1745
b100 "
b100 5
1&
1$
b11 #
b11 ,
b100 9
b11 8
b11 7
1'
#1750
0&
0$
#1755
b0 "
b0 5
1&
1$
b100 #
b100 ,
b0 9
b100 8
b100 7
1'
#1760
0&
0$
#1765
1&
1$
b101 #
b101 ,
b101 8
b101 7
1'
#1770
0&
0$
#1775
1&
1$
b110 #
b110 ,
b110 8
b110 7
1'
#1780
0&
0$
#1785
1&
1$
b111 #
b111 ,
b111 8
b111 7
1'
#1790
0&
0$
#1795
1&
1$
b1000 %
b1000 -
1)
b11 #
b11 ,
b1000 ;
b11 +
b1000 7
0'
#1800
0&
0$
#1805
b1000 "
b1000 5
1&
1$
1'
b1000 9
b11 8
0)
#1810
0&
0$
#1815
b0 "
b0 5
1&
1$
b0 #
b0 ,
b0 9
b0 8
b0 7
1'
#1820
0&
0$
#1825
1&
1$
b1 #
b1 ,
b1 8
b1 7
1'
#1830
0&
0$
#1835
1&
1$
b10 #
b10 ,
b10 8
b10 7
1'
#1840
0&
0$
#1845
b1000 "
b1000 5
1&
1$
b11 #
b11 ,
b1000 9
b11 8
b11 7
1'
#1850
0&
0$
#1855
b0 "
b0 5
1&
1$
b100 #
b100 ,
b0 9
b100 8
b100 7
1'
#1860
0&
0$
#1865
1&
1$
b101 #
b101 ,
b101 8
b101 7
1'
#1870
0&
0$
#1875
1&
1$
b110 #
b110 ,
b110 8
b110 7
1'
#1880
0&
0$
#1885
1&
1$
b111 #
b111 ,
b111 8
b111 7
1'
#1890
0&
0$
#1895
1&
1$
b0 %
b0 -
1)
b11 #
b11 ,
b0 ;
b100 +
b1000 7
0'
#1900
0&
0$
#1905
1&
1$
b1 %
b1 -
b100 #
b100 ,
b1 ;
b100 :
b0 +
b100 *
1)
#1910
0&
0$
#1915
b1 "
b1 5
1&
1$
1'
b1 9
b100 8
0)
#1920
0&
0$
#1925
b0 "
b0 5
1&
1$
b0 #
b0 ,
b0 9
b0 8
b0 7
1'
#1930
0&
0$
#1935
1&
1$
b1 #
b1 ,
b1 8
b1 7
1'
#1940
0&
0$
#1945
1&
1$
b10 #
b10 ,
b10 8
b10 7
1'
#1950
0&
0$
#1955
1&
1$
b11 #
b11 ,
b11 8
b11 7
1'
#1960
0&
0$
#1965
b1 "
b1 5
1&
1$
b100 #
b100 ,
b1 9
b100 8
b100 7
1'
#1970
0&
0$
#1975
b0 "
b0 5
1&
1$
b101 #
b101 ,
b0 9
b101 8
b101 7
1'
#1980
0&
0$
#1985
1&
1$
b110 #
b110 ,
b110 8
b110 7
1'
#1990
0&
0$
#1995
1&
1$
b111 #
b111 ,
b111 8
b111 7
1'
#2000
0&
0$
#2005
1&
1$
b10 %
b10 -
1)
b100 #
b100 ,
b10 ;
b1 +
b1000 7
0'
#2010
0&
0$
#2015
b10 "
b10 5
1&
1$
1'
b10 9
b100 8
0)
#2020
0&
0$
#2025
b0 "
b0 5
1&
1$
b0 #
b0 ,
b0 9
b0 8
b0 7
1'
#2030
0&
0$
#2035
1&
1$
b1 #
b1 ,
b1 8
b1 7
1'
#2040
0&
0$
#2045
1&
1$
b10 #
b10 ,
b10 8
b10 7
1'
#2050
0&
0$
#2055
1&
1$
b11 #
b11 ,
b11 8
b11 7
1'
#2060
0&
0$
#2065
b10 "
b10 5
1&
1$
b100 #
b100 ,
b10 9
b100 8
b100 7
1'
#2070
0&
0$
#2075
b0 "
b0 5
1&
1$
b101 #
b101 ,
b0 9
b101 8
b101 7
1'
#2080
0&
0$
#2085
1&
1$
b110 #
b110 ,
b110 8
b110 7
1'
#2090
0&
0$
#2095
1&
1$
b111 #
b111 ,
b111 8
b111 7
1'
#2100
0&
0$
#2105
1&
1$
b100 %
b100 -
1)
b100 #
b100 ,
b100 ;
b10 +
b1000 7
0'
#2110
0&
0$
#2115
b100 "
b100 5
1&
1$
1'
b100 9
b100 8
0)
#2120
0&
0$
#2125
b0 "
b0 5
1&
1$
b0 #
b0 ,
b0 9
b0 8
b0 7
1'
#2130
0&
0$
#2135
1&
1$
b1 #
b1 ,
b1 8
b1 7
1'
#2140
0&
0$
#2145
1&
1$
b10 #
b10 ,
b10 8
b10 7
1'
#2150
0&
0$
#2155
1&
1$
b11 #
b11 ,
b11 8
b11 7
1'
#2160
0&
0$
#2165
b100 "
b100 5
1&
1$
b100 #
b100 ,
b100 9
b100 8
b100 7
1'
#2170
0&
0$
#2175
b0 "
b0 5
1&
1$
b101 #
b101 ,
b0 9
b101 8
b101 7
1'
#2180
0&
0$
#2185
1&
1$
b110 #
b110 ,
b110 8
b110 7
1'
#2190
0&
0$
#2195
1&
1$
b111 #
b111 ,
b111 8
b111 7
1'
#2200
0&
0$
#2205
1&
1$
b1000 %
b1000 -
1)
b100 #
b100 ,
b1000 ;
b11 +
b1000 7
0'
#2210
0&
0$
#2215
b1000 "
b1000 5
1&
1$
1'
b1000 9
b100 8
0)
#2220
0&
0$
#2225
b0 "
b0 5
1&
1$
b0 #
b0 ,
b0 9
b0 8
b0 7
1'
#2230
0&
0$
#2235
1&
1$
b1 #
b1 ,
b1 8
b1 7
1'
#2240
0&
0$
#2245
1&
1$
b10 #
b10 ,
b10 8
b10 7
1'
#2250
0&
0$
#2255
1&
1$
b11 #
b11 ,
b11 8
b11 7
1'
#2260
0&
0$
#2265
b1000 "
b1000 5
1&
1$
b100 #
b100 ,
b1000 9
b100 8
b100 7
1'
#2270
0&
0$
#2275
b0 "
b0 5
1&
1$
b101 #
b101 ,
b0 9
b101 8
b101 7
1'
#2280
0&
0$
#2285
1&
1$
b110 #
b110 ,
b110 8
b110 7
1'
#2290
0&
0$
#2295
1&
1$
b111 #
b111 ,
b111 8
b111 7
1'
#2300
0&
0$
#2305
1&
1$
b0 %
b0 -
1)
b100 #
b100 ,
b0 ;
b100 +
b1000 7
0'
#2310
0&
0$
#2315
1&
1$
b1 %
b1 -
b101 #
b101 ,
b1 ;
b101 :
b0 +
b101 *
1)
#2320
0&
0$
#2325
b1 "
b1 5
1&
1$
1'
b1 9
b101 8
0)
#2330
0&
0$
#2335
b0 "
b0 5
1&
1$
b0 #
b0 ,
b0 9
b0 8
b0 7
1'
#2340
0&
0$
#2345
1&
1$
b1 #
b1 ,
b1 8
b1 7
1'
#2350
0&
0$
#2355
1&
1$
b10 #
b10 ,
b10 8
b10 7
1'
#2360
0&
0$
#2365
1&
1$
b11 #
b11 ,
b11 8
b11 7
1'
#2370
0&
0$
#2375
1&
1$
b100 #
b100 ,
b100 8
b100 7
1'
#2380
0&
0$
#2385
b1 "
b1 5
1&
1$
b101 #
b101 ,
b1 9
b101 8
b101 7
1'
#2390
0&
0$
#2395
b0 "
b0 5
1&
1$
b110 #
b110 ,
b0 9
b110 8
b110 7
1'
#2400
0&
0$
#2405
1&
1$
b111 #
b111 ,
b111 8
b111 7
1'
#2410
0&
0$
#2415
1&
1$
b10 %
b10 -
1)
b101 #
b101 ,
b10 ;
b1 +
b1000 7
0'
#2420
0&
0$
#2425
b10 "
b10 5
1&
1$
1'
b10 9
b101 8
0)
#2430
0&
0$
#2435
b0 "
b0 5
1&
1$
b0 #
b0 ,
b0 9
b0 8
b0 7
1'
#2440
0&
0$
#2445
1&
1$
b1 #
b1 ,
b1 8
b1 7
1'
#2450
0&
0$
#2455
1&
1$
b10 #
b10 ,
b10 8
b10 7
1'
#2460
0&
0$
#2465
1&
1$
b11 #
b11 ,
b11 8
b11 7
1'
#2470
0&
0$
#2475
1&
1$
b100 #
b100 ,
b100 8
b100 7
1'
#2480
0&
0$
#2485
b10 "
b10 5
1&
1$
b101 #
b101 ,
b10 9
b101 8
b101 7
1'
#2490
0&
0$
#2495
b0 "
b0 5
1&
1$
b110 #
b110 ,
b0 9
b110 8
b110 7
1'
#2500
0&
0$
#2505
1&
1$
b111 #
b111 ,
b111 8
b111 7
1'
#2510
0&
0$
#2515
1&
1$
b100 %
b100 -
1)
b101 #
b101 ,
b100 ;
b10 +
b1000 7
0'
#2520
0&
0$
#2525
b100 "
b100 5
1&
1$
1'
b100 9
b101 8
0)
#2530
0&
0$
#2535
b0 "
b0 5
1&
1$
b0 #
b0 ,
b0 9
b0 8
b0 7
1'
#2540
0&
0$
#2545
1&
1$
b1 #
b1 ,
b1 8
b1 7
1'
#2550
0&
0$
#2555
1&
1$
b10 #
b10 ,
b10 8
b10 7
1'
#2560
0&
0$
#2565
1&
1$
b11 #
b11 ,
b11 8
b11 7
1'
#2570
0&
0$
#2575
1&
1$
b100 #
b100 ,
b100 8
b100 7
1'
#2580
0&
0$
#2585
b100 "
b100 5
1&
1$
b101 #
b101 ,
b100 9
b101 8
b101 7
1'
#2590
0&
0$
#2595
b0 "
b0 5
1&
1$
b110 #
b110 ,
b0 9
b110 8
b110 7
1'
#2600
0&
0$
#2605
1&
1$
b111 #
b111 ,
b111 8
b111 7
1'
#2610
0&
0$
#2615
1&
1$
b1000 %
b1000 -
1)
b101 #
b101 ,
b1000 ;
b11 +
b1000 7
0'
#2620
0&
0$
#2625
b1000 "
b1000 5
1&
1$
1'
b1000 9
b101 8
0)
#2630
0&
0$
#2635
b0 "
b0 5
1&
1$
b0 #
b0 ,
b0 9
b0 8
b0 7
1'
#2640
0&
0$
#2645
1&
1$
b1 #
b1 ,
b1 8
b1 7
1'
#2650
0&
0$
#2655
1&
1$
b10 #
b10 ,
b10 8
b10 7
1'
#2660
0&
0$
#2665
1&
1$
b11 #
b11 ,
b11 8
b11 7
1'
#2670
0&
0$
#2675
1&
1$
b100 #
b100 ,
b100 8
b100 7
1'
#2680
0&
0$
#2685
b1000 "
b1000 5
1&
1$
b101 #
b101 ,
b1000 9
b101 8
b101 7
1'
#2690
0&
0$
#2695
b0 "
b0 5
1&
1$
b110 #
b110 ,
b0 9
b110 8
b110 7
1'
#2700
0&
0$
#2705
1&
1$
b111 #
b111 ,
b111 8
b111 7
1'
#2710
0&
0$
#2715
1&
1$
b0 %
b0 -
1)
b101 #
b101 ,
b0 ;
b100 +
b1000 7
0'
#2720
0&
0$
#2725
1&
1$
b1 %
b1 -
b110 #
b110 ,
b1 ;
b110 :
b0 +
b110 *
1)
#2730
0&
0$
#2735
b1 "
b1 5
1&
1$
1'
b1 9
b110 8
0)
#2740
0&
0$
#2745
b0 "
b0 5
1&
1$
b0 #
b0 ,
b0 9
b0 8
b0 7
1'
#2750
0&
0$
#2755
1&
1$
b1 #
b1 ,
b1 8
b1 7
1'
#2760
0&
0$
#2765
1&
1$
b10 #
b10 ,
b10 8
b10 7
1'
#2770
0&
0$
#2775
1&
1$
b11 #
b11 ,
b11 8
b11 7
1'
#2780
0&
0$
#2785
1&
1$
b100 #
b100 ,
b100 8
b100 7
1'
#2790
0&
0$
#2795
1&
1$
b101 #
b101 ,
b101 8
b101 7
1'
#2800
0&
0$
#2805
b1 "
b1 5
1&
1$
b110 #
b110 ,
b1 9
b110 8
b110 7
1'
#2810
0&
0$
#2815
b0 "
b0 5
1&
1$
b111 #
b111 ,
b0 9
b111 8
b111 7
1'
#2820
0&
0$
#2825
1&
1$
b10 %
b10 -
1)
b110 #
b110 ,
b10 ;
b1 +
b1000 7
0'
#2830
0&
0$
#2835
b10 "
b10 5
1&
1$
1'
b10 9
b110 8
0)
#2840
0&
0$
#2845
b0 "
b0 5
1&
1$
b0 #
b0 ,
b0 9
b0 8
b0 7
1'
#2850
0&
0$
#2855
1&
1$
b1 #
b1 ,
b1 8
b1 7
1'
#2860
0&
0$
#2865
1&
1$
b10 #
b10 ,
b10 8
b10 7
1'
#2870
0&
0$
