results/counter_behavioral_tb.vcd
$date
	Sun Dec 28 17:25:16 2025
$end
$version
	Icarus Verilog
$end
$timescale
	1ns
$end
$scope module counter_tb $end
$var wire 4 ! count [3:0] $end
$var parameter 80 " TYPE $end
$var parameter 32 # T_CLK $end
$var parameter 64 $ T_CYC $end
$var parameter 32 % n $end
$var reg 1 & clk $end
$var reg 1 ' count_up $end
$var reg 1 ( enable $end
$var reg 1 ) load $end
$var reg 1 * res_n $end
$var reg 4 + set [3:0] $end
$var integer 32 , expected [31:0] $end
$var integer 32 - i [31:0] $end
$scope begin genblk1 $end
$scope module dut $end
$var wire 1 & clk $end
$var wire 1 ' count_up $end
$var wire 1 ( en $end
$var wire 1 ) load $end
$var wire 1 * res_n $end
$var wire 4 . set [3:0] $end
$var parameter 32 / n $end
$var reg 4 0 count [3:0] $end
$upscope $end
$upscope $end
$upscope $end
$enddefinitions $end
$comment Show the parameter values. $end
$dumpall
b100 /
b100 %
b10100 $
b1010 #
b1100010011001010110100001100001011101100110100101101111011100100110000101101100 "
$end
#0
$dumpvars
bx 0
bx .
bx -
bx ,
bx +
1*
x)
0(
1'
0&
bx !
$end
#10
1&
#20
0&
b0 ,
0)
0*
#30
b0 !
b0 0
1&
#40
0&
b1 ,
b0 -
1(
1*
#50
1&
#54
b1 !
b1 0
#60
0&
b10 ,
b1 -
#70
1&
#74
b10 !
b10 0
#80
0&
b11 ,
b10 -
#90
1&
#94
b11 !
b11 0
#100
0&
b100 ,
b11 -
#110
1&
#114
b100 !
b100 0
#120
0&
b101 ,
b100 -
#130
1&
#134
b101 !
b101 0
#140
0&
b110 ,
b101 -
#150
1&
#154
b110 !
b110 0
#160
0&
b111 ,
b110 -
#170
1&
#174
b111 !
b111 0
#180
0&
b1000 ,
b111 -
#190
1&
#194
b1000 !
b1000 0
#200
0&
b1001 ,
b1000 -
#210
1&
#214
b1001 !
b1001 0
#220
0&
b1010 ,
b1001 -
#230
1&
#234
b1010 !
b1010 0
#240
0&
b1011 ,
b1010 -
#250
1&
#254
b1011 !
b1011 0
#260
0&
b1100 ,
b1011 -
#270
1&
#274
b1100 !
b1100 0
#280
0&
b1101 ,
b1100 -
#290
1&
#294
b1101 !
b1101 0
#300
0&
b1110 ,
b1101 -
#310
1&
#314
b1110 !
b1110 0
#320
0&
b1111 ,
b1110 -
#330
1&
#334
b1111 !
b1111 0
#340
0&
b0 ,
b1111 -
#350
1&
#354
b0 !
b0 0
#360
0&
b1 ,
b10000 -
#370
1&
#374
b1 !
b1 0
#380
0&
b10 ,
b10001 -
#390
1&
#394
b10 !
b10 0
#400
0&
b11 ,
b10010 -
#410
1&
#414
b11 !
b11 0
#420
0&
b100 ,
b10011 -
#430
1&
#434
b100 !
b100 0
#440
0&
b101 ,
b10100 -
#450
1&
#454
b101 !
b101 0
#460
0&
b110 ,
b10101 -
#470
1&
#474
b110 !
b110 0
#480
0&
b111 ,
b10110 -
#490
1&
#494
b111 !
b111 0
#500
0&
b1000 ,
b10111 -
#510
1&
#514
b1000 !
b1000 0
#520
0&
b1001 ,
b11000 -
#530
1&
#534
b1001 !
b1001 0
#540
0&
b1010 ,
b11001 -
#550
1&
#554
b1010 !
b1010 0
#560
0&
b1011 ,
b11010 -
#570
1&
#574
b1011 !
b1011 0
#580
0&
b1100 ,
b11011 -
#590
1&
#594
b1100 !
b1100 0
#600
0&
b1101 ,
b11100 -
#610
1&
#614
b1101 !
b1101 0
#620
0&
b1110 ,
b11101 -
#630
1&
#634
b1110 !
b1110 0
#640
0&
0'
0(
b11110 -
#650
1&
#660
0&
b1101 ,
b0 -
1(
#670
1&
#674
b1101 !
b1101 0
#680
0&
b1100 ,
b1 -
#690
1&
#694
b1100 !
b1100 0
#700
0&
b1011 ,
b10 -
#710
1&
#714
b1011 !
b1011 0
#720
0&
b1010 ,
b11 -
#730
1&
#734
b1010 !
b1010 0
#740
0&
b1001 ,
b100 -
#750
1&
#754
b1001 !
b1001 0
#760
0&
b1000 ,
b101 -
#770
1&
#774
b1000 !
b1000 0
#780
0&
b111 ,
b110 -
#790
1&
#794
b111 !
b111 0
#800
0&
b110 ,
b111 -
#810
1&
#814
b110 !
b110 0
#820
0&
b101 ,
b1000 -
#830
1&
#834
b101 !
b101 0
#840
0&
b100 ,
b1001 -
#850
1&
#854
b100 !
b100 0
#860
0&
b11 ,
b1010 -
#870
1&
#874
b11 !
b11 0
#880
0&
b10 ,
b1011 -
#890
1&
#894
b10 !
b10 0
#900
0&
b1 ,
b1100 -
#910
1&
#914
b1 !
b1 0
#920
0&
b0 ,
b1101 -
#930
1&
#934
b0 !
b0 0
#940
0&
b1111 ,
b1110 -
#950
1&
#954
b1111 !
b1111 0
#960
0&
b1110 ,
b1111 -
#970
1&
#974
b1110 !
b1110 0
#980
0&
b1101 ,
b10000 -
#990
1&
#994
b1101 !
b1101 0
#1000
0&
b1100 ,
b10001 -
#1010
1&
#1014
b1100 !
b1100 0
#1020
0&
b1011 ,
b10010 -
#1030
1&
#1034
b1011 !
b1011 0
#1040
0&
b1010 ,
b10011 -
#1050
1&
#1054
b1010 !
b1010 0
#1060
0&
b1001 ,
b10100 -
#1070
1&
#1074
b1001 !
b1001 0
#1080
0&
b1000 ,
b10101 -
#1090
1&
#1094
b1000 !
b1000 0
#1100
0&
b111 ,
b10110 -
#1110
1&
#1114
b111 !
b111 0
#1120
0&
b110 ,
b10111 -
#1130
1&
#1134
b110 !
b110 0
#1140
0&
b101 ,
b11000 -
#1150
1&
#1154
b101 !
b101 0
#1160
0&
b100 ,
b11001 -
#1170
1&
#1174
b100 !
b100 0
#1180
0&
b11 ,
b11010 -
#1190
1&
#1194
b11 !
b11 0
#1200
0&
b10 ,
b11011 -
#1210
1&
#1214
b10 !
b10 0
#1220
0&
b1 ,
b11100 -
#1230
1&
#1234
b1 !
b1 0
#1240
0&
b0 ,
b11101 -
#1250
1&
#1254
b0 !
b0 0
#1260
0&
b1111 ,
b11110 -
#1270
1&
#1274
b1111 !
b1111 0
#1280
0&
b1110 ,
b11111 -
#1290
1&
#1294
b1110 !
b1110 0
#1300
0&
0(
b0 -
#1310
1&
#1320
0&
b1 -
#1330
1&
#1340
0&
b10 -
#1350
1&
#1360
0&
b11 -
#1370
1&
#1380
0&
b100 -
#1390
1&
#1400
0&
b101 -
#1410
1&
#1420
0&
b110 -
#1430
1&
#1440
0&
b111 -
#1450
1&
#1460
0&
b1000 -
#1470
1&
#1480
0&
b1001 -
#1490
1&
#1500
0&
b1010 -
#1510
1&
#1520
0&
b1011 -
#1530
1&
#1540
0&
b1100 -
#1550
1&
#1560
0&
b1101 -
#1570
1&
#1580
0&
b1110 -
#1590
1&
#1600
0&
b1111 -
#1610
1&
#1620
0&
b1111 ,
b1111 +
b1111 .
1)
1(
b10000 -
#1630
b1111 !
b1111 0
1&
#1640
0&
b1110 ,
b0 -
0)
b0 +
b0 .
#1650
1&
#1654
b1110 !
b1110 0
#1660
0&
b1101 ,
b1 -
#1670
1&
#1674
b1101 !
b1101 0
#1680
0&
b1100 ,
b10 -
#1690
1&
#1694
b1100 !
b1100 0
#1700
0&
b1011 ,
b11 -
#1710
1&
#1714
b1011 !
b1011 0
#1720
0&
b1010 ,
b100 -
#1730
1&
#1734
b1010 !
b1010 0
#1740
0&
b1001 ,
b101 -
#1750
1&
#1754
b1001 !
b1001 0
#1760
0&
b1000 ,
b110 -
#1770
1&
#1774
b1000 !
b1000 0
#1780
0&
b111 ,
b111 -
#1790
1&
#1794
b111 !
b111 0
#1800
0&
b110 ,
b1000 -
#1810
1&
#1814
b110 !
b110 0
#1820
0&
b101 ,
b1001 -
#1830
1&
#1834
b101 !
b101 0
#1840
0&
b100 ,
b1010 -
#1850
1&
#1854
b100 !
b100 0
#1860
0&
b11 ,
b1011 -
#1870
1&
#1874
b11 !
b11 0
#1880
0&
b10 ,
b1100 -
#1890
1&
#1894
b10 !
b10 0
#1900
0&
b1 ,
b1101 -
#1910
1&
#1914
b1 !
b1 0
#1920
0&
b0 ,
b1110 -
#1930
1&
#1934
b0 !
b0 0
#1940
0&
b1111 ,
b1111 -
#1950
1&
#1954
b1111 !
b1111 0
#1960
0&
0(
b10000 -
