results/counter_tff_sync_tb.vcd
$date
	Thu Dec 25 17:28:31 2025
$end
$version
	Icarus Verilog
$end
$timescale
	1ns
$end
$scope module counter_tb $end
$var wire 4 ! count [3:0] $end
$var parameter 64 " TYPE $end
$var parameter 32 # T_CLK $end
$var parameter 64 $ T_CYC $end
$var parameter 32 % n $end
$var reg 1 & clk $end
$var reg 1 ' count_up $end
$var reg 1 ( enable $end
$var reg 1 ) load $end
$var reg 1 * res_n $end
$var reg 4 + set [3:0] $end
$var integer 32 , expected [31:0] $end
$var integer 32 - i [31:0] $end
$scope begin genblk1 $end
$scope module dut $end
$var wire 1 & clk $end
$var wire 1 ' count_up $end
$var wire 1 ( en $end
$var wire 1 * res_n $end
$var wire 4 . en_and [3:0] $end
$var wire 4 / count [3:0] $end
$var parameter 32 0 n $end
$scope begin genblk1[1] $end
$var parameter 2 1 i $end
$scope module ff_i $end
$var wire 1 2 T $end
$var wire 1 & clk $end
$var wire 1 * res_n $end
$var reg 1 3 Q $end
$upscope $end
$upscope $end
$scope begin genblk1[2] $end
$var parameter 3 4 i $end
$scope module ff_i $end
$var wire 1 5 T $end
$var wire 1 & clk $end
$var wire 1 * res_n $end
$var reg 1 6 Q $end
$upscope $end
$upscope $end
$scope begin genblk1[3] $end
$var parameter 3 7 i $end
$scope module ff_i $end
$var wire 1 8 T $end
$var wire 1 & clk $end
$var wire 1 * res_n $end
$var reg 1 9 Q $end
$upscope $end
$upscope $end
$scope module ff_0 $end
$var wire 1 ( T $end
$var wire 1 & clk $end
$var wire 1 * res_n $end
$var reg 1 : Q $end
$upscope $end
$upscope $end
$upscope $end
$upscope $end
$enddefinitions $end
$comment Show the parameter values. $end
$dumpall
b11 7
b10 4
b1 1
b100 0
b100 %
b10100 $
b1010 #
b111010001100110011001100101111101110011011110010110111001100011 "
$end
#0
$dumpvars
x:
x9
08
x6
05
x3
02
bx /
b0 .
bx -
bx ,
bx +
1*
x)
0(
1'
0&
bx !
$end
#10
1&
#20
b0 !
b0 /
0:
09
06
03
0&
b0 ,
0)
0*
#30
1&
#40
b1 .
0&
b1 ,
b0 -
1(
1*
#50
12
b11 .
b1 !
b1 /
1:
1&
#60
0&
b10 ,
b1 -
#70
05
02
b1 .
b10 !
b10 /
13
0:
1&
#80
0&
b11 ,
b10 -
#90
15
12
b111 .
b11 !
b11 /
1:
1&
#100
0&
b100 ,
b11 -
#110
08
05
02
b1 .
b100 !
b100 /
03
16
0:
1&
#120
0&
b101 ,
b100 -
#130
12
b11 .
b101 !
b101 /
1:
1&
#140
0&
b110 ,
b101 -
#150
08
05
02
b1 .
b110 !
b110 /
13
0:
1&
#160
0&
b111 ,
b110 -
#170
18
15
12
b1111 .
b111 !
b111 /
1:
1&
#180
0&
b1000 ,
b111 -
#190
08
05
02
b1 .
b1000 !
b1000 /
03
06
19
0:
1&
#200
0&
b1001 ,
b1000 -
#210
12
b11 .
b1001 !
b1001 /
1:
1&
#220
0&
b1010 ,
b1001 -
#230
05
02
b1 .
b1010 !
b1010 /
13
0:
1&
#240
0&
b1011 ,
b1010 -
#250
15
12
b111 .
b1011 !
b1011 /
1:
1&
#260
0&
b1100 ,
b1011 -
#270
08
05
02
b1 .
b1100 !
b1100 /
03
16
0:
1&
#280
0&
b1101 ,
b1100 -
#290
12
b11 .
b1101 !
b1101 /
1:
1&
#300
0&
b1110 ,
b1101 -
#310
08
05
02
b1 .
b1110 !
b1110 /
13
0:
1&
#320
0&
b1111 ,
b1110 -
#330
18
15
12
b1111 .
b1111 !
b1111 /
1:
1&
#340
0&
b0 ,
b1111 -
#350
08
05
02
b1 .
b0 !
b0 /
03
06
09
0:
1&
#360
0&
b1 ,
b10000 -
#370
12
b11 .
b1 !
b1 /
1:
1&
#380
0&
b10 ,
b10001 -
#390
05
02
b1 .
b10 !
b10 /
13
0:
1&
#400
0&
b11 ,
b10010 -
#410
15
12
b111 .
b11 !
b11 /
1:
1&
#420
0&
b100 ,
b10011 -
#430
08
05
02
b1 .
b100 !
b100 /
03
16
0:
1&
#440
0&
b101 ,
b10100 -
#450
12
b11 .
b101 !
b101 /
1:
1&
#460
0&
b110 ,
b10101 -
#470
08
05
02
b1 .
b110 !
b110 /
13
0:
1&
#480
0&
b111 ,
b10110 -
#490
18
15
12
b1111 .
b111 !
b111 /
1:
1&
#500
0&
b1000 ,
b10111 -
#510
08
05
02
b1 .
b1000 !
b1000 /
03
06
19
0:
1&
#520
0&
b1001 ,
b11000 -
#530
12
b11 .
b1001 !
b1001 /
1:
1&
#540
0&
b1010 ,
b11001 -
#550
05
02
b1 .
b1010 !
b1010 /
13
0:
1&
#560
0&
b1011 ,
b11010 -
#570
15
12
b111 .
b1011 !
b1011 /
1:
1&
#580
0&
b1100 ,
b11011 -
#590
08
05
02
b1 .
b1100 !
b1100 /
03
16
0:
1&
#600
0&
b1101 ,
b11100 -
#610
12
b11 .
b1101 !
b1101 /
1:
1&
#620
0&
b1110 ,
b11101 -
#630
08
05
02
b1 .
b1110 !
b1110 /
13
0:
1&
#640
b0 .
0&
0'
0(
b11110 -
#650
1&
#660
12
b11 .
0&
b1101 ,
b0 -
1(
#670
05
02
b1 .
b1101 !
b1101 /
03
1:
1&
#680
0&
b1100 ,
b1 -
#690
15
12
b111 .
b1100 !
b1100 /
0:
1&
#700
0&
b1011 ,
b10 -
#710
08
05
02
b1 .
b1011 !
b1011 /
13
06
1:
1&
#720
0&
b1010 ,
b11 -
#730
12
b11 .
b1010 !
b1010 /
0:
1&
#740
0&
b1001 ,
b100 -
#750
08
05
02
b1 .
b1001 !
b1001 /
03
1:
1&
#760
0&
b1000 ,
b101 -
#770
18
15
12
b1111 .
b1000 !
b1000 /
0:
1&
#780
0&
b111 ,
b110 -
#790
08
05
02
b1 .
b111 !
b111 /
13
16
09
1:
1&
#800
0&
b110 ,
b111 -
#810
12
b11 .
b110 !
b110 /
0:
1&
#820
0&
b101 ,
b1000 -
#830
05
02
b1 .
b101 !
b101 /
03
1:
1&
#840
0&
b100 ,
b1001 -
#850
15
12
b111 .
b100 !
b100 /
0:
1&
#860
0&
b11 ,
b1010 -
#870
08
05
02
b1 .
b11 !
b11 /
13
06
1:
1&
#880
0&
b10 ,
b1011 -
#890
12
b11 .
b10 !
b10 /
0:
1&
#900
0&
b1 ,
b1100 -
#910
08
05
02
b1 .
b1 !
b1 /
03
1:
1&
#920
0&
b0 ,
b1101 -
#930
18
15
12
b1111 .
b0 !
b0 /
0:
1&
#940
0&
b1111 ,
b1110 -
#950
08
05
02
b1 .
b1111 !
b1111 /
13
16
19
1:
1&
#960
0&
b1110 ,
b1111 -
#970
12
b11 .
b1110 !
b1110 /
0:
1&
#980
0&
b1101 ,
b10000 -
#990
05
02
b1 .
b1101 !
b1101 /
03
1:
1&
#1000
0&
b1100 ,
b10001 -
#1010
15
12
b111 .
b1100 !
b1100 /
0:
1&
#1020
0&
b1011 ,
b10010 -
#1030
08
05
02
b1 .
b1011 !
b1011 /
13
06
1:
1&
#1040
0&
b1010 ,
b10011 -
#1050
12
b11 .
b1010 !
b1010 /
0:
1&
#1060
0&
b1001 ,
b10100 -
#1070
08
05
02
b1 .
b1001 !
b1001 /
03
1:
1&
#1080
0&
b1000 ,
b10101 -
#1090
18
15
12
b1111 .
b1000 !
b1000 /
0:
1&
#1100
0&
b111 ,
b10110 -
#1110
08
05
02
b1 .
b111 !
b111 /
13
16
09
1:
1&
#1120
0&
b110 ,
b10111 -
#1130
12
b11 .
b110 !
b110 /
0:
1&
#1140
0&
b101 ,
b11000 -
#1150
05
02
b1 .
b101 !
b101 /
03
1:
1&
#1160
0&
b100 ,
b11001 -
#1170
15
12
b111 .
b100 !
b100 /
0:
1&
#1180
0&
b11 ,
b11010 -
#1190
08
05
02
b1 .
b11 !
b11 /
13
06
1:
1&
#1200
0&
b10 ,
b11011 -
#1210
12
b11 .
b10 !
b10 /
0:
1&
#1220
0&
b1 ,
b11100 -
#1230
08
05
02
b1 .
b1 !
b1 /
03
1:
1&
#1240
0&
b0 ,
b11101 -
#1250
18
15
12
b1111 .
b0 !
b0 /
0:
1&
#1260
08
05
02
b0 .
0&
0(
b0 -
#1270
1&
#1280
0&
b1 -
#1290
1&
#1300
0&
b10 -
#1310
1&
#1320
0&
b11 -
#1330
1&
#1340
0&
b100 -
#1350
1&
#1360
0&
b101 -
#1370
1&
#1380
0&
b110 -
#1390
1&
#1400
0&
b111 -
#1410
1&
#1420
0&
b1000 -
#1430
1&
#1440
0&
b1001 -
#1450
1&
#1460
0&
b1010 -
#1470
1&
#1480
0&
b1011 -
#1490
1&
#1500
0&
b1100 -
#1510
1&
#1520
0&
b1101 -
#1530
1&
#1540
0&
b1110 -
#1550
1&
#1560
0&
b1111 -
#1570
1&
#1580
0&
0(
b10000 -
